,Ch1,Ch2,Ch3,Ch4
0,0.0,0.0,0.0,200.0
1,0.0,0.0,0.0,200.0
2,0.0,0.0,0.0,200.0
3,0.0,0.0,0.0,200.0
4,0.0,0.0,0.0,200.0
5,0.0,0.0,0.0,200.0
6,0.0,0.0,0.0,200.0
7,0.0,0.0,0.0,200.0
8,0.0,0.0,0.0,200.0
9,0.0,0.0,0.0,200.0
10,0.0,0.0,0.0,200.0
11,0.0,0.0,0.0,200.0
12,0.0,0.0,0.0,200.0
13,0.0,0.0,0.0,200.0
14,0.0,0.0,0.0,200.0
15,0.0,0.0,0.0,200.0
16,0.0,0.0,0.0,200.0
17,0.0,0.0,0.0,200.0
18,0.0,0.0,0.0,200.0
19,0.0,0.0,0.0,200.0
20,0.0,0.0,0.0,200.0
21,0.0,0.0,0.0,200.0
22,0.0,0.0,0.0,200.0
23,0.0,0.0,0.0,200.0
24,0.0,0.0,0.0,200.0
25,0.0,0.0,0.0,200.0
26,0.0,0.0,0.0,200.0
27,0.0,0.0,0.0,200.0
28,0.0,0.0,0.0,200.0
29,0.0,0.0,0.0,200.0
30,0.0,0.0,0.0,200.0
31,0.0,0.0,0.0,200.0
32,0.0,0.0,0.0,200.0
33,0.0,0.0,0.0,200.0
34,0.0,0.0,0.0,200.0
35,0.0,0.0,0.0,200.0
36,0.0,0.0,0.0,200.0
37,0.0,0.0,0.0,200.0
38,0.0,0.0,0.0,200.0
39,0.0,0.0,0.0,200.0
40,0.0,0.0,0.0,200.0
41,0.0,0.0,0.0,200.0
42,0.0,0.0,0.0,200.0
43,0.0,0.0,0.0,200.0
44,0.0,0.0,0.0,200.0
45,0.0,0.0,0.0,200.0
46,0.0,0.0,0.0,200.0
47,0.0,0.0,0.0,200.0
48,0.0,0.0,0.0,200.0
49,0.0,0.0,0.0,200.0
50,0.0,0.0,0.0,200.0
51,0.0,0.0,0.0,200.0
52,0.0,0.0,0.0,200.0
53,0.0,0.0,0.0,200.0
54,0.0,0.0,0.0,200.0
55,0.0,0.0,0.0,200.0
56,0.0,0.0,0.0,200.0
57,0.0,0.0,0.0,200.0
58,0.0,0.0,0.0,200.0
59,0.0,0.0,0.0,200.0
60,0.0,0.0,0.0,200.0
61,0.0,0.0,0.0,200.0
62,0.0,0.0,0.0,200.0
63,0.0,0.0,0.0,200.0
64,0.0,0.0,0.0,200.0
65,0.0,0.0,0.0,200.0
66,0.0,0.0,0.0,200.0
67,0.0,0.0,0.0,200.0
68,0.0,0.0,0.0,200.0
69,0.0,0.0,0.0,200.0
70,0.0,0.0,0.0,200.0
71,0.0,0.0,0.0,200.0
72,0.0,0.0,0.0,200.0
73,0.0,0.0,0.0,200.0
74,0.0,0.0,0.0,200.0
75,0.0,0.0,0.0,200.0
76,0.0,0.0,0.0,200.0
77,0.0,0.0,0.0,200.0
78,0.0,0.0,0.0,200.0
79,0.0,0.0,0.0,200.0
80,0.0,0.0,0.0,200.0
81,0.0,0.0,0.0,200.0
82,0.0,0.0,0.0,200.0
83,0.0,0.0,0.0,200.0
84,0.0,0.0,0.0,200.0
85,0.0,0.0,0.0,200.0
86,0.0,0.0,0.0,200.0
87,0.0,0.0,0.0,200.0
88,0.0,0.0,0.0,200.0
89,0.0,0.0,0.0,200.0
90,0.0,0.0,0.0,200.0
91,0.0,0.0,0.0,200.0
92,0.0,0.0,0.0,200.0
93,0.0,0.0,0.0,200.0
94,0.0,0.0,0.0,200.0
95,0.0,0.0,0.0,200.0
96,0.0,0.0,0.0,200.0
97,0.0,0.0,0.0,200.0
98,0.0,0.0,0.0,200.0
99,0.0,0.0,0.0,200.0
100,0.0,0.0,0.0,200.0
101,0.0,0.0,0.0,200.0
102,0.0,0.0,0.0,200.0
103,0.0,0.0,0.0,200.0
104,0.0,0.0,0.0,200.0
105,0.0,0.0,0.0,200.0
106,0.0,0.0,0.0,200.0
107,0.0,0.0,0.0,200.0
108,0.0,0.0,0.0,200.0
109,0.0,0.0,0.0,200.0
110,0.0,0.0,0.0,200.0
111,0.0,0.0,0.0,200.0
112,0.0,0.0,0.0,200.0
113,0.0,0.0,0.0,200.0
114,0.0,0.0,0.0,200.0
115,0.0,0.0,0.0,200.0
116,0.0,0.0,0.0,200.0
117,0.0,0.0,0.0,200.0
118,0.0,0.0,0.0,200.0
119,0.0,0.0,0.0,200.0
120,0.0,0.0,0.0,200.0
121,0.0,0.0,0.0,200.0
122,0.0,0.0,0.0,200.0
123,0.0,0.0,0.0,200.0
124,0.0,0.0,0.0,200.0
125,0.0,0.0,0.0,200.0
126,0.0,0.0,0.0,200.0
127,0.0,0.0,0.0,200.0
128,0.0,0.0,0.0,200.0
129,0.0,0.0,0.0,200.0
130,0.0,0.0,0.0,200.0
131,0.0,0.0,0.0,200.0
132,0.0,0.0,0.0,200.0
133,0.0,0.0,0.0,200.0
134,0.0,0.0,0.0,200.0
135,0.0,0.0,0.0,200.0
136,0.0,0.0,0.0,200.0
137,0.0,0.0,0.0,200.0
138,0.0,0.0,0.0,200.0
139,0.0,0.0,0.0,200.0
140,0.0,0.0,0.0,200.0
141,0.0,0.0,0.0,200.0
142,0.0,0.0,0.0,200.0
143,0.0,0.0,0.0,200.0
144,0.0,0.0,0.0,200.0
145,0.0,0.0,0.0,200.0
146,0.0,0.0,0.0,200.0
147,0.0,0.0,0.0,200.0
148,0.0,0.0,0.0,200.0
149,0.0,0.0,0.0,200.0
150,0.0,0.0,0.0,200.0
151,0.0,0.0,0.0,200.0
152,0.0,0.0,0.0,200.0
153,0.0,0.0,0.0,200.0
154,0.0,0.0,0.0,200.0
155,0.0,0.0,0.0,200.0
156,0.0,0.0,0.0,200.0
157,0.0,0.0,0.0,200.0
158,0.0,0.0,0.0,200.0
159,0.0,0.0,0.0,200.0
160,0.0,0.0,0.0,200.0
161,0.0,0.0,0.0,200.0
162,0.0,0.0,0.0,200.0
163,0.0,0.0,0.0,200.0
164,0.0,0.0,0.0,200.0
165,0.0,0.0,0.0,200.0
166,0.0,0.0,0.0,200.0
167,0.0,0.0,0.0,200.0
168,0.0,0.0,0.0,200.0
169,0.0,0.0,0.0,200.0
170,0.0,0.0,0.0,200.0
171,0.0,0.0,0.0,200.0
172,0.0,0.0,0.0,200.0
173,0.0,0.0,0.0,200.0
174,0.0,0.0,0.0,200.0
175,0.0,0.0,0.0,200.0
176,0.0,0.0,0.0,200.0
177,0.0,0.0,0.0,200.0
178,0.0,0.0,0.0,200.0
179,0.0,0.0,0.0,200.0
180,0.0,0.0,0.0,200.0
181,0.0,0.0,0.0,200.0
182,0.0,0.0,0.0,200.0
183,0.0,0.0,0.0,200.0
184,0.0,0.0,0.0,200.0
185,0.0,0.0,0.0,200.0
186,0.0,0.0,0.0,200.0
187,0.0,0.0,0.0,200.0
188,0.0,0.0,0.0,200.0
189,0.0,0.0,0.0,200.0
190,0.0,0.0,0.0,200.0
191,0.0,0.0,0.0,200.0
192,0.0,0.0,0.0,200.0
193,0.0,0.0,0.0,200.0
194,0.0,0.0,0.0,200.0
195,0.0,0.0,0.0,200.0
196,0.0,0.0,0.0,200.0
197,0.0,0.0,0.0,200.0
198,0.0,0.0,0.0,200.0
199,0.0,0.0,0.0,200.0
200,0.0,0.0,0.0,200.0
201,0.0,0.0,0.0,200.0
202,0.0,0.0,0.0,200.0
203,0.0,0.0,0.0,200.0
204,0.0,0.0,0.0,200.0
205,0.0,0.0,0.0,200.0
206,0.0,0.0,0.0,200.0
207,0.0,0.0,0.0,200.0
208,0.0,0.0,0.0,200.0
209,0.0,0.0,0.0,200.0
210,0.0,0.0,0.0,200.0
211,0.0,0.0,0.0,200.0
212,0.0,0.0,0.0,200.0
213,0.0,0.0,0.0,200.0
214,0.0,0.0,0.0,200.0
215,0.0,0.0,0.0,200.0
216,0.0,0.0,0.0,200.0
217,0.0,0.0,0.0,200.0
218,0.0,0.0,0.0,200.0
219,0.0,0.0,0.0,200.0
220,0.0,0.0,0.0,200.0
221,0.0,0.0,0.0,200.0
222,0.0,0.0,0.0,200.0
223,0.0,0.0,0.0,200.0
224,0.0,0.0,0.0,200.0
225,0.0,0.0,0.0,200.0
226,0.0,0.0,0.0,200.0
227,0.0,0.0,0.0,200.0
228,0.0,0.0,0.0,200.0
229,0.0,0.0,0.0,200.0
230,0.0,0.0,0.0,200.0
231,0.0,0.0,0.0,200.0
232,0.0,0.0,0.0,200.0
233,0.0,0.0,0.0,200.0
234,0.0,0.0,0.0,200.0
235,0.0,0.0,0.0,200.0
236,0.0,0.0,0.0,200.0
237,0.0,0.0,0.0,200.0
238,0.0,0.0,0.0,200.0
239,0.0,0.0,0.0,200.0
240,0.0,0.0,0.0,200.0
241,0.0,0.0,0.0,200.0
242,0.0,0.0,0.0,200.0
243,0.0,0.0,0.0,200.0
244,0.0,0.0,0.0,200.0
245,0.0,0.0,0.0,200.0
246,0.0,0.0,0.0,200.0
247,0.0,0.0,0.0,200.0
248,0.0,0.0,0.0,200.0
249,0.0,0.0,0.0,200.0
250,0.0,0.0,0.0,200.0
251,0.8032128514056225,0.0,0.0,199.19678714859438
252,1.606425702811245,0.0,0.0,198.39357429718876
253,2.4096385542168672,0.0,0.0,197.59036144578315
254,3.21285140562249,0.0,0.0,196.7871485943775
255,4.016064257028113,0.0,0.0,195.98393574297188
256,4.8192771084337345,0.0,0.0,195.18072289156626
257,5.622489959839357,0.0,0.0,194.37751004016064
258,6.42570281124498,0.0,0.0,193.57429718875503
259,7.228915662650603,0.0,0.0,192.7710843373494
260,8.032128514056225,0.0,0.0,191.96787148594376
261,8.835341365461847,0.0,0.0,191.16465863453814
262,9.638554216867469,0.0,0.0,190.36144578313252
263,10.441767068273093,0.0,0.0,189.5582329317269
264,11.244979919678714,0.0,0.0,188.7550200803213
265,12.048192771084338,0.0,0.0,187.95180722891567
266,12.85140562248996,0.0,0.0,187.14859437751005
267,13.654618473895582,0.0,0.0,186.3453815261044
268,14.457831325301205,0.0,0.0,185.5421686746988
269,15.261044176706827,0.0,0.0,184.73895582329317
270,16.06425702811245,0.0,0.0,183.93574297188755
271,16.867469879518072,0.0,0.0,183.13253012048193
272,17.670682730923694,0.0,0.0,182.3293172690763
273,18.473895582329316,0.0,0.0,181.5261044176707
274,19.277108433734938,0.0,0.0,180.72289156626505
275,20.080321285140563,0.0,0.0,179.91967871485943
276,20.883534136546185,0.0,0.0,179.1164658634538
277,21.686746987951807,0.0,0.0,178.3132530120482
278,22.48995983935743,0.0,0.0,177.51004016064257
279,23.29317269076305,0.0,0.0,176.70682730923696
280,24.096385542168676,0.0,0.0,175.90361445783134
281,24.899598393574298,0.0,0.0,175.1004016064257
282,25.70281124497992,0.0,0.0,174.29718875502007
283,26.50602409638554,0.0,0.0,173.49397590361446
284,27.309236947791163,0.0,0.0,172.69076305220884
285,28.11244979919679,0.0,0.0,171.88755020080322
286,28.91566265060241,0.0,0.0,171.0843373493976
287,29.718875502008032,0.0,0.0,170.28112449799198
288,30.522088353413654,0.0,0.0,169.47791164658634
289,31.325301204819276,0.0,0.0,168.67469879518072
290,32.1285140562249,0.0,0.0,167.8714859437751
291,32.93172690763052,0.0,0.0,167.06827309236948
292,33.734939759036145,0.0,0.0,166.26506024096386
293,34.53815261044177,0.0,0.0,165.46184738955822
294,35.34136546184739,0.0,0.0,164.65863453815263
295,36.144578313253014,0.0,0.0,163.85542168674698
296,36.94779116465863,0.0,0.0,163.05220883534136
297,37.75100401606426,0.0,0.0,162.24899598393574
298,38.554216867469876,0.0,0.0,161.44578313253012
299,39.3574297188755,0.0,0.0,160.6425702811245
300,40.16064257028113,0.0,0.0,159.83935742971886
301,40.963855421686745,0.0,0.0,159.03614457831327
302,41.76706827309237,0.0,0.0,158.23293172690762
303,42.57028112449799,0.0,0.0,157.429718875502
304,43.373493975903614,0.0,0.0,156.6265060240964
305,44.17670682730924,0.0,0.0,155.82329317269077
306,44.97991967871486,0.0,0.0,155.02008032128515
307,45.78313253012048,0.0,0.0,154.2168674698795
308,46.5863453815261,0.0,0.0,153.4136546184739
309,47.389558232931726,0.0,0.0,152.61044176706827
310,48.19277108433735,0.0,0.0,151.80722891566265
311,48.99598393574297,0.0,0.0,151.00401606425703
312,49.799196787148595,0.0,0.0,150.2008032128514
313,50.602409638554214,0.0,0.0,149.3975903614458
314,51.40562248995984,0.0,0.0,148.59437751004015
315,52.208835341365464,0.0,0.0,147.79116465863453
316,53.01204819277108,0.0,0.0,146.9879518072289
317,53.81526104417671,0.0,0.0,146.1847389558233
318,54.618473895582326,0.0,0.0,145.38152610441767
319,55.42168674698795,0.0,0.0,144.57831325301206
320,56.22489959839358,0.0,0.0,143.77510040160644
321,57.028112449799195,0.0,0.0,142.9718875502008
322,57.83132530120482,0.0,0.0,142.16867469879517
323,58.63453815261044,0.0,0.0,141.36546184738955
324,59.437751004016064,0.0,0.0,140.56224899598394
325,60.24096385542169,0.0,0.0,139.75903614457832
326,61.04417670682731,0.0,0.0,138.9558232931727
327,61.84738955823293,0.0,0.0,138.15261044176708
328,62.65060240963855,0.0,0.0,137.34939759036143
329,63.45381526104418,0.0,0.0,136.54618473895582
330,64.2570281124498,0.0,0.0,135.7429718875502
331,65.06024096385542,0.0,0.0,134.93975903614458
332,65.86345381526104,0.0,0.0,134.13654618473896
333,66.66666666666667,0.0,0.0,133.33333333333331
334,67.46987951807229,0.0,0.0,132.53012048192772
335,68.27309236947791,0.0,0.0,131.72690763052208
336,69.07630522088354,0.0,0.0,130.92369477911646
337,69.87951807228916,0.0,0.0,130.12048192771084
338,70.68273092369478,0.0,0.0,129.31726907630522
339,71.4859437751004,0.0,0.0,128.5140562248996
340,72.28915662650603,0.0,0.0,127.71084337349397
341,73.09236947791165,0.0,0.0,126.90763052208835
342,73.89558232931726,0.0,0.0,126.10441767068274
343,74.6987951807229,0.0,0.0,125.3012048192771
344,75.50200803212851,0.0,0.0,124.49799196787149
345,76.30522088353413,0.0,0.0,123.69477911646587
346,77.10843373493975,0.0,0.0,122.89156626506025
347,77.91164658634538,0.0,0.0,122.08835341365462
348,78.714859437751,0.0,0.0,121.285140562249
349,79.51807228915662,0.0,0.0,120.48192771084338
350,80.32128514056225,0.0,0.0,119.67871485943775
351,81.12449799196787,0.0,0.0,118.87550200803213
352,81.92771084337349,0.0,0.0,118.07228915662651
353,82.73092369477912,0.0,0.0,117.26907630522088
354,83.53413654618474,0.0,0.0,116.46586345381526
355,84.33734939759036,0.0,0.0,115.66265060240964
356,85.14056224899598,0.0,0.0,114.85943775100402
357,85.94377510040161,0.0,0.0,114.05622489959839
358,86.74698795180723,0.0,0.0,113.25301204819277
359,87.55020080321285,0.0,0.0,112.44979919678715
360,88.35341365461848,0.0,0.0,111.64658634538152
361,89.1566265060241,0.0,0.0,110.8433734939759
362,89.95983935742971,0.0,0.0,110.04016064257029
363,90.76305220883535,0.0,0.0,109.23694779116465
364,91.56626506024097,0.0,0.0,108.43373493975903
365,92.36947791164658,0.0,0.0,107.63052208835342
366,93.1726907630522,0.0,0.0,106.8273092369478
367,93.97590361445783,0.0,0.0,106.02409638554217
368,94.77911646586345,0.0,0.0,105.22088353413655
369,95.58232931726907,0.0,0.0,104.41767068273093
370,96.3855421686747,0.0,0.0,103.6144578313253
371,97.18875502008032,0.0,0.0,102.81124497991968
372,97.99196787148594,0.0,0.0,102.00803212851406
373,98.79518072289157,0.0,0.0,101.20481927710843
374,99.59839357429719,0.0,0.0,100.40160642570281
375,100.40160642570281,0.0,0.0,99.59839357429719
376,101.20481927710843,0.0,0.0,98.79518072289157
377,102.00803212851406,0.0,0.0,97.99196787148594
378,102.81124497991968,0.0,0.0,97.18875502008032
379,103.6144578313253,0.0,0.0,96.3855421686747
380,104.41767068273093,0.0,0.0,95.58232931726907
381,105.22088353413655,0.0,0.0,94.77911646586345
382,106.02409638554217,0.0,0.0,93.97590361445783
383,106.82730923694778,0.0,0.0,93.17269076305222
384,107.63052208835342,0.0,0.0,92.36947791164658
385,108.43373493975903,0.0,0.0,91.56626506024097
386,109.23694779116465,0.0,0.0,90.76305220883535
387,110.04016064257029,0.0,0.0,89.95983935742971
388,110.8433734939759,0.0,0.0,89.1566265060241
389,111.64658634538152,0.0,0.0,88.35341365461848
390,112.44979919678715,0.0,0.0,87.55020080321285
391,113.25301204819277,0.0,0.0,86.74698795180723
392,114.05622489959839,0.0,0.0,85.94377510040161
393,114.85943775100401,0.0,0.0,85.14056224899599
394,115.66265060240964,0.0,0.0,84.33734939759036
395,116.46586345381526,0.0,0.0,83.53413654618474
396,117.26907630522088,0.0,0.0,82.73092369477912
397,118.07228915662651,0.0,0.0,81.92771084337349
398,118.87550200803213,0.0,0.0,81.12449799196787
399,119.67871485943775,0.0,0.0,80.32128514056225
400,0.0,0.0,0.0,200.0
401,0.0,0.0,0.0,200.0
402,0.0,0.0,0.0,200.0
403,0.0,0.0,0.0,200.0
404,0.0,0.0,0.0,200.0
405,0.0,0.0,0.0,200.0
406,0.0,0.0,0.0,200.0
407,0.0,0.0,0.0,200.0
408,0.0,0.0,0.0,200.0
409,0.0,0.0,0.0,200.0
410,0.0,0.0,0.0,200.0
411,0.0,0.0,0.0,200.0
412,0.0,0.0,0.0,200.0
413,0.0,0.0,0.0,200.0
414,0.0,0.0,0.0,200.0
415,0.0,0.0,0.0,200.0
416,0.0,0.0,0.0,200.0
417,0.0,0.0,0.0,200.0
418,0.0,0.0,0.0,200.0
419,0.0,0.0,0.0,200.0
420,0.0,0.0,0.0,200.0
421,0.0,0.0,0.0,200.0
422,0.0,0.0,0.0,200.0
423,0.0,0.0,0.0,200.0
424,0.0,0.0,0.0,200.0
425,0.0,0.0,0.0,200.0
426,0.0,0.0,0.0,200.0
427,0.0,0.0,0.0,200.0
428,0.0,0.0,0.0,200.0
429,0.0,0.0,0.0,200.0
430,0.0,0.0,0.0,200.0
431,0.0,0.0,0.0,200.0
432,0.0,0.0,0.0,200.0
433,0.0,0.0,0.0,200.0
434,0.0,0.0,0.0,200.0
435,0.0,0.0,0.0,200.0
436,0.0,0.0,0.0,200.0
437,0.0,0.0,0.0,200.0
438,0.0,0.0,0.0,200.0
439,0.0,0.0,0.0,200.0
440,0.0,0.0,0.0,200.0
441,0.0,0.0,0.0,200.0
442,0.0,0.0,0.0,200.0
443,0.0,0.0,0.0,200.0
444,0.0,0.0,0.0,200.0
445,0.0,0.0,0.0,200.0
446,0.0,0.0,0.0,200.0
447,0.0,0.0,0.0,200.0
448,0.0,0.0,0.0,200.0
449,0.0,0.0,0.0,200.0
450,160.6425702811245,0.0,0.0,39.357429718875494
451,161.44578313253012,0.0,0.0,38.554216867469876
452,162.24899598393574,0.0,0.0,37.75100401606426
453,163.05220883534136,0.0,0.0,36.94779116465864
454,163.85542168674698,0.0,0.0,36.14457831325302
455,164.6586345381526,0.0,0.0,35.3413654618474
456,165.46184738955824,0.0,0.0,34.538152610441756
457,166.26506024096386,0.0,0.0,33.73493975903614
458,167.06827309236948,0.0,0.0,32.93172690763052
459,167.8714859437751,0.0,0.0,32.1285140562249
460,168.67469879518072,0.0,0.0,31.325301204819283
461,169.47791164658634,0.0,0.0,30.522088353413665
462,170.28112449799195,0.0,0.0,29.718875502008046
463,171.0843373493976,0.0,0.0,28.9156626506024
464,171.88755020080322,0.0,0.0,28.11244979919678
465,172.69076305220884,0.0,0.0,27.309236947791163
466,173.49397590361446,0.0,0.0,26.506024096385545
467,174.29718875502007,0.0,0.0,25.702811244979927
468,175.1004016064257,0.0,0.0,24.89959839357431
469,175.90361445783134,0.0,0.0,24.09638554216866
470,176.70682730923696,0.0,0.0,23.293172690763043
471,177.51004016064257,0.0,0.0,22.489959839357425
472,178.3132530120482,0.0,0.0,21.686746987951807
473,179.1164658634538,0.0,0.0,20.88353413654619
474,179.91967871485943,0.0,0.0,20.08032128514057
475,180.72289156626505,0.0,0.0,19.277108433734952
476,181.5261044176707,0.0,0.0,18.473895582329305
477,182.3293172690763,0.0,0.0,17.670682730923687
478,183.13253012048193,0.0,0.0,16.86746987951807
479,183.93574297188755,0.0,0.0,16.06425702811245
480,184.73895582329317,0.0,0.0,15.261044176706832
481,185.5421686746988,0.0,0.0,14.457831325301214
482,186.3453815261044,0.0,0.0,13.654618473895596
483,187.14859437751005,0.0,0.0,12.851405622489949
484,187.95180722891567,0.0,0.0,12.04819277108433
485,188.7550200803213,0.0,0.0,11.244979919678713
486,189.5582329317269,0.0,0.0,10.441767068273094
487,190.36144578313252,0.0,0.0,9.638554216867476
488,191.16465863453814,0.0,0.0,8.835341365461858
489,191.96787148594376,0.0,0.0,8.03212851405624
490,192.7710843373494,0.0,0.0,7.228915662650593
491,193.57429718875503,0.0,0.0,6.4257028112449746
492,194.37751004016064,0.0,0.0,5.622489959839356
493,195.18072289156626,0.0,0.0,4.819277108433738
494,195.98393574297188,0.0,0.0,4.01606425702812
495,196.7871485943775,0.0,0.0,3.2128514056225015
496,197.59036144578315,0.0,0.0,2.409638554216855
497,198.39357429718876,0.0,0.0,1.6064257028112365
498,199.19678714859438,0.0,0.0,0.8032128514056183
499,200.0,0.0,0.0,0.0
500,200.0,0.0,0.0,0.0
501,199.19678714859438,0.0,0.0,0.8032128514056183
502,198.39357429718876,0.0,0.0,1.6064257028112365
503,197.59036144578315,0.0,0.0,2.409638554216855
504,196.7871485943775,0.0,0.0,3.2128514056225015
505,195.98393574297188,0.0,0.0,4.01606425702812
506,195.18072289156626,0.0,0.0,4.819277108433738
507,194.37751004016064,0.0,0.0,5.622489959839356
508,193.57429718875503,0.0,0.0,6.4257028112449746
509,192.7710843373494,0.0,0.0,7.228915662650593
510,191.96787148594376,0.0,0.0,8.03212851405624
511,191.16465863453814,0.0,0.0,8.835341365461858
512,190.36144578313252,0.0,0.0,9.638554216867476
513,189.5582329317269,0.0,0.0,10.441767068273094
514,188.7550200803213,0.0,0.0,11.244979919678713
515,187.95180722891567,0.0,0.0,12.04819277108433
516,187.14859437751005,0.0,0.0,12.851405622489949
517,186.3453815261044,0.0,0.0,13.654618473895596
518,185.5421686746988,0.0,0.0,14.457831325301214
519,184.73895582329317,0.0,0.0,15.261044176706832
520,183.93574297188755,0.0,0.0,16.06425702811245
521,183.13253012048193,0.0,0.0,16.86746987951807
522,182.3293172690763,0.0,0.0,17.670682730923687
523,181.5261044176707,0.0,0.0,18.473895582329305
524,180.72289156626505,0.0,0.0,19.277108433734952
525,179.91967871485943,0.0,0.0,20.08032128514057
526,179.1164658634538,0.0,0.0,20.88353413654619
527,178.3132530120482,0.0,0.0,21.686746987951807
528,177.51004016064257,0.0,0.0,22.489959839357425
529,176.70682730923696,0.0,0.0,23.293172690763043
530,175.90361445783134,0.0,0.0,24.09638554216866
531,175.1004016064257,0.0,0.0,24.89959839357431
532,174.29718875502007,0.0,0.0,25.702811244979927
533,173.49397590361446,0.0,0.0,26.506024096385545
534,172.69076305220884,0.0,0.0,27.309236947791163
535,171.88755020080322,0.0,0.0,28.11244979919678
536,171.0843373493976,0.0,0.0,28.9156626506024
537,170.28112449799198,0.0,0.0,29.718875502008018
538,169.47791164658634,0.0,0.0,30.522088353413665
539,168.67469879518072,0.0,0.0,31.325301204819283
540,167.8714859437751,0.0,0.0,32.1285140562249
541,167.06827309236948,0.0,0.0,32.93172690763052
542,166.26506024096386,0.0,0.0,33.73493975903614
543,165.46184738955822,0.0,0.0,34.538152610441784
544,164.65863453815263,0.0,0.0,35.341365461847374
545,163.85542168674698,0.0,0.0,36.14457831325302
546,163.05220883534136,0.0,0.0,36.94779116465864
547,162.24899598393574,0.0,0.0,37.75100401606426
548,161.44578313253012,0.0,0.0,38.554216867469876
549,160.6425702811245,0.0,0.0,39.357429718875494
550,159.83935742971886,0.0,0.0,40.16064257028114
551,159.03614457831327,0.0,0.0,40.96385542168673
552,158.23293172690762,0.0,0.0,41.76706827309238
553,157.429718875502,0.0,0.0,42.570281124497996
554,156.6265060240964,0.0,0.0,43.373493975903614
555,155.82329317269077,0.0,0.0,44.17670682730923
556,155.02008032128515,0.0,0.0,44.97991967871485
557,154.2168674698795,0.0,0.0,45.7831325301205
558,153.4136546184739,0.0,0.0,46.58634538152609
559,152.61044176706827,0.0,0.0,47.38955823293173
560,151.80722891566265,0.0,0.0,48.19277108433735
561,151.00401606425703,0.0,0.0,48.99598393574297
562,150.2008032128514,0.0,0.0,49.79919678714859
563,149.3975903614458,0.0,0.0,50.60240963855421
564,148.59437751004015,0.0,0.0,51.40562248995985
565,147.79116465863453,0.0,0.0,52.20883534136547
566,146.9879518072289,0.0,0.0,53.01204819277109
567,146.1847389558233,0.0,0.0,53.81526104417671
568,145.38152610441767,0.0,0.0,54.618473895582326
569,144.57831325301206,0.0,0.0,55.421686746987945
570,143.77510040160644,0.0,0.0,56.22489959839356
571,142.9718875502008,0.0,0.0,57.02811244979921
572,142.16867469879517,0.0,0.0,57.83132530120483
573,141.36546184738955,0.0,0.0,58.634538152610446
574,140.56224899598394,0.0,0.0,59.437751004016064
575,139.75903614457832,0.0,0.0,60.24096385542168
576,138.9558232931727,0.0,0.0,61.0441767068273
577,138.15261044176708,0.0,0.0,61.84738955823292
578,137.34939759036143,0.0,0.0,62.650602409638566
579,136.54618473895582,0.0,0.0,63.453815261044184
580,135.7429718875502,0.0,0.0,64.2570281124498
581,134.93975903614458,0.0,0.0,65.06024096385542
582,134.13654618473896,0.0,0.0,65.86345381526104
583,133.33333333333331,0.0,0.0,66.66666666666669
584,132.53012048192772,0.0,0.0,67.46987951807228
585,131.72690763052208,0.0,0.0,68.27309236947792
586,130.92369477911646,0.0,0.0,69.07630522088354
587,130.12048192771084,0.0,0.0,69.87951807228916
588,129.31726907630522,0.0,0.0,70.68273092369478
589,128.5140562248996,0.0,0.0,71.4859437751004
590,127.71084337349397,0.0,0.0,72.28915662650603
591,126.90763052208835,0.0,0.0,73.09236947791165
592,126.10441767068274,0.0,0.0,73.89558232931726
593,125.3012048192771,0.0,0.0,74.6987951807229
594,124.49799196787149,0.0,0.0,75.50200803212851
595,123.69477911646587,0.0,0.0,76.30522088353413
596,122.89156626506025,0.0,0.0,77.10843373493975
597,122.08835341365462,0.0,0.0,77.91164658634538
598,121.285140562249,0.0,0.0,78.714859437751
599,120.48192771084338,0.0,0.0,79.51807228915662
600,119.67871485943775,0.0,0.0,80.32128514056225
601,118.87550200803213,0.0,0.0,81.12449799196787
602,118.07228915662651,0.0,0.0,81.92771084337349
603,117.26907630522088,0.0,0.0,82.73092369477912
604,116.46586345381526,0.0,0.0,83.53413654618474
605,115.66265060240964,0.0,0.0,84.33734939759036
606,114.85943775100402,0.0,0.0,85.14056224899598
607,114.05622489959839,0.0,0.0,85.94377510040161
608,113.25301204819277,0.0,0.0,86.74698795180723
609,112.44979919678715,0.0,0.0,87.55020080321285
610,111.64658634538152,0.0,0.0,88.35341365461848
611,110.8433734939759,0.0,0.0,89.1566265060241
612,110.04016064257029,0.0,0.0,89.95983935742971
613,109.23694779116465,0.0,0.0,90.76305220883535
614,108.43373493975903,0.0,0.0,91.56626506024097
615,107.63052208835342,0.0,0.0,92.36947791164658
616,106.8273092369478,0.0,0.0,93.1726907630522
617,106.02409638554217,0.0,0.0,93.97590361445783
618,105.22088353413655,0.0,0.0,94.77911646586345
619,104.41767068273093,0.0,0.0,95.58232931726907
620,103.6144578313253,0.0,0.0,96.3855421686747
621,102.81124497991968,0.0,0.0,97.18875502008032
622,102.00803212851406,0.0,0.0,97.99196787148594
623,101.20481927710843,0.0,0.0,98.79518072289157
624,100.40160642570281,0.0,0.0,99.59839357429719
625,99.59839357429719,0.0,0.0,100.40160642570281
626,98.79518072289157,0.0,0.0,101.20481927710843
627,97.99196787148594,0.0,0.0,102.00803212851406
628,97.18875502008032,0.0,0.0,102.81124497991968
629,96.3855421686747,0.0,0.0,103.6144578313253
630,95.58232931726907,0.0,0.0,104.41767068273093
631,94.77911646586345,0.0,0.0,105.22088353413655
632,93.97590361445783,0.0,0.0,106.02409638554217
633,93.17269076305222,0.0,0.0,106.82730923694778
634,92.36947791164658,0.0,0.0,107.63052208835342
635,91.56626506024097,0.0,0.0,108.43373493975903
636,90.76305220883535,0.0,0.0,109.23694779116465
637,89.95983935742971,0.0,0.0,110.04016064257029
638,89.1566265060241,0.0,0.0,110.8433734939759
639,88.35341365461848,0.0,0.0,111.64658634538152
640,87.55020080321285,0.0,0.0,112.44979919678715
641,86.74698795180723,0.0,0.0,113.25301204819277
642,85.94377510040161,0.0,0.0,114.05622489959839
643,85.14056224899599,0.0,0.0,114.85943775100401
644,84.33734939759036,0.0,0.0,115.66265060240964
645,83.53413654618474,0.0,0.0,116.46586345381526
646,82.73092369477912,0.0,0.0,117.26907630522088
647,81.92771084337349,0.0,0.0,118.07228915662651
648,81.12449799196787,0.0,0.0,118.87550200803213
649,80.32128514056225,0.0,0.0,119.67871485943775
650,79.51807228915662,0.0,0.0,120.48192771084338
651,78.714859437751,0.0,0.0,121.285140562249
652,77.91164658634538,0.0,0.0,122.08835341365462
653,77.10843373493977,0.0,0.0,122.89156626506023
654,76.30522088353413,0.0,0.0,123.69477911646587
655,75.50200803212851,0.0,0.0,124.49799196787149
656,74.6987951807229,0.0,0.0,125.3012048192771
657,73.89558232931726,0.0,0.0,126.10441767068274
658,73.09236947791165,0.0,0.0,126.90763052208835
659,72.28915662650603,0.0,0.0,127.71084337349397
660,71.4859437751004,0.0,0.0,128.5140562248996
661,70.68273092369478,0.0,0.0,129.31726907630522
662,69.87951807228916,0.0,0.0,130.12048192771084
663,69.07630522088354,0.0,0.0,130.92369477911646
664,68.27309236947792,0.0,0.0,131.72690763052208
665,67.4698795180723,0.0,0.0,132.5301204819277
666,66.66666666666666,0.0,0.0,133.33333333333334
667,65.86345381526104,0.0,0.0,134.13654618473896
668,65.06024096385542,0.0,0.0,134.93975903614458
669,64.2570281124498,0.0,0.0,135.7429718875502
670,63.453815261044184,0.0,0.0,136.54618473895582
671,62.650602409638566,0.0,0.0,137.34939759036143
672,61.84738955823292,0.0,0.0,138.15261044176708
673,61.0441767068273,0.0,0.0,138.9558232931727
674,60.24096385542168,0.0,0.0,139.75903614457832
675,59.437751004016064,0.0,0.0,140.56224899598394
676,58.634538152610446,0.0,0.0,141.36546184738955
677,57.83132530120483,0.0,0.0,142.16867469879517
678,57.02811244979921,0.0,0.0,142.9718875502008
679,56.22489959839356,0.0,0.0,143.77510040160644
680,55.421686746987945,0.0,0.0,144.57831325301206
681,54.618473895582326,0.0,0.0,145.38152610441767
682,53.81526104417671,0.0,0.0,146.1847389558233
683,53.01204819277109,0.0,0.0,146.9879518072289
684,52.20883534136547,0.0,0.0,147.79116465863453
685,51.40562248995985,0.0,0.0,148.59437751004015
686,50.60240963855421,0.0,0.0,149.3975903614458
687,49.79919678714859,0.0,0.0,150.2008032128514
688,48.99598393574297,0.0,0.0,151.00401606425703
689,48.19277108433735,0.0,0.0,151.80722891566265
690,47.38955823293173,0.0,0.0,152.61044176706827
691,46.586345381526115,0.0,0.0,153.41365461847388
692,45.7831325301205,0.0,0.0,154.2168674698795
693,44.97991967871485,0.0,0.0,155.02008032128515
694,44.17670682730923,0.0,0.0,155.82329317269077
695,43.373493975903614,0.0,0.0,156.6265060240964
696,42.570281124497996,0.0,0.0,157.429718875502
697,41.76706827309238,0.0,0.0,158.23293172690762
698,40.96385542168676,0.0,0.0,159.03614457831324
699,40.16064257028111,0.0,0.0,159.8393574297189
700,39.357429718875494,0.0,0.0,160.6425702811245
701,38.554216867469876,0.0,0.0,161.44578313253012
702,37.75100401606426,0.0,0.0,162.24899598393574
703,36.94779116465864,0.0,0.0,163.05220883534136
704,36.14457831325302,0.0,0.0,163.85542168674698
705,35.3413654618474,0.0,0.0,164.6586345381526
706,34.538152610441756,0.0,0.0,165.46184738955824
707,33.73493975903614,0.0,0.0,166.26506024096386
708,32.93172690763052,0.0,0.0,167.06827309236948
709,32.1285140562249,0.0,0.0,167.8714859437751
710,31.325301204819283,0.0,0.0,168.67469879518072
711,30.522088353413665,0.0,0.0,169.47791164658634
712,29.718875502008046,0.0,0.0,170.28112449799195
713,28.9156626506024,0.0,0.0,171.0843373493976
714,28.11244979919678,0.0,0.0,171.88755020080322
715,27.309236947791163,0.0,0.0,172.69076305220884
716,26.506024096385545,0.0,0.0,173.49397590361446
717,25.702811244979927,0.0,0.0,174.29718875502007
718,24.89959839357431,0.0,0.0,175.1004016064257
719,24.09638554216866,0.0,0.0,175.90361445783134
720,23.293172690763043,0.0,0.0,176.70682730923696
721,22.489959839357425,0.0,0.0,177.51004016064257
722,21.686746987951807,0.0,0.0,178.3132530120482
723,20.88353413654619,0.0,0.0,179.1164658634538
724,20.08032128514057,0.0,0.0,179.91967871485943
725,19.277108433734952,0.0,0.0,180.72289156626505
726,18.473895582329305,0.0,0.0,181.5261044176707
727,17.670682730923687,0.0,0.0,182.3293172690763
728,16.86746987951807,0.0,0.0,183.13253012048193
729,16.06425702811245,0.0,0.0,183.93574297188755
730,15.261044176706832,0.0,0.0,184.73895582329317
731,14.457831325301214,0.0,0.0,185.5421686746988
732,13.654618473895596,0.0,0.0,186.3453815261044
733,12.851405622489949,0.0,0.0,187.14859437751005
734,12.04819277108433,0.0,0.0,187.95180722891567
735,11.244979919678713,0.0,0.0,188.7550200803213
736,10.441767068273094,0.0,0.0,189.5582329317269
737,9.638554216867476,0.0,0.0,190.36144578313252
738,8.835341365461858,0.0,0.0,191.16465863453814
739,8.03212851405624,0.0,0.0,191.96787148594376
740,7.228915662650593,0.0,0.0,192.7710843373494
741,6.4257028112449746,0.0,0.0,193.57429718875503
742,5.622489959839356,0.0,0.0,194.37751004016064
743,4.819277108433738,0.0,0.0,195.18072289156626
744,4.01606425702812,0.0,0.0,195.98393574297188
745,3.2128514056225015,0.0,0.0,196.7871485943775
746,2.409638554216855,0.0,0.0,197.59036144578315
747,1.6064257028112365,0.0,0.0,198.39357429718876
748,0.8032128514056183,0.0,0.0,199.19678714859438
749,0.0,0.0,0.0,200.0
750,0.0,0.0,0.0,200.0
751,0.0,0.0,0.0,200.0
752,0.0,0.0,0.0,200.0
753,0.0,0.0,0.0,200.0
754,0.0,0.0,0.0,200.0
755,0.0,0.0,0.0,200.0
756,0.0,0.0,0.0,200.0
757,0.0,0.0,0.0,200.0
758,0.0,0.0,0.0,200.0
759,0.0,0.0,0.0,200.0
760,0.0,0.0,0.0,200.0
761,0.0,0.0,0.0,200.0
762,0.0,0.0,0.0,200.0
763,0.0,0.0,0.0,200.0
764,0.0,0.0,0.0,200.0
765,0.0,0.0,0.0,200.0
766,0.0,0.0,0.0,200.0
767,0.0,0.0,0.0,200.0
768,0.0,0.0,0.0,200.0
769,0.0,0.0,0.0,200.0
770,0.0,0.0,0.0,200.0
771,0.0,0.0,0.0,200.0
772,0.0,0.0,0.0,200.0
773,0.0,0.0,0.0,200.0
774,0.0,0.0,0.0,200.0
775,0.0,0.0,0.0,200.0
776,0.0,0.0,0.0,200.0
777,0.0,0.0,0.0,200.0
778,0.0,0.0,0.0,200.0
779,0.0,0.0,0.0,200.0
780,0.0,0.0,0.0,200.0
781,0.0,0.0,0.0,200.0
782,0.0,0.0,0.0,200.0
783,0.0,0.0,0.0,200.0
784,0.0,0.0,0.0,200.0
785,0.0,0.0,0.0,200.0
786,0.0,0.0,0.0,200.0
787,0.0,0.0,0.0,200.0
788,0.0,0.0,0.0,200.0
789,0.0,0.0,0.0,200.0
790,0.0,0.0,0.0,200.0
791,0.0,0.0,0.0,200.0
792,0.0,0.0,0.0,200.0
793,0.0,0.0,0.0,200.0
794,0.0,0.0,0.0,200.0
795,0.0,0.0,0.0,200.0
796,0.0,0.0,0.0,200.0
797,0.0,0.0,0.0,200.0
798,0.0,0.0,0.0,200.0
799,0.0,0.0,0.0,200.0
800,0.0,0.0,0.0,200.0
801,0.0,0.0,0.0,200.0
802,0.0,0.0,0.0,200.0
803,0.0,0.0,0.0,200.0
804,0.0,0.0,0.0,200.0
805,0.0,0.0,0.0,200.0
806,0.0,0.0,0.0,200.0
807,0.0,0.0,0.0,200.0
808,0.0,0.0,0.0,200.0
809,0.0,0.0,0.0,200.0
810,0.0,0.0,0.0,200.0
811,0.0,0.0,0.0,200.0
812,0.0,0.0,0.0,200.0
813,0.0,0.0,0.0,200.0
814,0.0,0.0,0.0,200.0
815,0.0,0.0,0.0,200.0
816,0.0,0.0,0.0,200.0
817,0.0,0.0,0.0,200.0
818,0.0,0.0,0.0,200.0
819,0.0,0.0,0.0,200.0
820,0.0,0.0,0.0,200.0
821,0.0,0.0,0.0,200.0
822,0.0,0.0,0.0,200.0
823,0.0,0.0,0.0,200.0
824,0.0,0.0,0.0,200.0
825,0.0,0.0,0.0,200.0
826,0.0,0.0,0.0,200.0
827,0.0,0.0,0.0,200.0
828,0.0,0.0,0.0,200.0
829,0.0,0.0,0.0,200.0
830,0.0,0.0,0.0,200.0
831,0.0,0.0,0.0,200.0
832,0.0,0.0,0.0,200.0
833,0.0,0.0,0.0,200.0
834,0.0,0.0,0.0,200.0
835,0.0,0.0,0.0,200.0
836,0.0,0.0,0.0,200.0
837,0.0,0.0,0.0,200.0
838,0.0,0.0,0.0,200.0
839,0.0,0.0,0.0,200.0
840,0.0,0.0,0.0,200.0
841,0.0,0.0,0.0,200.0
842,0.0,0.0,0.0,200.0
843,0.0,0.0,0.0,200.0
844,0.0,0.0,0.0,200.0
845,0.0,0.0,0.0,200.0
846,0.0,0.0,0.0,200.0
847,0.0,0.0,0.0,200.0
848,0.0,0.0,0.0,200.0
849,0.0,0.0,0.0,200.0
850,0.0,0.0,0.0,200.0
851,0.0,0.0,0.0,200.0
852,0.0,0.0,0.0,200.0
853,0.0,0.0,0.0,200.0
854,0.0,0.0,0.0,200.0
855,0.0,0.0,0.0,200.0
856,0.0,0.0,0.0,200.0
857,0.0,0.0,0.0,200.0
858,0.0,0.0,0.0,200.0
859,0.0,0.0,0.0,200.0
860,0.0,0.0,0.0,200.0
861,0.0,0.0,0.0,200.0
862,0.0,0.0,0.0,200.0
863,0.0,0.0,0.0,200.0
864,0.0,0.0,0.0,200.0
865,0.0,0.0,0.0,200.0
866,0.0,0.0,0.0,200.0
867,0.0,0.0,0.0,200.0
868,0.0,0.0,0.0,200.0
869,0.0,0.0,0.0,200.0
870,0.0,0.0,0.0,200.0
871,0.0,0.0,0.0,200.0
872,0.0,0.0,0.0,200.0
873,0.0,0.0,0.0,200.0
874,0.0,0.0,0.0,200.0
875,0.0,0.0,0.0,200.0
876,0.0,0.0,0.0,200.0
877,0.0,0.0,0.0,200.0
878,0.0,0.0,0.0,200.0
879,0.0,0.0,0.0,200.0
880,0.0,0.0,0.0,200.0
881,0.0,0.0,0.0,200.0
882,0.0,0.0,0.0,200.0
883,0.0,0.0,0.0,200.0
884,0.0,0.0,0.0,200.0
885,0.0,0.0,0.0,200.0
886,0.0,0.0,0.0,200.0
887,0.0,0.0,0.0,200.0
888,0.0,0.0,0.0,200.0
889,0.0,0.0,0.0,200.0
890,0.0,0.0,0.0,200.0
891,0.0,0.0,0.0,200.0
892,0.0,0.0,0.0,200.0
893,0.0,0.0,0.0,200.0
894,0.0,0.0,0.0,200.0
895,0.0,0.0,0.0,200.0
896,0.0,0.0,0.0,200.0
897,0.0,0.0,0.0,200.0
898,0.0,0.0,0.0,200.0
899,0.0,0.0,0.0,200.0
900,0.0,0.0,0.0,200.0
901,0.0,0.0,0.0,200.0
902,0.0,0.0,0.0,200.0
903,0.0,0.0,0.0,200.0
904,0.0,0.0,0.0,200.0
905,0.0,0.0,0.0,200.0
906,0.0,0.0,0.0,200.0
907,0.0,0.0,0.0,200.0
908,0.0,0.0,0.0,200.0
909,0.0,0.0,0.0,200.0
910,0.0,0.0,0.0,200.0
911,0.0,0.0,0.0,200.0
912,0.0,0.0,0.0,200.0
913,0.0,0.0,0.0,200.0
914,0.0,0.0,0.0,200.0
915,0.0,0.0,0.0,200.0
916,0.0,0.0,0.0,200.0
917,0.0,0.0,0.0,200.0
918,0.0,0.0,0.0,200.0
919,0.0,0.0,0.0,200.0
920,0.0,0.0,0.0,200.0
921,0.0,0.0,0.0,200.0
922,0.0,0.0,0.0,200.0
923,0.0,0.0,0.0,200.0
924,0.0,0.0,0.0,200.0
925,0.0,0.0,0.0,200.0
926,0.0,0.0,0.0,200.0
927,0.0,0.0,0.0,200.0
928,0.0,0.0,0.0,200.0
929,0.0,0.0,0.0,200.0
930,0.0,0.0,0.0,200.0
931,0.0,0.0,0.0,200.0
932,0.0,0.0,0.0,200.0
933,0.0,0.0,0.0,200.0
934,0.0,0.0,0.0,200.0
935,0.0,0.0,0.0,200.0
936,0.0,0.0,0.0,200.0
937,0.0,0.0,0.0,200.0
938,0.0,0.0,0.0,200.0
939,0.0,0.0,0.0,200.0
940,0.0,0.0,0.0,200.0
941,0.0,0.0,0.0,200.0
942,0.0,0.0,0.0,200.0
943,0.0,0.0,0.0,200.0
944,0.0,0.0,0.0,200.0
945,0.0,0.0,0.0,200.0
946,0.0,0.0,0.0,200.0
947,0.0,0.0,0.0,200.0
948,0.0,0.0,0.0,200.0
949,0.0,0.0,0.0,200.0
950,0.0,0.0,0.0,200.0
951,0.0,0.0,0.0,200.0
952,0.0,0.0,0.0,200.0
953,0.0,0.0,0.0,200.0
954,0.0,0.0,0.0,200.0
955,0.0,0.0,0.0,200.0
956,0.0,0.0,0.0,200.0
957,0.0,0.0,0.0,200.0
958,0.0,0.0,0.0,200.0
959,0.0,0.0,0.0,200.0
960,0.0,0.0,0.0,200.0
961,0.0,0.0,0.0,200.0
962,0.0,0.0,0.0,200.0
963,0.0,0.0,0.0,200.0
964,0.0,0.0,0.0,200.0
965,0.0,0.0,0.0,200.0
966,0.0,0.0,0.0,200.0
967,0.0,0.0,0.0,200.0
968,0.0,0.0,0.0,200.0
969,0.0,0.0,0.0,200.0
970,0.0,0.0,0.0,200.0
971,0.0,0.0,0.0,200.0
972,0.0,0.0,0.0,200.0
973,0.0,0.0,0.0,200.0
974,0.0,0.0,0.0,200.0
975,0.0,0.0,0.0,200.0
976,0.0,0.0,0.0,200.0
977,0.0,0.0,0.0,200.0
978,0.0,0.0,0.0,200.0
979,0.0,0.0,0.0,200.0
980,0.0,0.0,0.0,200.0
981,0.0,0.0,0.0,200.0
982,0.0,0.0,0.0,200.0
983,0.0,0.0,0.0,200.0
984,0.0,0.0,0.0,200.0
985,0.0,0.0,0.0,200.0
986,0.0,0.0,0.0,200.0
987,0.0,0.0,0.0,200.0
988,0.0,0.0,0.0,200.0
989,0.0,0.0,0.0,200.0
990,0.0,0.0,0.0,200.0
991,0.0,0.0,0.0,200.0
992,0.0,0.0,0.0,200.0
993,0.0,0.0,0.0,200.0
994,0.0,0.0,0.0,200.0
995,0.0,0.0,0.0,200.0
996,0.0,0.0,0.0,200.0
997,0.0,0.0,0.0,200.0
998,0.0,0.0,0.0,200.0
999,0.0,0.0,0.0,200.0
