,Ch1,Ch2,Ch3,Ch4
0,0.0,0.0,0.0,200.0
1,0.0,0.0,0.0,200.0
2,0.0,0.0,0.0,200.0
3,0.0,0.0,0.0,200.0
4,0.0,0.0,0.0,200.0
5,0.0,0.0,0.0,200.0
6,0.0,0.0,0.0,200.0
7,0.0,0.0,0.0,200.0
8,0.0,0.0,0.0,200.0
9,0.0,0.0,0.0,200.0
10,0.0,0.0,0.0,200.0
11,0.0,0.0,0.0,200.0
12,0.0,0.0,0.0,200.0
13,0.0,0.0,0.0,200.0
14,0.0,0.0,0.0,200.0
15,0.0,0.0,0.0,200.0
16,0.0,0.0,0.0,200.0
17,0.0,0.0,0.0,200.0
18,0.0,0.0,0.0,200.0
19,0.0,0.0,0.0,200.0
20,0.0,0.0,0.0,200.0
21,0.0,0.0,0.0,200.0
22,0.0,0.0,0.0,200.0
23,0.0,0.0,0.0,200.0
24,0.0,0.0,0.0,200.0
25,0.0,0.0,0.0,200.0
26,0.0,0.0,0.0,200.0
27,0.0,0.0,0.0,200.0
28,0.0,0.0,0.0,200.0
29,0.0,0.0,0.0,200.0
30,0.0,0.0,0.0,200.0
31,0.0,0.0,0.0,200.0
32,0.0,0.0,0.0,200.0
33,0.0,0.0,0.0,200.0
34,0.0,0.0,0.0,200.0
35,0.0,0.0,0.0,200.0
36,0.0,0.0,0.0,200.0
37,0.0,0.0,0.0,200.0
38,0.0,0.0,0.0,200.0
39,0.0,0.0,0.0,200.0
40,0.0,0.0,0.0,200.0
41,0.0,0.0,0.0,200.0
42,0.0,0.0,0.0,200.0
43,0.0,0.0,0.0,200.0
44,0.0,0.0,0.0,200.0
45,0.0,0.0,0.0,200.0
46,0.0,0.0,0.0,200.0
47,0.0,0.0,0.0,200.0
48,0.0,0.0,0.0,200.0
49,0.0,0.0,0.0,200.0
50,0.0,0.0,0.0,200.0
51,0.0,0.0,0.0,200.0
52,0.0,0.0,0.0,200.0
53,0.0,0.0,0.0,200.0
54,0.0,0.0,0.0,200.0
55,0.0,0.0,0.0,200.0
56,0.0,0.0,0.0,200.0
57,0.0,0.0,0.0,200.0
58,0.0,0.0,0.0,200.0
59,0.0,0.0,0.0,200.0
60,0.0,0.0,0.0,200.0
61,0.0,0.0,0.0,200.0
62,0.0,0.0,0.0,200.0
63,0.0,0.0,0.0,200.0
64,0.0,0.0,0.0,200.0
65,0.0,0.0,0.0,200.0
66,0.0,0.0,0.0,200.0
67,0.0,0.0,0.0,200.0
68,0.0,0.0,0.0,200.0
69,0.0,0.0,0.0,200.0
70,0.0,0.0,0.0,200.0
71,0.0,0.0,0.0,200.0
72,0.0,0.0,0.0,200.0
73,0.0,0.0,0.0,200.0
74,0.0,0.0,0.0,200.0
75,0.0,0.0,0.0,200.0
76,0.0,0.0,0.0,200.0
77,0.0,0.0,0.0,200.0
78,0.0,0.0,0.0,200.0
79,0.0,0.0,0.0,200.0
80,0.0,0.0,0.0,200.0
81,0.0,0.0,0.0,200.0
82,0.0,0.0,0.0,200.0
83,0.0,0.0,0.0,200.0
84,0.0,0.0,0.0,200.0
85,0.0,0.0,0.0,200.0
86,0.0,0.0,0.0,200.0
87,0.0,0.0,0.0,200.0
88,0.0,0.0,0.0,200.0
89,0.0,0.0,0.0,200.0
90,0.0,0.0,0.0,200.0
91,0.0,0.0,0.0,200.0
92,0.0,0.0,0.0,200.0
93,0.0,0.0,0.0,200.0
94,0.0,0.0,0.0,200.0
95,0.0,0.0,0.0,200.0
96,0.0,0.0,0.0,200.0
97,0.0,0.0,0.0,200.0
98,0.0,0.0,0.0,200.0
99,0.0,0.0,0.0,200.0
100,0.0,0.0,0.0,200.0
101,0.0,0.0,0.0,200.0
102,0.0,0.0,0.0,200.0
103,0.0,0.0,0.0,200.0
104,0.0,0.0,0.0,200.0
105,0.0,0.0,0.0,200.0
106,0.0,0.0,0.0,200.0
107,0.0,0.0,0.0,200.0
108,0.0,0.0,0.0,200.0
109,0.0,0.0,0.0,200.0
110,0.0,0.0,0.0,200.0
111,0.0,0.0,0.0,200.0
112,0.0,0.0,0.0,200.0
113,0.0,0.0,0.0,200.0
114,0.0,0.0,0.0,200.0
115,0.0,0.0,0.0,200.0
116,0.0,0.0,0.0,200.0
117,0.0,0.0,0.0,200.0
118,0.0,0.0,0.0,200.0
119,0.0,0.0,0.0,200.0
120,0.0,0.0,0.0,200.0
121,0.0,0.0,0.0,200.0
122,0.0,0.0,0.0,200.0
123,0.0,0.0,0.0,200.0
124,0.0,0.0,0.0,200.0
125,0.0,0.0,0.0,200.0
126,0.0,0.0,0.0,200.0
127,0.0,0.0,0.0,200.0
128,0.0,0.0,0.0,200.0
129,0.0,0.0,0.0,200.0
130,0.0,0.0,0.0,200.0
131,0.0,0.0,0.0,200.0
132,0.0,0.0,0.0,200.0
133,0.0,0.0,0.0,200.0
134,0.0,0.0,0.0,200.0
135,0.0,0.0,0.0,200.0
136,0.0,0.0,0.0,200.0
137,0.0,0.0,0.0,200.0
138,0.0,0.0,0.0,200.0
139,0.0,0.0,0.0,200.0
140,0.0,0.0,0.0,200.0
141,0.0,0.0,0.0,200.0
142,0.0,0.0,0.0,200.0
143,0.0,0.0,0.0,200.0
144,0.0,0.0,0.0,200.0
145,0.0,0.0,0.0,200.0
146,0.0,0.0,0.0,200.0
147,0.0,0.0,0.0,200.0
148,0.0,0.0,0.0,200.0
149,0.0,0.0,0.0,200.0
150,0.0,0.019998000199980003,0.0,199.9800019998
151,0.0,0.020814049135188317,0.0,199.9791859508648
152,0.0,0.021663394585979476,0.0,199.97833660541403
153,0.0,0.022547394819920435,0.0,199.97745260518008
154,0.0,0.02346746348748449,0.0,199.9765325365125
155,0.0,0.02442507187818737,0.0,199.9755749281218
156,0.0,0.02542175126845812,0.0,199.97457824873155
157,0.0,0.026459095364960255,0.0,199.97354090463503
158,0.0,0.027538762847227904,0.0,199.97246123715277
159,0.0,0.028662480013637026,0.0,199.97133751998635
160,0.0,0.029832043534892758,0.0,199.9701679564651
161,0.0,0.031049323319381927,0.0,199.9689506766806
162,0.0,0.03231626549491379,0.0,199.96768373450507
163,0.0,0.03363489551155321,0.0,199.96636510448846
164,0.0,0.03500732137043879,0.0,199.96499267862956
165,0.0,0.03643573698367377,0.0,199.96356426301634
166,0.0,0.03792242567058092,0.0,199.9620775743294
167,0.0,0.03946976379582366,0.0,199.96053023620416
168,0.0,0.04108022455511508,0.0,199.95891977544488
169,0.0,0.04275638191446415,0.0,199.95724361808553
170,0.0,0.0445009147091453,0.0,199.95549908529085
171,0.0,0.046316610908823275,0.0,199.95368338909117
172,0.0,0.048206372055520585,0.0,199.95179362794448
173,0.0,0.05017321788137977,0.0,199.9498267821186
174,0.0,0.052220291113448135,0.0,199.94777970888654
175,0.0,0.05435086247299876,0.0,199.945649137527
176,0.0,0.05656833587719746,0.0,199.9434316641228
177,0.0,0.05887625385123458,0.0,199.94112374614878
178,0.0,0.06127830315935918,0.0,199.93872169684064
179,0.0,0.06377832066358573,0.0,199.93622167933643
180,0.0,0.06638029941918715,0.0,199.9336197005808
181,0.0,0.06908839501644574,0.0,199.93091160498355
182,0.0,0.07190693217850393,0.0,199.9280930678215
183,0.0,0.07484041162554106,0.0,199.92515958837447
184,0.0,0.0778935172159013,0.0,199.9221064827841
185,0.0,0.08107112337521119,0.0,199.9189288766248
186,0.0,0.0843783028249532,0.0,199.91562169717506
187,0.0,0.0878203346224075,0.0,199.91217966537758
188,0.0,0.09140271252433238,0.0,199.90859728747566
189,0.0,0.09513115368723296,0.0,199.90486884631278
190,0.0,0.09901160771756065,0.0,199.90098839228244
191,0.0,0.10305026608569837,0.0,199.8969497339143
192,0.0,0.10725357191811655,0.0,199.8927464280819
193,0.0,0.11162823018263392,0.0,199.88837176981735
194,0.0,0.11618121828228464,0.0,199.8838187817177
195,0.0,0.1209197970738824,0.0,199.8790802029261
196,0.0,0.1258515223279785,0.0,199.874148477672
197,0.0,0.13098425664754196,0.0,199.86901574335246
198,0.0,0.1363261818633383,0.0,199.86367381813668
199,0.0,0.1418858119246568,0.0,199.85811418807535
200,0.0,0.14767200630473026,0.0,199.85232799369527
201,0.0,0.15369398394090913,0.0,199.8463060160591
202,0.0,0.15996133773039184,0.0,199.84003866226962
203,0.0,0.1664840496030788,0.0,199.83351595039693
204,0.0,0.17327250619390566,0.0,199.8267274938061
205,0.0,0.18033751513782512,0.0,199.81966248486216
206,0.0,0.18769032201144564,0.0,199.81230967798857
207,0.0,0.19534262794619942,0.0,199.8046573720538
208,0.0,0.2033066079388009,0.0,199.7966933920612
209,0.0,0.21159492988567558,0.0,199.78840507011432
210,0.0,0.22022077436897694,0.0,199.77977922563102
211,0.0,0.22919785522278344,0.0,199.7708021447772
212,0.0,0.23854044090905752,0.0,199.76145955909095
213,0.0,0.24826337673397442,0.0,199.75173662326603
214,0.0,0.2583821079362747,0.0,199.74161789206372
215,0.0,0.2689127036803702,0.0,199.73108729631963
216,0.0,0.27987188198803453,0.0,199.72012811801196
217,0.0,0.29127703564363483,0.0,199.70872296435635
218,0.0,0.30314625910901527,0.0,199.696853740891
219,0.0,0.3154983764853181,0.0,199.68450162351468
220,0.0,0.3283529705602307,0.0,199.67164702943978
221,0.0,0.3417304129803691,0.0,199.65826958701962
222,0.0,0.3556518955897557,0.0,199.64434810441026
223,0.0,0.3701394629766128,0.0,199.62986053702338
224,0.0,0.38521604627198286,0.0,199.61478395372802
225,0.0,0.40090549824498245,0.0,199.59909450175502
226,0.0,0.4172326297408202,0.0,199.58276737025918
227,0.0,0.43422324750903313,0.0,199.56577675249096
228,0.0,0.45190419347073985,0.0,199.54809580652926
229,0.0,0.47030338547505196,0.0,199.52969661452494
230,0.0,0.48944985959613574,0.0,199.51055014040386
231,0.0,0.5093738140237636,0.0,199.49062618597623
232,0.0,0.5301066546015412,0.0,199.46989334539845
233,0.0,0.5516810420683254,0.0,199.44831895793166
234,0.0,0.5741309410596689,0.0,199.42586905894032
235,0.0,0.5974916709274246,0.0,199.4025083290726
236,0.0,0.6217999584369064,0.0,199.3782000415631
237,0.0,0.6470939924022422,0.0,199.35290600759777
238,0.0,0.6734134803217389,0.0,199.32658651967827
239,0.0,0.7007997070762169,0.0,199.29920029292379
240,0.0,0.729295595754344,0.0,199.27070440424566
241,0.0,0.758945770670001,0.0,199.24105422933
242,0.0,0.7897966226376242,0.0,199.21020337736238
243,0.0,0.8218963765722843,0.0,199.17810362342772
244,0.0,0.8552951614819704,0.0,199.14470483851804
245,0.0,0.89004508292012,0.0,199.10995491707988
246,0.0,0.9262002979668658,0.0,199.07379970203314
247,0.0,0.9638170928077473,0.0,199.03618290719226
248,0.0,1.0029539629787048,0.0,198.9970460370213
249,0.0,1.0436716963460735,0.0,198.95632830365392
250,0.0,1.086033458889936,0.0,198.91396654111006
251,0.0,1.1301048833585936,0.0,198.8698951166414
252,0.0,1.1759541608610402,0.0,198.82404583913896
253,0.0,1.2236521354631342,0.0,198.77634786453686
254,0.0,1.2732724018516217,0.0,198.7267275981484
255,0.0,1.3248914061282684,0.0,198.67510859387173
256,0.0,1.3785885497940331,0.0,198.62141145020595
257,0.0,1.434446296980433,0.0,198.56555370301956
258,0.0,1.492550284981996,0.0,198.507449715018
259,0.0,1.5529894381398712,0.0,198.44701056186014
260,0.0,1.6158560851222845,0.0,198.3841439148777
261,0.0,1.6812460796424564,0.0,198.31875392035755
262,0.0,1.7492589246488945,0.0,198.2507410753511
263,0.0,1.8199979000164366,0.0,198.18000209998357
264,0.0,1.8935701937591274,0.0,198.10642980624087
265,0.0,1.970087036777789,0.0,198.02991296322222
266,0.0,2.04966384114597,0.0,197.95033615885404
267,0.0,2.13242034192778,0.0,197.86757965807223
268,0.0,2.2184807425097333,0.0,197.78151925749026
269,0.0,2.3079738634162776,0.0,197.69202613658373
270,0.0,2.4010332945648023,0.0,197.5989667054352
271,0.0,2.497797550900747,0.0,197.50220244909926
272,0.0,2.598410231336745,0.0,197.40158976866326
273,0.0,2.7030201809014534,0.0,197.29697981909854
274,0.0,2.811781655983757,0.0,197.18821834401624
275,0.0,2.924854492536265,0.0,197.07514550746373
276,0.0,3.0424042770783046,0.0,196.9575957229217
277,0.0,3.1646025203128865,0.0,196.83539747968712
278,0.0,3.291626833144189,0.0,196.7083731668558
279,0.0,3.4236611048519237,0.0,196.57633889514807
280,0.0,3.560895683146277,0.0,196.43910431685373
281,0.0,3.7035275557919722,0.0,196.29647244420804
282,0.0,3.8517605334520724,0.0,196.14823946654792
283,0.0,4.005805433361468,0.0,195.99419456663853
284,0.0,4.165880263396316,0.0,195.8341197366037
285,0.0,4.332210406058945,0.0,195.66778959394105
286,0.0,4.505028801847756,0.0,195.49497119815226
287,0.0,4.684576131428395,0.0,195.3154238685716
288,0.0,4.871100995965615,0.0,195.1288990040344
289,0.0,5.064860094915044,0.0,194.93513990508495
290,0.0,5.266118400509988,0.0,194.73388159949002
291,0.0,5.475149328110784,0.0,194.52485067188923
292,0.0,5.692234901512672,0.0,194.30776509848732
293,0.0,5.917665912232764,0.0,194.08233408776724
294,0.0,6.151742071717684,0.0,193.84825792828232
295,0.0,6.394772155330169,0.0,193.60522784466983
296,0.0,6.647074136886337,0.0,193.35292586311365
297,0.0,6.9089753124246664,0.0,193.09102468757533
298,0.0,7.180812411793698,0.0,192.8191875882063
299,0.0,7.462931696547963,0.0,192.53706830345203
300,0.0,7.755689042540989,0.0,192.24431095745902
301,0.0,8.05945000550078,0.0,191.9405499944992
302,0.0,8.374589867767122,0.0,191.62541013223287
303,0.0,8.701493664262086,0.0,191.29850633573793
304,0.0,9.040556185655587,0.0,190.9594438143444
305,0.0,9.392181956577435,0.0,190.60781804342255
306,0.0,9.756785186616845,0.0,190.24321481338316
307,0.0,10.134789691740504,0.0,189.8652103082595
308,0.0,10.526628783652189,0.0,189.4733712163478
309,0.0,10.932745124511527,0.0,189.06725487548846
310,0.0,11.353590544328119,0.0,188.6464094556719
311,0.0,11.789625818251217,0.0,188.2103741817488
312,0.0,12.241320400886021,0.0,187.75867959911398
313,0.0,12.709152114687086,0.0,187.29084788531293
314,0.0,13.193606789409229,0.0,186.80639321059078
315,0.0,13.695177849538561,0.0,186.30482215046143
316,0.0,14.214365846583185,0.0,185.78563415341682
317,0.0,14.751677933076868,0.0,185.24832206692312
318,0.0,15.30762727514245,0.0,184.69237272485756
319,0.0,15.88273240047673,0.0,184.11726759952327
320,0.0,16.477516478659403,0.0,183.5224835213406
321,0.0,17.092506530756225,0.0,182.90749346924378
322,0.0,17.72823256528589,0.0,182.27176743471412
323,0.0,18.385226637752982,0.0,181.614773362247
324,0.0,19.06402183111961,0.0,180.93597816888038
325,0.0,19.765151154798872,0.0,180.23484884520113
326,0.0,20.48914636000741,0.0,179.5108536399926
327,0.0,21.236536669615187,0.0,178.7634633303848
328,0.0,22.007847420980934,0.0,177.99215257901906
329,0.0,22.80359862066454,0.0,177.19640137933547
330,0.0,23.624303410365247,0.0,176.37569658963474
331,0.0,24.47046644394918,0.0,175.5295335560508
332,0.0,25.342582176003177,0.0,174.6574178239968
333,0.0,26.24113306298471,0.0,173.75886693701528
334,0.0,27.16658767873168,0.0,172.83341232126833
335,0.0,28.1193987468493,0.0,171.8806012531507
336,0.0,29.10000109330402,0.0,170.89999890669597
337,0.0,30.1088095234247,0.0,169.8911904765753
338,0.0,31.1462166284348,0.0,168.8537833715652
339,0.0,32.21259052761339,0.0,167.7874094723866
340,0.0,33.308272553200865,0.0,166.69172744679912
341,0.0,34.43357488622089,0.0,165.5664251137791
342,0.0,35.58877815247539,0.0,164.41122184752462
343,0.0,36.77412898907405,0.0,163.22587101092594
344,0.0,37.98983759297324,0.0,162.01016240702677
345,0.0,39.236075264109125,0.0,160.76392473589087
346,0.0,40.51297195680092,0.0,159.48702804319908
347,0.0,41.8206138541584,0.0,158.1793861458416
348,0.0,43.15904098123627,0.0,156.84095901876373
349,0.0,44.52824487361787,0.0,155.47175512638213
350,0.0,45.928166318964685,0.0,154.07183368103532
351,0.0,47.35869318981621,0.0,152.64130681018378
352,0.0,48.819658386546195,0.0,151.1803416134538
353,0.0,50.310837909859636,0.0,149.68916209014037
354,0.0,51.83194908252384,0.0,148.16805091747617
355,0.0,53.38264894015852,0.0,146.6173510598415
356,0.0,54.96253281083225,0.0,145.03746718916776
357,0.0,56.57113310292456,0.0,143.42886689707544
358,0.0,58.20791832019025,0.0,141.79208167980974
359,0.0,59.87229232219531,0.0,140.1277076778047
360,0.0,61.56359384728229,0.0,138.43640615271772
361,0.0,63.281096313947884,0.0,136.7189036860521
362,0.0,65.02400791499254,0.0,134.97599208500748
363,0.0,66.7914720170188,0.0,133.2085279829812
364,0.0,68.58256787583602,0.0,131.41743212416398
365,0.0,70.3963116760695,0.0,129.6036883239305
366,0.0,72.23165790080968,0.0,127.76834209919032
367,0.0,74.08750103447285,0.0,125.91249896552715
368,0.0,75.96267759922917,0.0,124.03732240077083
369,0.0,77.85596852239482,0.0,122.14403147760518
370,0.0,79.76610182914325,0.0,120.23389817085675
371,0.0,81.6917556517809,0.0,118.3082443482191
372,0.0,83.6315615437209,0.0,116.3684384562791
373,0.0,85.58410808319789,0.0,114.41589191680211
374,0.0,87.54794474876266,0.0,112.45205525123734
375,0.0,89.52158604570597,0.0,110.47841395429403
376,0.0,91.50351585984875,0.0,108.49648414015125
377,0.0,93.49219201262854,0.0,106.50780798737146
378,0.0,95.48605098916859,0.0,104.51394901083141
379,0.0,97.48351280905446,0.0,102.51648719094554
380,0.0,99.48298600791925,0.0,100.51701399208075
381,0.0,101.48287269665767,0.0,98.51712730334233
382,0.0,103.48157366419589,0.0,96.51842633580411
383,0.0,105.47749348923335,0.0,94.52250651076665
384,0.0,107.46904562627142,0.0,92.53095437372858
385,0.0,109.45465743154307,0.0,90.54534256845693
386,0.0,111.43277509515096,0.0,88.56722490484904
387,0.0,113.40186844681028,0.0,86.59813155318972
388,0.0,115.36043560403596,0.0,84.63956439596404
389,0.0,117.30700743341042,0.0,82.69299256658958
390,0.0,119.24015179766516,0.0,80.75984820233484
391,0.0,121.15847756369028,0.0,78.84152243630972
392,0.0,123.060638349192,0.0,76.939361650808
393,0.0,124.94533598852826,0.0,75.05466401147174
394,0.0,126.8113237011962,0.0,73.1886762988038
395,0.0,128.65740894950352,0.0,71.34259105049648
396,0.0,130.4824559750564,0.0,69.51754402494359
397,0.0,132.28538800681798,0.0,67.71461199318202
398,0.0,134.06518913656862,0.0,65.93481086343138
399,0.0,135.82090586061076,0.0,64.17909413938924
400,0.0,137.55164828944964,0.0,62.448351710550355
401,0.0,139.256591029933,0.0,60.74340897006701
402,0.0,140.93497374689744,0.0,59.06502625310256
403,0.0,142.58610141374152,0.0,57.41389858625848
404,0.0,144.20934426348487,0.0,55.790655736515134
405,0.0,145.80413745378576,0.0,54.195862546214244
406,0.0,147.36998046104117,0.0,52.630019538958834
407,0.0,148.90643622010293,0.0,51.09356377989707
408,0.0,150.41313002728523,0.0,49.586869972714766
409,0.0,151.88974822523642,0.0,48.11025177476358
410,0.0,153.33603668889307,0.0,46.663963311106926
411,0.0,154.75179913214194,0.0,45.24820086785806
412,0.0,156.1368952550027,0.0,43.86310474499729
413,0.0,157.4912387511148,0.0,42.50876124888521
414,0.0,158.81479519509625,0.0,41.18520480490375
415,0.0,160.10757982894563,0.0,39.89242017105437
416,0.0,161.36965526611138,0.0,38.63034473388862
417,0.0,162.60112913116464,0.0,37.39887086883536
418,0.0,163.8021516522134,0.0,36.19784834778659
419,0.0,164.97291322229427,0.0,35.02708677770573
420,0.0,166.1136419450065,0.0,33.88635805499351
421,0.0,167.22460117861482,0.0,32.77539882138518
422,0.0,168.30608709177497,0.0,31.69391290822503
423,0.0,169.35842624293002,0.0,30.641573757069978
424,0.0,170.38197319431637,0.0,29.618026805683627
425,0.0,171.37710817040355,0.0,28.622891829596455
426,0.0,172.3442347694994,0.0,27.655765230500606
427,0.0,173.28377773617592,0.0,26.71622226382408
428,0.0,174.1961808011372,0.0,25.80381919886281
429,0.0,175.0819045941483,0.0,24.918095405851687
430,0.0,175.941424634699,0.0,24.05857536530101
431,0.0,176.7752294041725,0.0,23.224770595827493
432,0.0,177.58381850245212,0.0,22.416181497547882
433,0.0,178.36770089110928,0.0,21.63229910889072
434,0.0,179.1273932245955,0.0,20.872606775404506
435,0.0,179.86341827019444,0.0,20.136581729805556
436,0.0,180.57630341688636,0.0,19.42369658311364
437,0.0,181.26657927273337,0.0,18.733420727266633
438,0.0,181.93477834990549,0.0,18.065221650094514
439,0.0,182.5814338360385,0.0,17.418566163961486
440,0.0,183.20707845023543,0.0,16.79292154976457
441,0.0,183.81224338169926,0.0,16.18775661830074
442,0.0,184.39745730870558,0.0,15.602542691294417
443,0.0,184.96324549539102,0.0,15.036754504608979
444,0.0,185.51012896364355,0.0,14.489871036356448
445,0.0,186.03862373722782,0.0,13.961376262772177
446,0.0,186.5492401551636,0.0,13.450759844836398
447,0.0,187.04248225129075,0.0,12.95751774870925
448,0.0,187.5188471969004,0.0,12.481152803099604
449,0.0,187.97882480328403,0.0,12.021175196715973
450,0.0,188.4228970810474,0.0,11.57710291895259
451,0.0,188.8515378530538,0.0,11.148462146946201
452,0.0,189.26521241789405,0.0,10.734787582105952
453,0.0,189.66437726083288,0.0,10.335622739167121
454,0.0,190.04947980924408,0.0,9.950520190755924
455,0.0,190.4209582296226,0.0,9.579041770377387
456,0.0,190.7792412633473,0.0,9.220758736652698
457,0.0,191.12474809845935,0.0,8.87525190154065
458,0.0,191.4578882748216,0.0,8.542111725178387
459,0.0,191.7790616201265,0.0,8.220938379873502
460,0.0,192.08865821432786,0.0,7.9113417856721355
461,0.0,192.3870583801801,0.0,7.612941619819907
462,0.0,192.67463269767975,0.0,7.325367302320245
463,0.0,192.95174204031352,0.0,7.048257959686481
464,0.0,193.21873763112825,0.0,6.781262368871751
465,0.0,193.4759611167461,0.0,6.524038883253894
466,0.0,193.72374465755652,0.0,6.276255342443477
467,0.0,193.9624110324196,0.0,6.037588967580405
468,0.0,194.1922737563198,0.0,5.807726243680207
469,0.0,194.4136372095062,0.0,5.5863627904938085
470,0.0,194.62679677675283,0.0,5.373203223247174
471,0.0,194.83203899546362,0.0,5.16796100453638
472,0.0,195.0296417114366,0.0,4.9703582885634034
473,0.0,195.21987424118606,0.0,4.780125758813938
474,0.0,195.4029975398029,0.0,4.597002460197103
475,0.0,195.5792643734106,0.0,4.420735626589391
476,0.0,195.74891949534802,0.0,4.251080504651981
477,0.0,195.9121998252794,0.0,4.0878001747205985
478,0.0,196.06933463049833,0.0,3.930665369501668
479,0.0,196.22054570875414,0.0,3.7794542912458553
480,0.0,196.3660475719885,0.0,3.633952428011497
481,0.0,196.5060476304242,0.0,3.493952369575794
482,0.0,196.64074637650026,0.0,3.3592536234997397
483,0.0,196.77033756819617,0.0,3.229662431803831
484,0.0,196.89500841133278,0.0,3.104991588667218
485,0.0,197.01493974047958,0.0,2.9850602595204236
486,0.0,197.13030619813804,0.0,2.869693801861956
487,0.0,197.24127641190682,0.0,2.7587235880931757
488,0.0,197.34801316936816,0.0,2.6519868306318415
489,0.0,197.4506735904673,0.0,2.5493264095327106
490,0.0,197.54940929718487,0.0,2.450590702815134
491,0.0,197.6443665803296,0.0,2.355633419670397
492,0.0,197.7356865633031,0.0,2.2643134366969093
493,0.0,197.8235053627114,0.0,2.176494637288613
494,0.0,197.90795424571888,0.0,2.0920457542811164
495,0.0,197.98915978405967,0.0,2.010840215940334
496,0.0,198.06724400463736,0.0,1.9327559953626405
497,0.0,198.14232453666284,0.0,1.8576754633371593
498,0.0,198.21451475529204,0.0,1.7854852447079566
499,0.0,198.2839239217394,0.0,1.7160760782606133
500,0.0,198.3506573198547,0.0,1.6493426801453097
501,0.0,198.41481638916284,0.0,1.5851836108371629
502,0.0,198.4764988543733,0.0,1.5235011456267102
503,0.0,198.5357988513774,0.0,1.4642011486226068
504,0.0,198.59280704975745,0.0,1.4071929502425462
505,0.0,198.64761077183985,0.0,1.352389228160149
506,0.0,198.7002941083294,0.0,1.2997058916706123
507,0.0,198.7509380305684,0.0,1.249061969431608
508,0.0,198.79962049946826,0.0,1.2003795005317386
509,0.0,198.84641657116572,0.0,1.1535834288342812
510,0.0,198.8913984994587,0.0,1.1086015005413117
511,0.0,198.93463583508117,0.0,1.065364164918833
512,0.0,198.97619552187757,0.0,1.023804478122429
513,0.0,199.01614198994022,0.0,0.9838580100597767
514,0.0,199.05453724577418,0.0,0.9454627542258152
515,0.0,199.09144095955705,0.0,0.9085590404429524
516,0.0,199.12691054955948,0.0,0.8730894504405171
517,0.0,199.16100126379592,0.0,0.8389987362040756
518,0.0,199.19376625897308,0.0,0.8062337410269151
519,0.0,199.22525667680554,0.0,0.7747433231944569
520,0.0,199.25552171776718,0.0,0.7444782822328193
521,0.0,199.284608712347,0.0,0.7153912876530057
522,0.0,199.31256318987727,0.0,0.6874368101227333
523,0.0,199.33942894500274,0.0,0.6605710549972628
524,0.0,199.36524810185688,0.0,0.6347518981431222
525,0.0,199.39006117601255,0.0,0.6099388239874486
526,0.0,199.4139071342719,0.0,0.5860928657280908
527,0.0,199.43682345236033,0.0,0.5631765476396708
528,0.0,199.45884617058815,0.0,0.5411538294118543
529,0.0,199.48000994754221,0.0,0.5199900524577856
530,0.0,199.50034811186876,0.0,0.49965188813123973
531,0.0,199.51989271220748,0.0,0.48010728779252076
532,0.0,199.53867456533564,0.0,0.46132543466436005
533,0.0,199.55672330258017,0.0,0.443276697419833
534,0.0,199.57406741455296,0.0,0.42593258544704327
535,0.0,199.5907342942652,0.0,0.4092657057348106
536,0.0,199.60675027867384,0.0,0.393249721326157
537,0.0,199.62214068871234,0.0,0.3778593112876649
538,0.0,199.63692986785696,0.0,0.3630701321430365
539,0.0,199.65114121927724,0.0,0.34885878072276455
540,0.0,199.66479724161977,0.0,0.33520275838023394
541,0.0,199.67791956347153,0.0,0.3220804365284664
542,0.0,199.69052897654842,0.0,0.30947102345157873
543,0.0,199.70264546765304,0.0,0.29735453234695797
544,0.0,199.71428824944476,0.0,0.2857117505552367
545,0.0,199.72547579006377,0.0,0.2745242099362315
546,0.0,199.73622584164903,0.0,0.2637741583509694
547,0.0,199.74655546778985,0.0,0.2534445322101533
548,0.0,199.7564810699485,0.0,0.2435189300514935
549,0.0,199.76601841289076,0.0,0.23398158710924122
550,0.0,199.76601841289076,0.0,0.23398158710924122
551,0.0,199.7564810699485,0.0,0.2435189300514935
552,0.0,199.74655546778985,0.0,0.2534445322101533
553,0.0,199.73622584164903,0.0,0.2637741583509694
554,0.0,199.72547579006377,0.0,0.2745242099362315
555,0.0,199.71428824944476,0.0,0.2857117505552367
556,0.0,199.70264546765304,0.0,0.29735453234695797
557,0.0,199.69052897654842,0.0,0.30947102345157873
558,0.0,199.67791956347153,0.0,0.3220804365284664
559,0.0,199.66479724161977,0.0,0.33520275838023394
560,0.0,199.65114121927724,0.0,0.34885878072276455
561,0.0,199.63692986785696,0.0,0.3630701321430365
562,0.0,199.62214068871234,0.0,0.3778593112876649
563,0.0,199.60675027867384,0.0,0.393249721326157
564,0.0,199.5907342942652,0.0,0.4092657057348106
565,0.0,199.57406741455296,0.0,0.42593258544704327
566,0.0,199.55672330258017,0.0,0.443276697419833
567,0.0,199.53867456533564,0.0,0.46132543466436005
568,0.0,199.51989271220748,0.0,0.48010728779252076
569,0.0,199.50034811186876,0.0,0.49965188813123973
570,0.0,199.48000994754221,0.0,0.5199900524577856
571,0.0,199.45884617058815,0.0,0.5411538294118543
572,0.0,199.43682345236033,0.0,0.5631765476396708
573,0.0,199.4139071342719,0.0,0.5860928657280908
574,0.0,199.39006117601255,0.0,0.6099388239874486
575,0.0,199.36524810185688,0.0,0.6347518981431222
576,0.0,199.33942894500274,0.0,0.6605710549972628
577,0.0,199.31256318987727,0.0,0.6874368101227333
578,0.0,199.284608712347,0.0,0.7153912876530057
579,0.0,199.25552171776718,0.0,0.7444782822328193
580,0.0,199.22525667680554,0.0,0.7747433231944569
581,0.0,199.19376625897308,0.0,0.8062337410269151
582,0.0,199.16100126379592,0.0,0.8389987362040756
583,0.0,199.12691054955948,0.0,0.8730894504405171
584,0.0,199.09144095955705,0.0,0.9085590404429524
585,0.0,199.05453724577418,0.0,0.9454627542258152
586,0.0,199.01614198994022,0.0,0.9838580100597767
587,0.0,198.97619552187757,0.0,1.023804478122429
588,0.0,198.93463583508117,0.0,1.065364164918833
589,0.0,198.8913984994587,0.0,1.1086015005413117
590,0.0,198.84641657116572,0.0,1.1535834288342812
591,0.0,198.79962049946826,0.0,1.2003795005317386
592,0.0,198.7509380305684,0.0,1.249061969431608
593,0.0,198.7002941083294,0.0,1.2997058916706123
594,0.0,198.64761077183985,0.0,1.352389228160149
595,0.0,198.59280704975745,0.0,1.4071929502425462
596,0.0,198.5357988513774,0.0,1.4642011486226068
597,0.0,198.4764988543733,0.0,1.5235011456267102
598,0.0,198.41481638916284,0.0,1.5851836108371629
599,0.0,198.3506573198547,0.0,1.6493426801453097
600,0.0,198.2839239217394,0.0,1.7160760782606133
601,0.0,198.21451475529204,0.0,1.7854852447079566
602,0.0,198.14232453666284,0.0,1.8576754633371593
603,0.0,198.06724400463736,0.0,1.9327559953626405
604,0.0,197.98915978405967,0.0,2.010840215940334
605,0.0,197.90795424571888,0.0,2.0920457542811164
606,0.0,197.8235053627114,0.0,2.176494637288613
607,0.0,197.7356865633031,0.0,2.2643134366969093
608,0.0,197.6443665803296,0.0,2.355633419670397
609,0.0,197.54940929718487,0.0,2.450590702815134
610,0.0,197.4506735904673,0.0,2.5493264095327106
611,0.0,197.34801316936816,0.0,2.6519868306318415
612,0.0,197.24127641190682,0.0,2.7587235880931757
613,0.0,197.13030619813804,0.0,2.869693801861956
614,0.0,197.01493974047958,0.0,2.9850602595204236
615,0.0,196.89500841133278,0.0,3.104991588667218
616,0.0,196.77033756819617,0.0,3.229662431803831
617,0.0,196.64074637650026,0.0,3.3592536234997397
618,0.0,196.5060476304242,0.0,3.493952369575794
619,0.0,196.3660475719885,0.0,3.633952428011497
620,0.0,196.22054570875414,0.0,3.7794542912458553
621,0.0,196.06933463049833,0.0,3.930665369501668
622,0.0,195.9121998252794,0.0,4.0878001747205985
623,0.0,195.74891949534802,0.0,4.251080504651981
624,0.0,195.5792643734106,0.0,4.420735626589391
625,0.0,195.4029975398029,0.0,4.597002460197103
626,0.0,195.21987424118606,0.0,4.780125758813938
627,0.0,195.0296417114366,0.0,4.9703582885634034
628,0.0,194.83203899546362,0.0,5.16796100453638
629,0.0,194.62679677675283,0.0,5.373203223247174
630,0.0,194.4136372095062,0.0,5.5863627904938085
631,0.0,194.1922737563198,0.0,5.807726243680207
632,0.0,193.9624110324196,0.0,6.037588967580405
633,0.0,193.72374465755652,0.0,6.276255342443477
634,0.0,193.4759611167461,0.0,6.524038883253894
635,0.0,193.21873763112825,0.0,6.781262368871751
636,0.0,192.95174204031352,0.0,7.048257959686481
637,0.0,192.67463269767975,0.0,7.325367302320245
638,0.0,192.3870583801801,0.0,7.612941619819907
639,0.0,192.08865821432786,0.0,7.9113417856721355
640,0.0,191.7790616201265,0.0,8.220938379873502
641,0.0,191.4578882748216,0.0,8.542111725178387
642,0.0,191.12474809845935,0.0,8.87525190154065
643,0.0,190.7792412633473,0.0,9.220758736652698
644,0.0,190.4209582296226,0.0,9.579041770377387
645,0.0,190.04947980924408,0.0,9.950520190755924
646,0.0,189.66437726083288,0.0,10.335622739167121
647,0.0,189.26521241789405,0.0,10.734787582105952
648,0.0,188.8515378530538,0.0,11.148462146946201
649,0.0,188.4228970810474,0.0,11.57710291895259
650,0.0,187.97882480328403,0.0,12.021175196715973
651,0.0,187.5188471969004,0.0,12.481152803099604
652,0.0,187.04248225129075,0.0,12.95751774870925
653,0.0,186.5492401551636,0.0,13.450759844836398
654,0.0,186.03862373722782,0.0,13.961376262772177
655,0.0,185.51012896364355,0.0,14.489871036356448
656,0.0,184.96324549539102,0.0,15.036754504608979
657,0.0,184.39745730870558,0.0,15.602542691294417
658,0.0,183.81224338169926,0.0,16.18775661830074
659,0.0,183.20707845023543,0.0,16.79292154976457
660,0.0,182.5814338360385,0.0,17.418566163961486
661,0.0,181.93477834990549,0.0,18.065221650094514
662,0.0,181.26657927273337,0.0,18.733420727266633
663,0.0,180.57630341688636,0.0,19.42369658311364
664,0.0,179.86341827019444,0.0,20.136581729805556
665,0.0,179.1273932245955,0.0,20.872606775404506
666,0.0,178.36770089110928,0.0,21.63229910889072
667,0.0,177.58381850245212,0.0,22.416181497547882
668,0.0,176.7752294041725,0.0,23.224770595827493
669,0.0,175.941424634699,0.0,24.05857536530101
670,0.0,175.0819045941483,0.0,24.918095405851687
671,0.0,174.1961808011372,0.0,25.80381919886281
672,0.0,173.28377773617592,0.0,26.71622226382408
673,0.0,172.3442347694994,0.0,27.655765230500606
674,0.0,171.37710817040355,0.0,28.622891829596455
675,0.0,170.38197319431637,0.0,29.618026805683627
676,0.0,169.35842624293002,0.0,30.641573757069978
677,0.0,168.30608709177497,0.0,31.69391290822503
678,0.0,167.22460117861482,0.0,32.77539882138518
679,0.0,166.1136419450065,0.0,33.88635805499351
680,0.0,164.97291322229427,0.0,35.02708677770573
681,0.0,163.8021516522134,0.0,36.19784834778659
682,0.0,162.60112913116464,0.0,37.39887086883536
683,0.0,161.36965526611138,0.0,38.63034473388862
684,0.0,160.10757982894563,0.0,39.89242017105437
685,0.0,158.81479519509625,0.0,41.18520480490375
686,0.0,157.4912387511148,0.0,42.50876124888521
687,0.0,156.1368952550027,0.0,43.86310474499729
688,0.0,154.75179913214194,0.0,45.24820086785806
689,0.0,153.33603668889307,0.0,46.663963311106926
690,0.0,151.88974822523642,0.0,48.11025177476358
691,0.0,150.41313002728523,0.0,49.586869972714766
692,0.0,148.90643622010293,0.0,51.09356377989707
693,0.0,147.36998046104117,0.0,52.630019538958834
694,0.0,145.80413745378576,0.0,54.195862546214244
695,0.0,144.20934426348487,0.0,55.790655736515134
696,0.0,142.58610141374152,0.0,57.41389858625848
697,0.0,140.93497374689744,0.0,59.06502625310256
698,0.0,139.256591029933,0.0,60.74340897006701
699,0.0,137.55164828944964,0.0,62.448351710550355
700,0.0,135.82090586061076,0.0,64.17909413938924
701,0.0,134.06518913656862,0.0,65.93481086343138
702,0.0,132.28538800681798,0.0,67.71461199318202
703,0.0,130.4824559750564,0.0,69.51754402494359
704,0.0,128.65740894950352,0.0,71.34259105049648
705,0.0,126.8113237011962,0.0,73.1886762988038
706,0.0,124.94533598852826,0.0,75.05466401147174
707,0.0,123.060638349192,0.0,76.939361650808
708,0.0,121.15847756369028,0.0,78.84152243630972
709,0.0,119.24015179766516,0.0,80.75984820233484
710,0.0,117.30700743341042,0.0,82.69299256658958
711,0.0,115.36043560403596,0.0,84.63956439596404
712,0.0,113.40186844681028,0.0,86.59813155318972
713,0.0,111.43277509515096,0.0,88.56722490484904
714,0.0,109.45465743154307,0.0,90.54534256845693
715,0.0,107.46904562627142,0.0,92.53095437372858
716,0.0,105.47749348923335,0.0,94.52250651076665
717,0.0,103.48157366419589,0.0,96.51842633580411
718,0.0,101.48287269665767,0.0,98.51712730334233
719,0.0,99.48298600791925,0.0,100.51701399208075
720,0.0,97.48351280905446,0.0,102.51648719094554
721,0.0,95.48605098916859,0.0,104.51394901083141
722,0.0,93.49219201262854,0.0,106.50780798737146
723,0.0,91.50351585984875,0.0,108.49648414015125
724,0.0,89.52158604570597,0.0,110.47841395429403
725,0.0,87.54794474876266,0.0,112.45205525123734
726,0.0,85.58410808319789,0.0,114.41589191680211
727,0.0,83.6315615437209,0.0,116.3684384562791
728,0.0,81.6917556517809,0.0,118.3082443482191
729,0.0,79.76610182914325,0.0,120.23389817085675
730,0.0,77.85596852239482,0.0,122.14403147760518
731,0.0,75.96267759922917,0.0,124.03732240077083
732,0.0,74.08750103447285,0.0,125.91249896552715
733,0.0,72.23165790080968,0.0,127.76834209919032
734,0.0,70.3963116760695,0.0,129.6036883239305
735,0.0,68.58256787583602,0.0,131.41743212416398
736,0.0,66.7914720170188,0.0,133.2085279829812
737,0.0,65.02400791499254,0.0,134.97599208500748
738,0.0,63.281096313947884,0.0,136.7189036860521
739,0.0,61.56359384728229,0.0,138.43640615271772
740,0.0,59.87229232219531,0.0,140.1277076778047
741,0.0,58.20791832019025,0.0,141.79208167980974
742,0.0,56.57113310292456,0.0,143.42886689707544
743,0.0,54.96253281083225,0.0,145.03746718916776
744,0.0,53.38264894015852,0.0,146.6173510598415
745,0.0,51.83194908252384,0.0,148.16805091747617
746,0.0,50.310837909859636,0.0,149.68916209014037
747,0.0,48.819658386546195,0.0,151.1803416134538
748,0.0,47.35869318981621,0.0,152.64130681018378
749,0.0,45.928166318964685,0.0,154.07183368103532
750,0.0,44.52824487361787,0.0,155.47175512638213
751,0.0,43.15904098123627,0.0,156.84095901876373
752,0.0,41.8206138541584,0.0,158.1793861458416
753,0.0,40.51297195680092,0.0,159.48702804319908
754,0.0,39.236075264109125,0.0,160.76392473589087
755,0.0,37.98983759297324,0.0,162.01016240702677
756,0.0,36.77412898907405,0.0,163.22587101092594
757,0.0,35.58877815247539,0.0,164.41122184752462
758,0.0,34.43357488622089,0.0,165.5664251137791
759,0.0,33.308272553200865,0.0,166.69172744679912
760,0.0,32.21259052761339,0.0,167.7874094723866
761,0.0,31.1462166284348,0.0,168.8537833715652
762,0.0,30.1088095234247,0.0,169.8911904765753
763,0.0,29.10000109330402,0.0,170.89999890669597
764,0.0,28.1193987468493,0.0,171.8806012531507
765,0.0,27.16658767873168,0.0,172.83341232126833
766,0.0,26.24113306298471,0.0,173.75886693701528
767,0.0,25.342582176003177,0.0,174.6574178239968
768,0.0,24.47046644394918,0.0,175.5295335560508
769,0.0,23.624303410365247,0.0,176.37569658963474
770,0.0,22.80359862066454,0.0,177.19640137933547
771,0.0,22.007847420980934,0.0,177.99215257901906
772,0.0,21.236536669615187,0.0,178.7634633303848
773,0.0,20.48914636000741,0.0,179.5108536399926
774,0.0,19.765151154798872,0.0,180.23484884520113
775,0.0,19.06402183111961,0.0,180.93597816888038
776,0.0,18.385226637752982,0.0,181.614773362247
777,0.0,17.72823256528589,0.0,182.27176743471412
778,0.0,17.092506530756225,0.0,182.90749346924378
779,0.0,16.477516478659403,0.0,183.5224835213406
780,0.0,15.88273240047673,0.0,184.11726759952327
781,0.0,15.30762727514245,0.0,184.69237272485756
782,0.0,14.751677933076868,0.0,185.24832206692312
783,0.0,14.214365846583185,0.0,185.78563415341682
784,0.0,13.695177849538561,0.0,186.30482215046143
785,0.0,13.193606789409229,0.0,186.80639321059078
786,0.0,12.709152114687086,0.0,187.29084788531293
787,0.0,12.241320400886021,0.0,187.75867959911398
788,0.0,11.789625818251217,0.0,188.2103741817488
789,0.0,11.353590544328119,0.0,188.6464094556719
790,0.0,10.932745124511527,0.0,189.06725487548846
791,0.0,10.526628783652189,0.0,189.4733712163478
792,0.0,10.134789691740504,0.0,189.8652103082595
793,0.0,9.756785186616845,0.0,190.24321481338316
794,0.0,9.392181956577435,0.0,190.60781804342255
795,0.0,9.040556185655587,0.0,190.9594438143444
796,0.0,8.701493664262086,0.0,191.29850633573793
797,0.0,8.374589867767122,0.0,191.62541013223287
798,0.0,8.05945000550078,0.0,191.9405499944992
799,0.0,7.755689042540989,0.0,192.24431095745902
800,0.0,7.462931696547963,0.0,192.53706830345203
801,0.0,7.180812411793698,0.0,192.8191875882063
802,0.0,6.9089753124246664,0.0,193.09102468757533
803,0.0,6.647074136886337,0.0,193.35292586311365
804,0.0,6.394772155330169,0.0,193.60522784466983
805,0.0,6.151742071717684,0.0,193.84825792828232
806,0.0,5.917665912232764,0.0,194.08233408776724
807,0.0,5.692234901512672,0.0,194.30776509848732
808,0.0,5.475149328110784,0.0,194.52485067188923
809,0.0,5.266118400509988,0.0,194.73388159949002
810,0.0,5.064860094915044,0.0,194.93513990508495
811,0.0,4.871100995965615,0.0,195.1288990040344
812,0.0,4.684576131428395,0.0,195.3154238685716
813,0.0,4.505028801847756,0.0,195.49497119815226
814,0.0,4.332210406058945,0.0,195.66778959394105
815,0.0,4.165880263396316,0.0,195.8341197366037
816,0.0,4.005805433361468,0.0,195.99419456663853
817,0.0,3.8517605334520724,0.0,196.14823946654792
818,0.0,3.7035275557919722,0.0,196.29647244420804
819,0.0,3.560895683146277,0.0,196.43910431685373
820,0.0,3.4236611048519237,0.0,196.57633889514807
821,0.0,3.291626833144189,0.0,196.7083731668558
822,0.0,3.1646025203128865,0.0,196.83539747968712
823,0.0,3.0424042770783046,0.0,196.9575957229217
824,0.0,2.924854492536265,0.0,197.07514550746373
825,0.0,2.811781655983757,0.0,197.18821834401624
826,0.0,2.7030201809014534,0.0,197.29697981909854
827,0.0,2.598410231336745,0.0,197.40158976866326
828,0.0,2.497797550900747,0.0,197.50220244909926
829,0.0,2.4010332945648023,0.0,197.5989667054352
830,0.0,2.3079738634162776,0.0,197.69202613658373
831,0.0,2.2184807425097333,0.0,197.78151925749026
832,0.0,2.13242034192778,0.0,197.86757965807223
833,0.0,2.04966384114597,0.0,197.95033615885404
834,0.0,1.970087036777789,0.0,198.02991296322222
835,0.0,1.8935701937591274,0.0,198.10642980624087
836,0.0,1.8199979000164366,0.0,198.18000209998357
837,0.0,1.7492589246488945,0.0,198.2507410753511
838,0.0,1.6812460796424564,0.0,198.31875392035755
839,0.0,1.6158560851222845,0.0,198.3841439148777
840,0.0,1.5529894381398712,0.0,198.44701056186014
841,0.0,1.492550284981996,0.0,198.507449715018
842,0.0,1.434446296980433,0.0,198.56555370301956
843,0.0,1.3785885497940331,0.0,198.62141145020595
844,0.0,1.3248914061282684,0.0,198.67510859387173
845,0.0,1.2732724018516217,0.0,198.7267275981484
846,0.0,1.2236521354631342,0.0,198.77634786453686
847,0.0,1.1759541608610402,0.0,198.82404583913896
848,0.0,1.1301048833585936,0.0,198.8698951166414
849,0.0,1.086033458889936,0.0,198.91396654111006
850,0.0,1.0436716963460735,0.0,198.95632830365392
851,0.0,1.0029539629787048,0.0,198.9970460370213
852,0.0,0.9638170928077473,0.0,199.03618290719226
853,0.0,0.9262002979668658,0.0,199.07379970203314
854,0.0,0.89004508292012,0.0,199.10995491707988
855,0.0,0.8552951614819704,0.0,199.14470483851804
856,0.0,0.8218963765722843,0.0,199.17810362342772
857,0.0,0.7897966226376242,0.0,199.21020337736238
858,0.0,0.758945770670001,0.0,199.24105422933
859,0.0,0.729295595754344,0.0,199.27070440424566
860,0.0,0.7007997070762169,0.0,199.29920029292379
861,0.0,0.6734134803217389,0.0,199.32658651967827
862,0.0,0.6470939924022422,0.0,199.35290600759777
863,0.0,0.6217999584369064,0.0,199.3782000415631
864,0.0,0.5974916709274246,0.0,199.4025083290726
865,0.0,0.5741309410596689,0.0,199.42586905894032
866,0.0,0.5516810420683254,0.0,199.44831895793166
867,0.0,0.5301066546015412,0.0,199.46989334539845
868,0.0,0.5093738140237636,0.0,199.49062618597623
869,0.0,0.48944985959613574,0.0,199.51055014040386
870,0.0,0.47030338547505196,0.0,199.52969661452494
871,0.0,0.45190419347073985,0.0,199.54809580652926
872,0.0,0.43422324750903313,0.0,199.56577675249096
873,0.0,0.4172326297408202,0.0,199.58276737025918
874,0.0,0.40090549824498245,0.0,199.59909450175502
875,0.0,0.38521604627198286,0.0,199.61478395372802
876,0.0,0.3701394629766128,0.0,199.62986053702338
877,0.0,0.3556518955897557,0.0,199.64434810441026
878,0.0,0.3417304129803691,0.0,199.65826958701962
879,0.0,0.3283529705602307,0.0,199.67164702943978
880,0.0,0.3154983764853181,0.0,199.68450162351468
881,0.0,0.30314625910901527,0.0,199.696853740891
882,0.0,0.29127703564363483,0.0,199.70872296435635
883,0.0,0.27987188198803453,0.0,199.72012811801196
884,0.0,0.2689127036803702,0.0,199.73108729631963
885,0.0,0.2583821079362747,0.0,199.74161789206372
886,0.0,0.24826337673397442,0.0,199.75173662326603
887,0.0,0.23854044090905752,0.0,199.76145955909095
888,0.0,0.22919785522278344,0.0,199.7708021447772
889,0.0,0.22022077436897694,0.0,199.77977922563102
890,0.0,0.21159492988567558,0.0,199.78840507011432
891,0.0,0.2033066079388009,0.0,199.7966933920612
892,0.0,0.19534262794619942,0.0,199.8046573720538
893,0.0,0.18769032201144564,0.0,199.81230967798857
894,0.0,0.18033751513782512,0.0,199.81966248486216
895,0.0,0.17327250619390566,0.0,199.8267274938061
896,0.0,0.1664840496030788,0.0,199.83351595039693
897,0.0,0.15996133773039184,0.0,199.84003866226962
898,0.0,0.15369398394090913,0.0,199.8463060160591
899,0.0,0.14767200630473026,0.0,199.85232799369527
900,0.0,0.1418858119246568,0.0,199.85811418807535
901,0.0,0.1363261818633383,0.0,199.86367381813668
902,0.0,0.13098425664754196,0.0,199.86901574335246
903,0.0,0.1258515223279785,0.0,199.874148477672
904,0.0,0.1209197970738824,0.0,199.8790802029261
905,0.0,0.11618121828228464,0.0,199.8838187817177
906,0.0,0.11162823018263392,0.0,199.88837176981735
907,0.0,0.10725357191811655,0.0,199.8927464280819
908,0.0,0.10305026608569837,0.0,199.8969497339143
909,0.0,0.09901160771756065,0.0,199.90098839228244
910,0.0,0.09513115368723296,0.0,199.90486884631278
911,0.0,0.09140271252433238,0.0,199.90859728747566
912,0.0,0.0878203346224075,0.0,199.91217966537758
913,0.0,0.0843783028249532,0.0,199.91562169717506
914,0.0,0.08107112337521119,0.0,199.9189288766248
915,0.0,0.0778935172159013,0.0,199.9221064827841
916,0.0,0.07484041162554106,0.0,199.92515958837447
917,0.0,0.07190693217850393,0.0,199.9280930678215
918,0.0,0.06908839501644574,0.0,199.93091160498355
919,0.0,0.06638029941918715,0.0,199.9336197005808
920,0.0,0.06377832066358573,0.0,199.93622167933643
921,0.0,0.06127830315935918,0.0,199.93872169684064
922,0.0,0.05887625385123458,0.0,199.94112374614878
923,0.0,0.05656833587719746,0.0,199.9434316641228
924,0.0,0.05435086247299876,0.0,199.945649137527
925,0.0,0.052220291113448135,0.0,199.94777970888654
926,0.0,0.05017321788137977,0.0,199.9498267821186
927,0.0,0.048206372055520585,0.0,199.95179362794448
928,0.0,0.046316610908823275,0.0,199.95368338909117
929,0.0,0.0445009147091453,0.0,199.95549908529085
930,0.0,0.04275638191446415,0.0,199.95724361808553
931,0.0,0.04108022455511508,0.0,199.95891977544488
932,0.0,0.03946976379582366,0.0,199.96053023620416
933,0.0,0.03792242567058092,0.0,199.9620775743294
934,0.0,0.03643573698367377,0.0,199.96356426301634
935,0.0,0.03500732137043879,0.0,199.96499267862956
936,0.0,0.03363489551155321,0.0,199.96636510448846
937,0.0,0.03231626549491379,0.0,199.96768373450507
938,0.0,0.031049323319381927,0.0,199.9689506766806
939,0.0,0.029832043534892758,0.0,199.9701679564651
940,0.0,0.028662480013637026,0.0,199.97133751998635
941,0.0,0.027538762847227904,0.0,199.97246123715277
942,0.0,0.026459095364960255,0.0,199.97354090463503
943,0.0,0.02542175126845812,0.0,199.97457824873155
944,0.0,0.02442507187818737,0.0,199.9755749281218
945,0.0,0.02346746348748449,0.0,199.9765325365125
946,0.0,0.022547394819920435,0.0,199.97745260518008
947,0.0,0.021663394585979476,0.0,199.97833660541403
948,0.0,0.020814049135188317,0.0,199.9791859508648
949,0.0,0.019998000199980003,0.0,199.9800019998
950,0.0,0.0,0.0,200.0
951,0.0,0.0,0.0,200.0
952,0.0,0.0,0.0,200.0
953,0.0,0.0,0.0,200.0
954,0.0,0.0,0.0,200.0
955,0.0,0.0,0.0,200.0
956,0.0,0.0,0.0,200.0
957,0.0,0.0,0.0,200.0
958,0.0,0.0,0.0,200.0
959,0.0,0.0,0.0,200.0
960,0.0,0.0,0.0,200.0
961,0.0,0.0,0.0,200.0
962,0.0,0.0,0.0,200.0
963,0.0,0.0,0.0,200.0
964,0.0,0.0,0.0,200.0
965,0.0,0.0,0.0,200.0
966,0.0,0.0,0.0,200.0
967,0.0,0.0,0.0,200.0
968,0.0,0.0,0.0,200.0
969,0.0,0.0,0.0,200.0
970,0.0,0.0,0.0,200.0
971,0.0,0.0,0.0,200.0
972,0.0,0.0,0.0,200.0
973,0.0,0.0,0.0,200.0
974,0.0,0.0,0.0,200.0
975,0.0,0.0,0.0,200.0
976,0.0,0.0,0.0,200.0
977,0.0,0.0,0.0,200.0
978,0.0,0.0,0.0,200.0
979,0.0,0.0,0.0,200.0
980,0.0,0.0,0.0,200.0
981,0.0,0.0,0.0,200.0
982,0.0,0.0,0.0,200.0
983,0.0,0.0,0.0,200.0
984,0.0,0.0,0.0,200.0
985,0.0,0.0,0.0,200.0
986,0.0,0.0,0.0,200.0
987,0.0,0.0,0.0,200.0
988,0.0,0.0,0.0,200.0
989,0.0,0.0,0.0,200.0
990,0.0,0.0,0.0,200.0
991,0.0,0.0,0.0,200.0
992,0.0,0.0,0.0,200.0
993,0.0,0.0,0.0,200.0
994,0.0,0.0,0.0,200.0
995,0.0,0.0,0.0,200.0
996,0.0,0.0,0.0,200.0
997,0.0,0.0,0.0,200.0
998,0.0,0.0,0.0,200.0
999,0.0,0.0,0.0,200.0
