,Ch1,Ch2,Ch3,Ch4
0,0.0,0.0,0.0,200.0
1,0.0,0.0,0.0,200.0
2,0.0,0.0,0.0,200.0
3,0.0,0.0,0.0,200.0
4,0.0,0.0,0.0,200.0
5,0.0,0.0,0.0,200.0
6,0.0,0.0,0.0,200.0
7,0.0,0.0,0.0,200.0
8,0.0,0.0,0.0,200.0
9,0.0,0.0,0.0,200.0
10,0.0,0.0,0.0,200.0
11,0.0,0.0,0.0,200.0
12,0.0,0.0,0.0,200.0
13,0.0,0.0,0.0,200.0
14,0.0,0.0,0.0,200.0
15,0.0,0.0,0.0,200.0
16,0.0,0.0,0.0,200.0
17,0.0,0.0,0.0,200.0
18,0.0,0.0,0.0,200.0
19,0.0,0.0,0.0,200.0
20,0.0,0.0,0.0,200.0
21,0.0,0.0,0.0,200.0
22,0.0,0.0,0.0,200.0
23,0.0,0.0,0.0,200.0
24,0.0,0.0,0.0,200.0
25,0.0,0.0,0.0,200.0
26,0.0,0.0,0.0,200.0
27,0.0,0.0,0.0,200.0
28,0.0,0.0,0.0,200.0
29,0.0,0.0,0.0,200.0
30,0.0,0.0,0.0,200.0
31,0.0,0.0,0.0,200.0
32,0.0,0.0,0.0,200.0
33,0.0,0.0,0.0,200.0
34,0.0,0.0,0.0,200.0
35,0.0,0.0,0.0,200.0
36,0.0,0.0,0.0,200.0
37,0.0,0.0,0.0,200.0
38,0.0,0.0,0.0,200.0
39,0.0,0.0,0.0,200.0
40,0.0,0.0,0.0,200.0
41,0.0,0.0,0.0,200.0
42,0.0,0.0,0.0,200.0
43,0.0,0.0,0.0,200.0
44,0.0,0.0,0.0,200.0
45,0.0,0.0,0.0,200.0
46,0.0,0.0,0.0,200.0
47,0.0,0.0,0.0,200.0
48,0.0,0.0,0.0,200.0
49,0.0,0.0,0.0,200.0
50,0.0,0.0,0.0,200.0
51,0.0,0.0,0.0,200.0
52,0.0,0.0,0.0,200.0
53,0.0,0.0,0.0,200.0
54,0.0,0.0,0.0,200.0
55,0.0,0.0,0.0,200.0
56,0.0,0.0,0.0,200.0
57,0.0,0.0,0.0,200.0
58,0.0,0.0,0.0,200.0
59,0.0,0.0,0.0,200.0
60,0.0,0.0,0.0,200.0
61,0.0,0.0,0.0,200.0
62,0.0,0.0,0.0,200.0
63,0.0,0.0,0.0,200.0
64,0.0,0.0,0.0,200.0
65,0.0,0.0,0.0,200.0
66,0.0,0.0,0.0,200.0
67,0.0,0.0,0.0,200.0
68,0.0,0.0,0.0,200.0
69,0.0,0.0,0.0,200.0
70,0.0,0.0,0.0,200.0
71,0.0,0.0,0.0,200.0
72,0.0,0.0,0.0,200.0
73,0.0,0.0,0.0,200.0
74,0.0,0.0,0.0,200.0
75,0.0,0.0,0.0,200.0
76,0.0,0.0,0.0,200.0
77,0.0,0.0,0.0,200.0
78,0.0,0.0,0.0,200.0
79,0.0,0.0,0.0,200.0
80,0.0,0.0,0.0,200.0
81,0.0,0.0,0.0,200.0
82,0.0,0.0,0.0,200.0
83,0.0,0.0,0.0,200.0
84,0.0,0.0,0.0,200.0
85,0.0,0.0,0.0,200.0
86,0.0,0.0,0.0,200.0
87,0.0,0.0,0.0,200.0
88,0.0,0.0,0.0,200.0
89,0.0,0.0,0.0,200.0
90,0.0,0.0,0.0,200.0
91,0.0,0.0,0.0,200.0
92,0.0,0.0,0.0,200.0
93,0.0,0.0,0.0,200.0
94,0.0,0.0,0.0,200.0
95,0.0,0.0,0.0,200.0
96,0.0,0.0,0.0,200.0
97,0.0,0.0,0.0,200.0
98,0.0,0.0,0.0,200.0
99,0.0,0.0,0.0,200.0
100,0.0,0.0,0.0,200.0
101,0.0,0.0,0.0,200.0
102,0.0,0.0,0.0,200.0
103,0.0,0.0,0.0,200.0
104,0.0,0.0,0.0,200.0
105,0.0,0.0,0.0,200.0
106,0.0,0.0,0.0,200.0
107,0.0,0.0,0.0,200.0
108,0.0,0.0,0.0,200.0
109,0.0,0.0,0.0,200.0
110,0.0,0.0,0.0,200.0
111,0.0,0.0,0.0,200.0
112,0.0,0.0,0.0,200.0
113,0.0,0.0,0.0,200.0
114,0.0,0.0,0.0,200.0
115,0.0,0.0,0.0,200.0
116,0.0,0.0,0.0,200.0
117,0.0,0.0,0.0,200.0
118,0.0,0.0,0.0,200.0
119,0.0,0.0,0.0,200.0
120,0.0,0.0,0.0,200.0
121,0.0,0.0,0.0,200.0
122,0.0,0.0,0.0,200.0
123,0.0,0.0,0.0,200.0
124,0.0,0.0,0.0,200.0
125,0.0,0.0,0.0,200.0
126,0.0,0.0,0.0,200.0
127,0.0,0.0,0.0,200.0
128,0.0,0.0,0.0,200.0
129,0.0,0.0,0.0,200.0
130,0.0,0.0,0.0,200.0
131,0.0,0.0,0.0,200.0
132,0.0,0.0,0.0,200.0
133,0.0,0.0,0.0,200.0
134,0.0,0.0,0.0,200.0
135,0.0,0.0,0.0,200.0
136,0.0,0.0,0.0,200.0
137,0.0,0.0,0.0,200.0
138,0.0,0.0,0.0,200.0
139,0.0,0.0,0.0,200.0
140,0.0,0.0,0.0,200.0
141,0.0,0.0,0.0,200.0
142,0.0,0.0,0.0,200.0
143,0.0,0.0,0.0,200.0
144,0.0,0.0,0.0,200.0
145,0.0,0.0,0.0,200.0
146,0.0,0.0,0.0,200.0
147,0.0,0.0,0.0,200.0
148,0.0,0.0,0.0,200.0
149,0.0,0.0,0.0,200.0
150,0.0,0.0,0.0,200.0
151,0.0,0.0,0.0,200.0
152,0.0,0.0,0.0,200.0
153,0.0,0.0,0.0,200.0
154,0.0,0.0,0.0,200.0
155,0.0,0.0,0.0,200.0
156,0.0,0.0,0.0,200.0
157,0.0,0.0,0.0,200.0
158,0.0,0.0,0.0,200.0
159,0.0,0.0,0.0,200.0
160,0.0,0.0,0.0,200.0
161,0.0,0.0,0.0,200.0
162,0.0,0.0,0.0,200.0
163,0.0,0.0,0.0,200.0
164,0.0,0.0,0.0,200.0
165,0.0,0.0,0.0,200.0
166,0.0,0.0,0.0,200.0
167,0.0,0.0,0.0,200.0
168,0.0,0.0,0.0,200.0
169,0.0,0.0,0.0,200.0
170,0.0,0.0,0.0,200.0
171,0.0,0.0,0.0,200.0
172,0.0,0.0,0.0,200.0
173,0.0,0.0,0.0,200.0
174,0.0,0.0,0.0,200.0
175,0.0,0.0,0.0,200.0
176,0.0,0.0,0.0,200.0
177,0.0,0.0,0.0,200.0
178,0.0,0.0,0.0,200.0
179,0.0,0.0,0.0,200.0
180,0.0,0.0,0.0,200.0
181,0.0,0.0,0.0,200.0
182,0.0,0.0,0.0,200.0
183,0.0,0.0,0.0,200.0
184,0.0,0.0,0.0,200.0
185,0.0,0.0,0.0,200.0
186,0.0,0.0,0.0,200.0
187,0.0,0.0,0.0,200.0
188,0.0,0.0,0.0,200.0
189,0.0,0.0,0.0,200.0
190,0.0,0.0,0.0,200.0
191,0.0,0.0,0.0,200.0
192,0.0,0.0,0.0,200.0
193,0.0,0.0,0.0,200.0
194,0.0,0.0,0.0,200.0
195,0.0,0.0,0.0,200.0
196,0.0,0.0,0.0,200.0
197,0.0,0.0,0.0,200.0
198,0.0,0.0,0.0,200.0
199,0.0,0.0,0.0,200.0
200,0.0,0.0,0.0,200.0
201,0.0,0.0,0.0,200.0
202,0.0,0.0,0.0,200.0
203,0.0,0.0,0.0,200.0
204,0.0,0.0,0.0,200.0
205,0.0,0.0,0.0,200.0
206,0.0,0.0,0.0,200.0
207,0.0,0.0,0.0,200.0
208,0.0,0.0,0.0,200.0
209,0.0,0.0,0.0,200.0
210,0.0,0.0,0.0,200.0
211,0.0,0.0,0.0,200.0
212,0.0,0.0,0.0,200.0
213,0.0,0.0,0.0,200.0
214,0.0,0.0,0.0,200.0
215,0.0,0.0,0.0,200.0
216,0.0,0.0,0.0,200.0
217,0.0,0.0,0.0,200.0
218,0.0,0.0,0.0,200.0
219,0.0,0.0,0.0,200.0
220,0.0,0.0,0.0,200.0
221,0.0,0.0,0.0,200.0
222,0.0,0.0,0.0,200.0
223,0.0,0.0,0.0,200.0
224,0.0,0.0,0.0,200.0
225,0.0,0.0,0.0,200.0
226,0.0,0.0,0.0,200.0
227,0.0,0.0,0.0,200.0
228,0.0,0.0,0.0,200.0
229,0.0,0.0,0.0,200.0
230,0.0,0.0,0.0,200.0
231,0.0,0.0,0.0,200.0
232,0.0,0.0,0.0,200.0
233,0.0,0.0,0.0,200.0
234,0.0,0.0,0.0,200.0
235,0.0,0.0,0.0,200.0
236,0.0,0.0,0.0,200.0
237,0.0,0.0,0.0,200.0
238,0.0,0.0,0.0,200.0
239,0.0,0.0,0.0,200.0
240,0.0,0.0,0.0,200.0
241,0.0,0.0,0.0,200.0
242,0.0,0.0,0.0,200.0
243,0.0,0.0,0.0,200.0
244,0.0,0.0,0.0,200.0
245,0.0,0.0,0.0,200.0
246,0.0,0.0,0.0,200.0
247,0.0,0.0,0.0,200.0
248,0.0,0.0,0.0,200.0
249,0.0,0.0,0.0,200.0
250,150.0,0.0,0.0,50.0
251,150.0,0.0,0.0,50.0
252,150.0,0.0,0.0,50.0
253,150.0,0.0,0.0,50.0
254,150.0,0.0,0.0,50.0
255,150.0,0.0,0.0,50.0
256,150.0,0.0,0.0,50.0
257,150.0,0.0,0.0,50.0
258,150.0,0.0,0.0,50.0
259,150.0,0.0,0.0,50.0
260,150.0,0.0,0.0,50.0
261,150.0,0.0,0.0,50.0
262,150.0,0.0,0.0,50.0
263,150.0,0.0,0.0,50.0
264,150.0,0.0,0.0,50.0
265,150.0,0.0,0.0,50.0
266,150.0,0.0,0.0,50.0
267,150.0,0.0,0.0,50.0
268,150.0,0.0,0.0,50.0
269,150.0,0.0,0.0,50.0
270,150.0,0.0,0.0,50.0
271,150.0,0.0,0.0,50.0
272,150.0,0.0,0.0,50.0
273,150.0,0.0,0.0,50.0
274,150.0,0.0,0.0,50.0
275,150.0,0.0,0.0,50.0
276,150.0,0.0,0.0,50.0
277,150.0,0.0,0.0,50.0
278,150.0,0.0,0.0,50.0
279,150.0,0.0,0.0,50.0
280,150.0,0.0,0.0,50.0
281,150.0,0.0,0.0,50.0
282,150.0,0.0,0.0,50.0
283,150.0,0.0,0.0,50.0
284,150.0,0.0,0.0,50.0
285,150.0,0.0,0.0,50.0
286,150.0,0.0,0.0,50.0
287,150.0,0.0,0.0,50.0
288,150.0,0.0,0.0,50.0
289,150.0,0.0,0.0,50.0
290,150.0,0.0,0.0,50.0
291,150.0,0.0,0.0,50.0
292,150.0,0.0,0.0,50.0
293,150.0,0.0,0.0,50.0
294,150.0,0.0,0.0,50.0
295,150.0,0.0,0.0,50.0
296,150.0,0.0,0.0,50.0
297,150.0,0.0,0.0,50.0
298,150.0,0.0,0.0,50.0
299,150.0,0.0,0.0,50.0
300,150.0,0.0,0.0,50.0
301,150.0,0.0,0.0,50.0
302,150.0,0.0,0.0,50.0
303,150.0,0.0,0.0,50.0
304,150.0,0.0,0.0,50.0
305,150.0,0.0,0.0,50.0
306,150.0,0.0,0.0,50.0
307,150.0,0.0,0.0,50.0
308,150.0,0.0,0.0,50.0
309,150.0,0.0,0.0,50.0
310,150.0,0.0,0.0,50.0
311,150.0,0.0,0.0,50.0
312,150.0,0.0,0.0,50.0
313,150.0,0.0,0.0,50.0
314,150.0,0.0,0.0,50.0
315,150.0,0.0,0.0,50.0
316,150.0,0.0,0.0,50.0
317,150.0,0.0,0.0,50.0
318,150.0,0.0,0.0,50.0
319,150.0,0.0,0.0,50.0
320,150.0,0.0,0.0,50.0
321,150.0,0.0,0.0,50.0
322,150.0,0.0,0.0,50.0
323,150.0,0.0,0.0,50.0
324,150.0,0.0,0.0,50.0
325,150.0,0.0,0.0,50.0
326,150.0,0.0,0.0,50.0
327,150.0,0.0,0.0,50.0
328,150.0,0.0,0.0,50.0
329,150.0,0.0,0.0,50.0
330,150.0,0.0,0.0,50.0
331,150.0,0.0,0.0,50.0
332,150.0,0.0,0.0,50.0
333,150.0,0.0,0.0,50.0
334,150.0,0.0,0.0,50.0
335,150.0,0.0,0.0,50.0
336,150.0,0.0,0.0,50.0
337,150.0,0.0,0.0,50.0
338,150.0,0.0,0.0,50.0
339,150.0,0.0,0.0,50.0
340,150.0,0.0,0.0,50.0
341,150.0,0.0,0.0,50.0
342,150.0,0.0,0.0,50.0
343,150.0,0.0,0.0,50.0
344,150.0,0.0,0.0,50.0
345,150.0,0.0,0.0,50.0
346,150.0,0.0,0.0,50.0
347,150.0,0.0,0.0,50.0
348,150.0,0.0,0.0,50.0
349,150.0,0.0,0.0,50.0
350,150.0,0.0,0.0,50.0
351,150.0,0.0,0.0,50.0
352,150.0,0.0,0.0,50.0
353,150.0,0.0,0.0,50.0
354,150.0,0.0,0.0,50.0
355,150.0,0.0,0.0,50.0
356,150.0,0.0,0.0,50.0
357,150.0,0.0,0.0,50.0
358,150.0,0.0,0.0,50.0
359,150.0,0.0,0.0,50.0
360,150.0,0.0,0.0,50.0
361,150.0,0.0,0.0,50.0
362,150.0,0.0,0.0,50.0
363,150.0,0.0,0.0,50.0
364,150.0,0.0,0.0,50.0
365,150.0,0.0,0.0,50.0
366,150.0,0.0,0.0,50.0
367,150.0,0.0,0.0,50.0
368,150.0,0.0,0.0,50.0
369,150.0,0.0,0.0,50.0
370,150.0,0.0,0.0,50.0
371,150.0,0.0,0.0,50.0
372,150.0,0.0,0.0,50.0
373,150.0,0.0,0.0,50.0
374,150.0,0.0,0.0,50.0
375,150.0,0.0,0.0,50.0
376,150.0,0.0,0.0,50.0
377,150.0,0.0,0.0,50.0
378,150.0,0.0,0.0,50.0
379,150.0,0.0,0.0,50.0
380,150.0,0.0,0.0,50.0
381,150.0,0.0,0.0,50.0
382,150.0,0.0,0.0,50.0
383,150.0,0.0,0.0,50.0
384,150.0,0.0,0.0,50.0
385,150.0,0.0,0.0,50.0
386,150.0,0.0,0.0,50.0
387,150.0,0.0,0.0,50.0
388,150.0,0.0,0.0,50.0
389,150.0,0.0,0.0,50.0
390,150.0,0.0,0.0,50.0
391,150.0,0.0,0.0,50.0
392,150.0,0.0,0.0,50.0
393,150.0,0.0,0.0,50.0
394,150.0,0.0,0.0,50.0
395,150.0,0.0,0.0,50.0
396,150.0,0.0,0.0,50.0
397,150.0,0.0,0.0,50.0
398,150.0,0.0,0.0,50.0
399,150.0,0.0,0.0,50.0
400,150.0,0.0,0.0,50.0
401,150.0,0.0,0.0,50.0
402,150.0,0.0,0.0,50.0
403,150.0,0.0,0.0,50.0
404,150.0,0.0,0.0,50.0
405,150.0,0.0,0.0,50.0
406,150.0,0.0,0.0,50.0
407,150.0,0.0,0.0,50.0
408,150.0,0.0,0.0,50.0
409,150.0,0.0,0.0,50.0
410,150.0,0.0,0.0,50.0
411,150.0,0.0,0.0,50.0
412,150.0,0.0,0.0,50.0
413,150.0,0.0,0.0,50.0
414,150.0,0.0,0.0,50.0
415,150.0,0.0,0.0,50.0
416,150.0,0.0,0.0,50.0
417,150.0,0.0,0.0,50.0
418,150.0,0.0,0.0,50.0
419,150.0,0.0,0.0,50.0
420,150.0,0.0,0.0,50.0
421,150.0,0.0,0.0,50.0
422,150.0,0.0,0.0,50.0
423,150.0,0.0,0.0,50.0
424,150.0,0.0,0.0,50.0
425,150.0,0.0,0.0,50.0
426,150.0,0.0,0.0,50.0
427,150.0,0.0,0.0,50.0
428,150.0,0.0,0.0,50.0
429,150.0,0.0,0.0,50.0
430,150.0,0.0,0.0,50.0
431,150.0,0.0,0.0,50.0
432,150.0,0.0,0.0,50.0
433,150.0,0.0,0.0,50.0
434,150.0,0.0,0.0,50.0
435,150.0,0.0,0.0,50.0
436,150.0,0.0,0.0,50.0
437,150.0,0.0,0.0,50.0
438,150.0,0.0,0.0,50.0
439,150.0,0.0,0.0,50.0
440,150.0,0.0,0.0,50.0
441,150.0,0.0,0.0,50.0
442,150.0,0.0,0.0,50.0
443,150.0,0.0,0.0,50.0
444,150.0,0.0,0.0,50.0
445,150.0,0.0,0.0,50.0
446,150.0,0.0,0.0,50.0
447,150.0,0.0,0.0,50.0
448,150.0,0.0,0.0,50.0
449,150.0,0.0,0.0,50.0
450,150.0,0.0,0.0,50.0
451,150.0,0.0,0.0,50.0
452,150.0,0.0,0.0,50.0
453,150.0,0.0,0.0,50.0
454,150.0,0.0,0.0,50.0
455,150.0,0.0,0.0,50.0
456,150.0,0.0,0.0,50.0
457,150.0,0.0,0.0,50.0
458,150.0,0.0,0.0,50.0
459,150.0,0.0,0.0,50.0
460,150.0,0.0,0.0,50.0
461,150.0,0.0,0.0,50.0
462,150.0,0.0,0.0,50.0
463,150.0,0.0,0.0,50.0
464,150.0,0.0,0.0,50.0
465,150.0,0.0,0.0,50.0
466,150.0,0.0,0.0,50.0
467,150.0,0.0,0.0,50.0
468,150.0,0.0,0.0,50.0
469,150.0,0.0,0.0,50.0
470,150.0,0.0,0.0,50.0
471,150.0,0.0,0.0,50.0
472,150.0,0.0,0.0,50.0
473,150.0,0.0,0.0,50.0
474,150.0,0.0,0.0,50.0
475,150.0,0.0,0.0,50.0
476,150.0,0.0,0.0,50.0
477,150.0,0.0,0.0,50.0
478,150.0,0.0,0.0,50.0
479,150.0,0.0,0.0,50.0
480,150.0,0.0,0.0,50.0
481,150.0,0.0,0.0,50.0
482,150.0,0.0,0.0,50.0
483,150.0,0.0,0.0,50.0
484,150.0,0.0,0.0,50.0
485,150.0,0.0,0.0,50.0
486,150.0,0.0,0.0,50.0
487,150.0,0.0,0.0,50.0
488,150.0,0.0,0.0,50.0
489,150.0,0.0,0.0,50.0
490,150.0,0.0,0.0,50.0
491,150.0,0.0,0.0,50.0
492,150.0,0.0,0.0,50.0
493,150.0,0.0,0.0,50.0
494,150.0,0.0,0.0,50.0
495,150.0,0.0,0.0,50.0
496,150.0,0.0,0.0,50.0
497,150.0,0.0,0.0,50.0
498,150.0,0.0,0.0,50.0
499,150.0,0.0,0.0,50.0
500,150.0,0.0,0.0,50.0
501,150.0,0.0,0.0,50.0
502,150.0,0.0,0.0,50.0
503,150.0,0.0,0.0,50.0
504,150.0,0.0,0.0,50.0
505,150.0,0.0,0.0,50.0
506,150.0,0.0,0.0,50.0
507,150.0,0.0,0.0,50.0
508,150.0,0.0,0.0,50.0
509,150.0,0.0,0.0,50.0
510,150.0,0.0,0.0,50.0
511,150.0,0.0,0.0,50.0
512,150.0,0.0,0.0,50.0
513,150.0,0.0,0.0,50.0
514,150.0,0.0,0.0,50.0
515,150.0,0.0,0.0,50.0
516,150.0,0.0,0.0,50.0
517,150.0,0.0,0.0,50.0
518,150.0,0.0,0.0,50.0
519,150.0,0.0,0.0,50.0
520,150.0,0.0,0.0,50.0
521,150.0,0.0,0.0,50.0
522,150.0,0.0,0.0,50.0
523,150.0,0.0,0.0,50.0
524,150.0,0.0,0.0,50.0
525,150.0,0.0,0.0,50.0
526,150.0,0.0,0.0,50.0
527,150.0,0.0,0.0,50.0
528,150.0,0.0,0.0,50.0
529,150.0,0.0,0.0,50.0
530,150.0,0.0,0.0,50.0
531,150.0,0.0,0.0,50.0
532,150.0,0.0,0.0,50.0
533,150.0,0.0,0.0,50.0
534,150.0,0.0,0.0,50.0
535,150.0,0.0,0.0,50.0
536,150.0,0.0,0.0,50.0
537,150.0,0.0,0.0,50.0
538,150.0,0.0,0.0,50.0
539,150.0,0.0,0.0,50.0
540,150.0,0.0,0.0,50.0
541,150.0,0.0,0.0,50.0
542,150.0,0.0,0.0,50.0
543,150.0,0.0,0.0,50.0
544,150.0,0.0,0.0,50.0
545,150.0,0.0,0.0,50.0
546,150.0,0.0,0.0,50.0
547,150.0,0.0,0.0,50.0
548,150.0,0.0,0.0,50.0
549,150.0,0.0,0.0,50.0
550,150.0,0.0,0.0,50.0
551,150.0,0.0,0.0,50.0
552,150.0,0.0,0.0,50.0
553,150.0,0.0,0.0,50.0
554,150.0,0.0,0.0,50.0
555,150.0,0.0,0.0,50.0
556,150.0,0.0,0.0,50.0
557,150.0,0.0,0.0,50.0
558,150.0,0.0,0.0,50.0
559,150.0,0.0,0.0,50.0
560,150.0,0.0,0.0,50.0
561,150.0,0.0,0.0,50.0
562,150.0,0.0,0.0,50.0
563,150.0,0.0,0.0,50.0
564,150.0,0.0,0.0,50.0
565,150.0,0.0,0.0,50.0
566,150.0,0.0,0.0,50.0
567,150.0,0.0,0.0,50.0
568,150.0,0.0,0.0,50.0
569,150.0,0.0,0.0,50.0
570,150.0,0.0,0.0,50.0
571,150.0,0.0,0.0,50.0
572,150.0,0.0,0.0,50.0
573,150.0,0.0,0.0,50.0
574,150.0,0.0,0.0,50.0
575,150.0,0.0,0.0,50.0
576,150.0,0.0,0.0,50.0
577,150.0,0.0,0.0,50.0
578,150.0,0.0,0.0,50.0
579,150.0,0.0,0.0,50.0
580,150.0,0.0,0.0,50.0
581,150.0,0.0,0.0,50.0
582,150.0,0.0,0.0,50.0
583,150.0,0.0,0.0,50.0
584,150.0,0.0,0.0,50.0
585,150.0,0.0,0.0,50.0
586,150.0,0.0,0.0,50.0
587,150.0,0.0,0.0,50.0
588,150.0,0.0,0.0,50.0
589,150.0,0.0,0.0,50.0
590,150.0,0.0,0.0,50.0
591,150.0,0.0,0.0,50.0
592,150.0,0.0,0.0,50.0
593,150.0,0.0,0.0,50.0
594,150.0,0.0,0.0,50.0
595,150.0,0.0,0.0,50.0
596,150.0,0.0,0.0,50.0
597,150.0,0.0,0.0,50.0
598,150.0,0.0,0.0,50.0
599,150.0,0.0,0.0,50.0
600,150.0,0.0,0.0,50.0
601,150.0,0.0,0.0,50.0
602,150.0,0.0,0.0,50.0
603,150.0,0.0,0.0,50.0
604,150.0,0.0,0.0,50.0
605,150.0,0.0,0.0,50.0
606,150.0,0.0,0.0,50.0
607,150.0,0.0,0.0,50.0
608,150.0,0.0,0.0,50.0
609,150.0,0.0,0.0,50.0
610,150.0,0.0,0.0,50.0
611,150.0,0.0,0.0,50.0
612,150.0,0.0,0.0,50.0
613,150.0,0.0,0.0,50.0
614,150.0,0.0,0.0,50.0
615,150.0,0.0,0.0,50.0
616,150.0,0.0,0.0,50.0
617,150.0,0.0,0.0,50.0
618,150.0,0.0,0.0,50.0
619,150.0,0.0,0.0,50.0
620,150.0,0.0,0.0,50.0
621,150.0,0.0,0.0,50.0
622,150.0,0.0,0.0,50.0
623,150.0,0.0,0.0,50.0
624,150.0,0.0,0.0,50.0
625,150.0,0.0,0.0,50.0
626,150.0,0.0,0.0,50.0
627,150.0,0.0,0.0,50.0
628,150.0,0.0,0.0,50.0
629,150.0,0.0,0.0,50.0
630,150.0,0.0,0.0,50.0
631,150.0,0.0,0.0,50.0
632,150.0,0.0,0.0,50.0
633,150.0,0.0,0.0,50.0
634,150.0,0.0,0.0,50.0
635,150.0,0.0,0.0,50.0
636,150.0,0.0,0.0,50.0
637,150.0,0.0,0.0,50.0
638,150.0,0.0,0.0,50.0
639,150.0,0.0,0.0,50.0
640,150.0,0.0,0.0,50.0
641,150.0,0.0,0.0,50.0
642,150.0,0.0,0.0,50.0
643,150.0,0.0,0.0,50.0
644,150.0,0.0,0.0,50.0
645,150.0,0.0,0.0,50.0
646,150.0,0.0,0.0,50.0
647,150.0,0.0,0.0,50.0
648,150.0,0.0,0.0,50.0
649,150.0,0.0,0.0,50.0
650,150.0,0.0,0.0,50.0
651,150.0,0.0,0.0,50.0
652,150.0,0.0,0.0,50.0
653,150.0,0.0,0.0,50.0
654,150.0,0.0,0.0,50.0
655,150.0,0.0,0.0,50.0
656,150.0,0.0,0.0,50.0
657,150.0,0.0,0.0,50.0
658,150.0,0.0,0.0,50.0
659,150.0,0.0,0.0,50.0
660,150.0,0.0,0.0,50.0
661,150.0,0.0,0.0,50.0
662,150.0,0.0,0.0,50.0
663,150.0,0.0,0.0,50.0
664,150.0,0.0,0.0,50.0
665,150.0,0.0,0.0,50.0
666,150.0,0.0,0.0,50.0
667,150.0,0.0,0.0,50.0
668,150.0,0.0,0.0,50.0
669,150.0,0.0,0.0,50.0
670,150.0,0.0,0.0,50.0
671,150.0,0.0,0.0,50.0
672,150.0,0.0,0.0,50.0
673,150.0,0.0,0.0,50.0
674,150.0,0.0,0.0,50.0
675,150.0,0.0,0.0,50.0
676,150.0,0.0,0.0,50.0
677,150.0,0.0,0.0,50.0
678,150.0,0.0,0.0,50.0
679,150.0,0.0,0.0,50.0
680,150.0,0.0,0.0,50.0
681,150.0,0.0,0.0,50.0
682,150.0,0.0,0.0,50.0
683,150.0,0.0,0.0,50.0
684,150.0,0.0,0.0,50.0
685,150.0,0.0,0.0,50.0
686,150.0,0.0,0.0,50.0
687,150.0,0.0,0.0,50.0
688,150.0,0.0,0.0,50.0
689,150.0,0.0,0.0,50.0
690,150.0,0.0,0.0,50.0
691,150.0,0.0,0.0,50.0
692,150.0,0.0,0.0,50.0
693,150.0,0.0,0.0,50.0
694,150.0,0.0,0.0,50.0
695,150.0,0.0,0.0,50.0
696,150.0,0.0,0.0,50.0
697,150.0,0.0,0.0,50.0
698,150.0,0.0,0.0,50.0
699,150.0,0.0,0.0,50.0
700,150.0,0.0,0.0,50.0
701,150.0,0.0,0.0,50.0
702,150.0,0.0,0.0,50.0
703,150.0,0.0,0.0,50.0
704,150.0,0.0,0.0,50.0
705,150.0,0.0,0.0,50.0
706,150.0,0.0,0.0,50.0
707,150.0,0.0,0.0,50.0
708,150.0,0.0,0.0,50.0
709,150.0,0.0,0.0,50.0
710,150.0,0.0,0.0,50.0
711,150.0,0.0,0.0,50.0
712,150.0,0.0,0.0,50.0
713,150.0,0.0,0.0,50.0
714,150.0,0.0,0.0,50.0
715,150.0,0.0,0.0,50.0
716,150.0,0.0,0.0,50.0
717,150.0,0.0,0.0,50.0
718,150.0,0.0,0.0,50.0
719,150.0,0.0,0.0,50.0
720,150.0,0.0,0.0,50.0
721,150.0,0.0,0.0,50.0
722,150.0,0.0,0.0,50.0
723,150.0,0.0,0.0,50.0
724,150.0,0.0,0.0,50.0
725,150.0,0.0,0.0,50.0
726,150.0,0.0,0.0,50.0
727,150.0,0.0,0.0,50.0
728,150.0,0.0,0.0,50.0
729,150.0,0.0,0.0,50.0
730,150.0,0.0,0.0,50.0
731,150.0,0.0,0.0,50.0
732,150.0,0.0,0.0,50.0
733,150.0,0.0,0.0,50.0
734,150.0,0.0,0.0,50.0
735,150.0,0.0,0.0,50.0
736,150.0,0.0,0.0,50.0
737,150.0,0.0,0.0,50.0
738,150.0,0.0,0.0,50.0
739,150.0,0.0,0.0,50.0
740,150.0,0.0,0.0,50.0
741,150.0,0.0,0.0,50.0
742,150.0,0.0,0.0,50.0
743,150.0,0.0,0.0,50.0
744,150.0,0.0,0.0,50.0
745,150.0,0.0,0.0,50.0
746,150.0,0.0,0.0,50.0
747,150.0,0.0,0.0,50.0
748,150.0,0.0,0.0,50.0
749,150.0,0.0,0.0,50.0
750,150.0,0.0,0.0,50.0
751,150.0,0.0,0.0,50.0
752,150.0,0.0,0.0,50.0
753,150.0,0.0,0.0,50.0
754,150.0,0.0,0.0,50.0
755,150.0,0.0,0.0,50.0
756,150.0,0.0,0.0,50.0
757,150.0,0.0,0.0,50.0
758,150.0,0.0,0.0,50.0
759,150.0,0.0,0.0,50.0
760,150.0,0.0,0.0,50.0
761,150.0,0.0,0.0,50.0
762,150.0,0.0,0.0,50.0
763,150.0,0.0,0.0,50.0
764,150.0,0.0,0.0,50.0
765,150.0,0.0,0.0,50.0
766,150.0,0.0,0.0,50.0
767,150.0,0.0,0.0,50.0
768,150.0,0.0,0.0,50.0
769,150.0,0.0,0.0,50.0
770,150.0,0.0,0.0,50.0
771,150.0,0.0,0.0,50.0
772,150.0,0.0,0.0,50.0
773,150.0,0.0,0.0,50.0
774,150.0,0.0,0.0,50.0
775,150.0,0.0,0.0,50.0
776,150.0,0.0,0.0,50.0
777,150.0,0.0,0.0,50.0
778,150.0,0.0,0.0,50.0
779,150.0,0.0,0.0,50.0
780,150.0,0.0,0.0,50.0
781,150.0,0.0,0.0,50.0
782,150.0,0.0,0.0,50.0
783,150.0,0.0,0.0,50.0
784,150.0,0.0,0.0,50.0
785,150.0,0.0,0.0,50.0
786,150.0,0.0,0.0,50.0
787,150.0,0.0,0.0,50.0
788,150.0,0.0,0.0,50.0
789,150.0,0.0,0.0,50.0
790,150.0,0.0,0.0,50.0
791,150.0,0.0,0.0,50.0
792,150.0,0.0,0.0,50.0
793,150.0,0.0,0.0,50.0
794,150.0,0.0,0.0,50.0
795,150.0,0.0,0.0,50.0
796,150.0,0.0,0.0,50.0
797,150.0,0.0,0.0,50.0
798,150.0,0.0,0.0,50.0
799,150.0,0.0,0.0,50.0
800,150.0,0.0,0.0,50.0
801,150.0,0.0,0.0,50.0
802,150.0,0.0,0.0,50.0
803,150.0,0.0,0.0,50.0
804,150.0,0.0,0.0,50.0
805,150.0,0.0,0.0,50.0
806,150.0,0.0,0.0,50.0
807,150.0,0.0,0.0,50.0
808,150.0,0.0,0.0,50.0
809,150.0,0.0,0.0,50.0
810,150.0,0.0,0.0,50.0
811,150.0,0.0,0.0,50.0
812,150.0,0.0,0.0,50.0
813,150.0,0.0,0.0,50.0
814,150.0,0.0,0.0,50.0
815,150.0,0.0,0.0,50.0
816,150.0,0.0,0.0,50.0
817,150.0,0.0,0.0,50.0
818,150.0,0.0,0.0,50.0
819,150.0,0.0,0.0,50.0
820,150.0,0.0,0.0,50.0
821,150.0,0.0,0.0,50.0
822,150.0,0.0,0.0,50.0
823,150.0,0.0,0.0,50.0
824,150.0,0.0,0.0,50.0
825,150.0,0.0,0.0,50.0
826,150.0,0.0,0.0,50.0
827,150.0,0.0,0.0,50.0
828,150.0,0.0,0.0,50.0
829,150.0,0.0,0.0,50.0
830,150.0,0.0,0.0,50.0
831,150.0,0.0,0.0,50.0
832,150.0,0.0,0.0,50.0
833,150.0,0.0,0.0,50.0
834,150.0,0.0,0.0,50.0
835,150.0,0.0,0.0,50.0
836,150.0,0.0,0.0,50.0
837,150.0,0.0,0.0,50.0
838,150.0,0.0,0.0,50.0
839,150.0,0.0,0.0,50.0
840,150.0,0.0,0.0,50.0
841,150.0,0.0,0.0,50.0
842,150.0,0.0,0.0,50.0
843,150.0,0.0,0.0,50.0
844,150.0,0.0,0.0,50.0
845,150.0,0.0,0.0,50.0
846,150.0,0.0,0.0,50.0
847,150.0,0.0,0.0,50.0
848,150.0,0.0,0.0,50.0
849,150.0,0.0,0.0,50.0
850,150.0,0.0,0.0,50.0
851,150.0,0.0,0.0,50.0
852,150.0,0.0,0.0,50.0
853,150.0,0.0,0.0,50.0
854,150.0,0.0,0.0,50.0
855,150.0,0.0,0.0,50.0
856,150.0,0.0,0.0,50.0
857,150.0,0.0,0.0,50.0
858,150.0,0.0,0.0,50.0
859,150.0,0.0,0.0,50.0
860,150.0,0.0,0.0,50.0
861,150.0,0.0,0.0,50.0
862,150.0,0.0,0.0,50.0
863,150.0,0.0,0.0,50.0
864,150.0,0.0,0.0,50.0
865,150.0,0.0,0.0,50.0
866,150.0,0.0,0.0,50.0
867,150.0,0.0,0.0,50.0
868,150.0,0.0,0.0,50.0
869,150.0,0.0,0.0,50.0
870,150.0,0.0,0.0,50.0
871,150.0,0.0,0.0,50.0
872,150.0,0.0,0.0,50.0
873,150.0,0.0,0.0,50.0
874,150.0,0.0,0.0,50.0
875,150.0,0.0,0.0,50.0
876,150.0,0.0,0.0,50.0
877,150.0,0.0,0.0,50.0
878,150.0,0.0,0.0,50.0
879,150.0,0.0,0.0,50.0
880,150.0,0.0,0.0,50.0
881,150.0,0.0,0.0,50.0
882,150.0,0.0,0.0,50.0
883,150.0,0.0,0.0,50.0
884,150.0,0.0,0.0,50.0
885,150.0,0.0,0.0,50.0
886,150.0,0.0,0.0,50.0
887,150.0,0.0,0.0,50.0
888,150.0,0.0,0.0,50.0
889,150.0,0.0,0.0,50.0
890,150.0,0.0,0.0,50.0
891,150.0,0.0,0.0,50.0
892,150.0,0.0,0.0,50.0
893,150.0,0.0,0.0,50.0
894,150.0,0.0,0.0,50.0
895,150.0,0.0,0.0,50.0
896,150.0,0.0,0.0,50.0
897,150.0,0.0,0.0,50.0
898,150.0,0.0,0.0,50.0
899,150.0,0.0,0.0,50.0
900,150.0,0.0,0.0,50.0
901,150.0,0.0,0.0,50.0
902,150.0,0.0,0.0,50.0
903,150.0,0.0,0.0,50.0
904,150.0,0.0,0.0,50.0
905,150.0,0.0,0.0,50.0
906,150.0,0.0,0.0,50.0
907,150.0,0.0,0.0,50.0
908,150.0,0.0,0.0,50.0
909,150.0,0.0,0.0,50.0
910,150.0,0.0,0.0,50.0
911,150.0,0.0,0.0,50.0
912,150.0,0.0,0.0,50.0
913,150.0,0.0,0.0,50.0
914,150.0,0.0,0.0,50.0
915,150.0,0.0,0.0,50.0
916,150.0,0.0,0.0,50.0
917,150.0,0.0,0.0,50.0
918,150.0,0.0,0.0,50.0
919,150.0,0.0,0.0,50.0
920,150.0,0.0,0.0,50.0
921,150.0,0.0,0.0,50.0
922,150.0,0.0,0.0,50.0
923,150.0,0.0,0.0,50.0
924,150.0,0.0,0.0,50.0
925,150.0,0.0,0.0,50.0
926,150.0,0.0,0.0,50.0
927,150.0,0.0,0.0,50.0
928,150.0,0.0,0.0,50.0
929,150.0,0.0,0.0,50.0
930,150.0,0.0,0.0,50.0
931,150.0,0.0,0.0,50.0
932,150.0,0.0,0.0,50.0
933,150.0,0.0,0.0,50.0
934,150.0,0.0,0.0,50.0
935,150.0,0.0,0.0,50.0
936,150.0,0.0,0.0,50.0
937,150.0,0.0,0.0,50.0
938,150.0,0.0,0.0,50.0
939,150.0,0.0,0.0,50.0
940,150.0,0.0,0.0,50.0
941,150.0,0.0,0.0,50.0
942,150.0,0.0,0.0,50.0
943,150.0,0.0,0.0,50.0
944,150.0,0.0,0.0,50.0
945,150.0,0.0,0.0,50.0
946,150.0,0.0,0.0,50.0
947,150.0,0.0,0.0,50.0
948,150.0,0.0,0.0,50.0
949,150.0,0.0,0.0,50.0
950,150.0,0.0,0.0,50.0
951,150.0,0.0,0.0,50.0
952,150.0,0.0,0.0,50.0
953,150.0,0.0,0.0,50.0
954,150.0,0.0,0.0,50.0
955,150.0,0.0,0.0,50.0
956,150.0,0.0,0.0,50.0
957,150.0,0.0,0.0,50.0
958,150.0,0.0,0.0,50.0
959,150.0,0.0,0.0,50.0
960,150.0,0.0,0.0,50.0
961,150.0,0.0,0.0,50.0
962,150.0,0.0,0.0,50.0
963,150.0,0.0,0.0,50.0
964,150.0,0.0,0.0,50.0
965,150.0,0.0,0.0,50.0
966,150.0,0.0,0.0,50.0
967,150.0,0.0,0.0,50.0
968,150.0,0.0,0.0,50.0
969,150.0,0.0,0.0,50.0
970,150.0,0.0,0.0,50.0
971,150.0,0.0,0.0,50.0
972,150.0,0.0,0.0,50.0
973,150.0,0.0,0.0,50.0
974,150.0,0.0,0.0,50.0
975,150.0,0.0,0.0,50.0
976,150.0,0.0,0.0,50.0
977,150.0,0.0,0.0,50.0
978,150.0,0.0,0.0,50.0
979,150.0,0.0,0.0,50.0
980,150.0,0.0,0.0,50.0
981,150.0,0.0,0.0,50.0
982,150.0,0.0,0.0,50.0
983,150.0,0.0,0.0,50.0
984,150.0,0.0,0.0,50.0
985,150.0,0.0,0.0,50.0
986,150.0,0.0,0.0,50.0
987,150.0,0.0,0.0,50.0
988,150.0,0.0,0.0,50.0
989,150.0,0.0,0.0,50.0
990,150.0,0.0,0.0,50.0
991,150.0,0.0,0.0,50.0
992,150.0,0.0,0.0,50.0
993,150.0,0.0,0.0,50.0
994,150.0,0.0,0.0,50.0
995,150.0,0.0,0.0,50.0
996,150.0,0.0,0.0,50.0
997,150.0,0.0,0.0,50.0
998,150.0,0.0,0.0,50.0
999,150.0,0.0,0.0,50.0
1000,150.0,0.0,0.0,50.0
1001,150.0,0.0,0.0,50.0
1002,150.0,0.0,0.0,50.0
1003,150.0,0.0,0.0,50.0
1004,150.0,0.0,0.0,50.0
1005,150.0,0.0,0.0,50.0
1006,150.0,0.0,0.0,50.0
1007,150.0,0.0,0.0,50.0
1008,150.0,0.0,0.0,50.0
1009,150.0,0.0,0.0,50.0
1010,150.0,0.0,0.0,50.0
1011,150.0,0.0,0.0,50.0
1012,150.0,0.0,0.0,50.0
1013,150.0,0.0,0.0,50.0
1014,150.0,0.0,0.0,50.0
1015,150.0,0.0,0.0,50.0
1016,150.0,0.0,0.0,50.0
1017,150.0,0.0,0.0,50.0
1018,150.0,0.0,0.0,50.0
1019,150.0,0.0,0.0,50.0
1020,150.0,0.0,0.0,50.0
1021,150.0,0.0,0.0,50.0
1022,150.0,0.0,0.0,50.0
1023,150.0,0.0,0.0,50.0
1024,150.0,0.0,0.0,50.0
1025,150.0,0.0,0.0,50.0
1026,150.0,0.0,0.0,50.0
1027,150.0,0.0,0.0,50.0
1028,150.0,0.0,0.0,50.0
1029,150.0,0.0,0.0,50.0
1030,150.0,0.0,0.0,50.0
1031,150.0,0.0,0.0,50.0
1032,150.0,0.0,0.0,50.0
1033,150.0,0.0,0.0,50.0
1034,150.0,0.0,0.0,50.0
1035,150.0,0.0,0.0,50.0
1036,150.0,0.0,0.0,50.0
1037,150.0,0.0,0.0,50.0
1038,150.0,0.0,0.0,50.0
1039,150.0,0.0,0.0,50.0
1040,150.0,0.0,0.0,50.0
1041,150.0,0.0,0.0,50.0
1042,150.0,0.0,0.0,50.0
1043,150.0,0.0,0.0,50.0
1044,150.0,0.0,0.0,50.0
1045,150.0,0.0,0.0,50.0
1046,150.0,0.0,0.0,50.0
1047,150.0,0.0,0.0,50.0
1048,150.0,0.0,0.0,50.0
1049,150.0,0.0,0.0,50.0
1050,150.0,0.0,0.0,50.0
1051,150.0,0.0,0.0,50.0
1052,150.0,0.0,0.0,50.0
1053,150.0,0.0,0.0,50.0
1054,150.0,0.0,0.0,50.0
1055,150.0,0.0,0.0,50.0
1056,150.0,0.0,0.0,50.0
1057,150.0,0.0,0.0,50.0
1058,150.0,0.0,0.0,50.0
1059,150.0,0.0,0.0,50.0
1060,150.0,0.0,0.0,50.0
1061,150.0,0.0,0.0,50.0
1062,150.0,0.0,0.0,50.0
1063,150.0,0.0,0.0,50.0
1064,150.0,0.0,0.0,50.0
1065,150.0,0.0,0.0,50.0
1066,150.0,0.0,0.0,50.0
1067,150.0,0.0,0.0,50.0
1068,150.0,0.0,0.0,50.0
1069,150.0,0.0,0.0,50.0
1070,150.0,0.0,0.0,50.0
1071,150.0,0.0,0.0,50.0
1072,150.0,0.0,0.0,50.0
1073,150.0,0.0,0.0,50.0
1074,150.0,0.0,0.0,50.0
1075,150.0,0.0,0.0,50.0
1076,150.0,0.0,0.0,50.0
1077,150.0,0.0,0.0,50.0
1078,150.0,0.0,0.0,50.0
1079,150.0,0.0,0.0,50.0
1080,150.0,0.0,0.0,50.0
1081,150.0,0.0,0.0,50.0
1082,150.0,0.0,0.0,50.0
1083,150.0,0.0,0.0,50.0
1084,150.0,0.0,0.0,50.0
1085,150.0,0.0,0.0,50.0
1086,150.0,0.0,0.0,50.0
1087,150.0,0.0,0.0,50.0
1088,150.0,0.0,0.0,50.0
1089,150.0,0.0,0.0,50.0
1090,150.0,0.0,0.0,50.0
1091,150.0,0.0,0.0,50.0
1092,150.0,0.0,0.0,50.0
1093,150.0,0.0,0.0,50.0
1094,150.0,0.0,0.0,50.0
1095,150.0,0.0,0.0,50.0
1096,150.0,0.0,0.0,50.0
1097,150.0,0.0,0.0,50.0
1098,150.0,0.0,0.0,50.0
1099,150.0,0.0,0.0,50.0
1100,150.0,0.0,0.0,50.0
1101,150.0,0.0,0.0,50.0
1102,150.0,0.0,0.0,50.0
1103,150.0,0.0,0.0,50.0
1104,150.0,0.0,0.0,50.0
1105,150.0,0.0,0.0,50.0
1106,150.0,0.0,0.0,50.0
1107,150.0,0.0,0.0,50.0
1108,150.0,0.0,0.0,50.0
1109,150.0,0.0,0.0,50.0
1110,150.0,0.0,0.0,50.0
1111,150.0,0.0,0.0,50.0
1112,150.0,0.0,0.0,50.0
1113,150.0,0.0,0.0,50.0
1114,150.0,0.0,0.0,50.0
1115,150.0,0.0,0.0,50.0
1116,150.0,0.0,0.0,50.0
1117,150.0,0.0,0.0,50.0
1118,150.0,0.0,0.0,50.0
1119,150.0,0.0,0.0,50.0
1120,150.0,0.0,0.0,50.0
1121,150.0,0.0,0.0,50.0
1122,150.0,0.0,0.0,50.0
1123,150.0,0.0,0.0,50.0
1124,150.0,0.0,0.0,50.0
1125,150.0,0.0,0.0,50.0
1126,150.0,0.0,0.0,50.0
1127,150.0,0.0,0.0,50.0
1128,150.0,0.0,0.0,50.0
1129,150.0,0.0,0.0,50.0
1130,150.0,0.0,0.0,50.0
1131,150.0,0.0,0.0,50.0
1132,150.0,0.0,0.0,50.0
1133,150.0,0.0,0.0,50.0
1134,150.0,0.0,0.0,50.0
1135,150.0,0.0,0.0,50.0
1136,150.0,0.0,0.0,50.0
1137,150.0,0.0,0.0,50.0
1138,150.0,0.0,0.0,50.0
1139,150.0,0.0,0.0,50.0
1140,150.0,0.0,0.0,50.0
1141,150.0,0.0,0.0,50.0
1142,150.0,0.0,0.0,50.0
1143,150.0,0.0,0.0,50.0
1144,150.0,0.0,0.0,50.0
1145,150.0,0.0,0.0,50.0
1146,150.0,0.0,0.0,50.0
1147,150.0,0.0,0.0,50.0
1148,150.0,0.0,0.0,50.0
1149,150.0,0.0,0.0,50.0
1150,150.0,0.0,0.0,50.0
1151,150.0,0.0,0.0,50.0
1152,150.0,0.0,0.0,50.0
1153,150.0,0.0,0.0,50.0
1154,150.0,0.0,0.0,50.0
1155,150.0,0.0,0.0,50.0
1156,150.0,0.0,0.0,50.0
1157,150.0,0.0,0.0,50.0
1158,150.0,0.0,0.0,50.0
1159,150.0,0.0,0.0,50.0
1160,150.0,0.0,0.0,50.0
1161,150.0,0.0,0.0,50.0
1162,150.0,0.0,0.0,50.0
1163,150.0,0.0,0.0,50.0
1164,150.0,0.0,0.0,50.0
1165,150.0,0.0,0.0,50.0
1166,150.0,0.0,0.0,50.0
1167,150.0,0.0,0.0,50.0
1168,150.0,0.0,0.0,50.0
1169,150.0,0.0,0.0,50.0
1170,150.0,0.0,0.0,50.0
1171,150.0,0.0,0.0,50.0
1172,150.0,0.0,0.0,50.0
1173,150.0,0.0,0.0,50.0
1174,150.0,0.0,0.0,50.0
1175,150.0,0.0,0.0,50.0
1176,150.0,0.0,0.0,50.0
1177,150.0,0.0,0.0,50.0
1178,150.0,0.0,0.0,50.0
1179,150.0,0.0,0.0,50.0
1180,150.0,0.0,0.0,50.0
1181,150.0,0.0,0.0,50.0
1182,150.0,0.0,0.0,50.0
1183,150.0,0.0,0.0,50.0
1184,150.0,0.0,0.0,50.0
1185,150.0,0.0,0.0,50.0
1186,150.0,0.0,0.0,50.0
1187,150.0,0.0,0.0,50.0
1188,150.0,0.0,0.0,50.0
1189,150.0,0.0,0.0,50.0
1190,150.0,0.0,0.0,50.0
1191,150.0,0.0,0.0,50.0
1192,150.0,0.0,0.0,50.0
1193,150.0,0.0,0.0,50.0
1194,150.0,0.0,0.0,50.0
1195,150.0,0.0,0.0,50.0
1196,150.0,0.0,0.0,50.0
1197,150.0,0.0,0.0,50.0
1198,150.0,0.0,0.0,50.0
1199,150.0,0.0,0.0,50.0
1200,150.0,0.0,0.0,50.0
1201,150.0,0.0,0.0,50.0
1202,150.0,0.0,0.0,50.0
1203,150.0,0.0,0.0,50.0
1204,150.0,0.0,0.0,50.0
1205,150.0,0.0,0.0,50.0
1206,150.0,0.0,0.0,50.0
1207,150.0,0.0,0.0,50.0
1208,150.0,0.0,0.0,50.0
1209,150.0,0.0,0.0,50.0
1210,150.0,0.0,0.0,50.0
1211,150.0,0.0,0.0,50.0
1212,150.0,0.0,0.0,50.0
1213,150.0,0.0,0.0,50.0
1214,150.0,0.0,0.0,50.0
1215,150.0,0.0,0.0,50.0
1216,150.0,0.0,0.0,50.0
1217,150.0,0.0,0.0,50.0
1218,150.0,0.0,0.0,50.0
1219,150.0,0.0,0.0,50.0
1220,150.0,0.0,0.0,50.0
1221,150.0,0.0,0.0,50.0
1222,150.0,0.0,0.0,50.0
1223,150.0,0.0,0.0,50.0
1224,150.0,0.0,0.0,50.0
1225,150.0,0.0,0.0,50.0
1226,150.0,0.0,0.0,50.0
1227,150.0,0.0,0.0,50.0
1228,150.0,0.0,0.0,50.0
1229,150.0,0.0,0.0,50.0
1230,150.0,0.0,0.0,50.0
1231,150.0,0.0,0.0,50.0
1232,150.0,0.0,0.0,50.0
1233,150.0,0.0,0.0,50.0
1234,150.0,0.0,0.0,50.0
1235,150.0,0.0,0.0,50.0
1236,150.0,0.0,0.0,50.0
1237,150.0,0.0,0.0,50.0
1238,150.0,0.0,0.0,50.0
1239,150.0,0.0,0.0,50.0
1240,150.0,0.0,0.0,50.0
1241,150.0,0.0,0.0,50.0
1242,150.0,0.0,0.0,50.0
1243,150.0,0.0,0.0,50.0
1244,150.0,0.0,0.0,50.0
1245,150.0,0.0,0.0,50.0
1246,150.0,0.0,0.0,50.0
1247,150.0,0.0,0.0,50.0
1248,150.0,0.0,0.0,50.0
1249,150.0,0.0,0.0,50.0
1250,0.0,0.0,0.0,200.0
1251,0.0,0.0,0.0,200.0
1252,0.0,0.0,0.0,200.0
1253,0.0,0.0,0.0,200.0
1254,0.0,0.0,0.0,200.0
1255,0.0,0.0,0.0,200.0
1256,0.0,0.0,0.0,200.0
1257,0.0,0.0,0.0,200.0
1258,0.0,0.0,0.0,200.0
1259,0.0,0.0,0.0,200.0
1260,0.0,0.0,0.0,200.0
1261,0.0,0.0,0.0,200.0
1262,0.0,0.0,0.0,200.0
1263,0.0,0.0,0.0,200.0
1264,0.0,0.0,0.0,200.0
1265,0.0,0.0,0.0,200.0
1266,0.0,0.0,0.0,200.0
1267,0.0,0.0,0.0,200.0
1268,0.0,0.0,0.0,200.0
1269,0.0,0.0,0.0,200.0
1270,0.0,0.0,0.0,200.0
1271,0.0,0.0,0.0,200.0
1272,0.0,0.0,0.0,200.0
1273,0.0,0.0,0.0,200.0
1274,0.0,0.0,0.0,200.0
1275,0.0,0.0,0.0,200.0
1276,0.0,0.0,0.0,200.0
1277,0.0,0.0,0.0,200.0
1278,0.0,0.0,0.0,200.0
1279,0.0,0.0,0.0,200.0
1280,0.0,0.0,0.0,200.0
1281,0.0,0.0,0.0,200.0
1282,0.0,0.0,0.0,200.0
1283,0.0,0.0,0.0,200.0
1284,0.0,0.0,0.0,200.0
1285,0.0,0.0,0.0,200.0
1286,0.0,0.0,0.0,200.0
1287,0.0,0.0,0.0,200.0
1288,0.0,0.0,0.0,200.0
1289,0.0,0.0,0.0,200.0
1290,0.0,0.0,0.0,200.0
1291,0.0,0.0,0.0,200.0
1292,0.0,0.0,0.0,200.0
1293,0.0,0.0,0.0,200.0
1294,0.0,0.0,0.0,200.0
1295,0.0,0.0,0.0,200.0
1296,0.0,0.0,0.0,200.0
1297,0.0,0.0,0.0,200.0
1298,0.0,0.0,0.0,200.0
1299,0.0,0.0,0.0,200.0
1300,0.0,0.0,0.0,200.0
1301,0.0,0.0,0.0,200.0
1302,0.0,0.0,0.0,200.0
1303,0.0,0.0,0.0,200.0
1304,0.0,0.0,0.0,200.0
1305,0.0,0.0,0.0,200.0
1306,0.0,0.0,0.0,200.0
1307,0.0,0.0,0.0,200.0
1308,0.0,0.0,0.0,200.0
1309,0.0,0.0,0.0,200.0
1310,0.0,0.0,0.0,200.0
1311,0.0,0.0,0.0,200.0
1312,0.0,0.0,0.0,200.0
1313,0.0,0.0,0.0,200.0
1314,0.0,0.0,0.0,200.0
1315,0.0,0.0,0.0,200.0
1316,0.0,0.0,0.0,200.0
1317,0.0,0.0,0.0,200.0
1318,0.0,0.0,0.0,200.0
1319,0.0,0.0,0.0,200.0
1320,0.0,0.0,0.0,200.0
1321,0.0,0.0,0.0,200.0
1322,0.0,0.0,0.0,200.0
1323,0.0,0.0,0.0,200.0
1324,0.0,0.0,0.0,200.0
1325,0.0,0.0,0.0,200.0
1326,0.0,0.0,0.0,200.0
1327,0.0,0.0,0.0,200.0
1328,0.0,0.0,0.0,200.0
1329,0.0,0.0,0.0,200.0
1330,0.0,0.0,0.0,200.0
1331,0.0,0.0,0.0,200.0
1332,0.0,0.0,0.0,200.0
1333,0.0,0.0,0.0,200.0
1334,0.0,0.0,0.0,200.0
1335,0.0,0.0,0.0,200.0
1336,0.0,0.0,0.0,200.0
1337,0.0,0.0,0.0,200.0
1338,0.0,0.0,0.0,200.0
1339,0.0,0.0,0.0,200.0
1340,0.0,0.0,0.0,200.0
1341,0.0,0.0,0.0,200.0
1342,0.0,0.0,0.0,200.0
1343,0.0,0.0,0.0,200.0
1344,0.0,0.0,0.0,200.0
1345,0.0,0.0,0.0,200.0
1346,0.0,0.0,0.0,200.0
1347,0.0,0.0,0.0,200.0
1348,0.0,0.0,0.0,200.0
1349,0.0,0.0,0.0,200.0
1350,0.0,0.0,0.0,200.0
1351,0.0,0.0,0.0,200.0
1352,0.0,0.0,0.0,200.0
1353,0.0,0.0,0.0,200.0
1354,0.0,0.0,0.0,200.0
1355,0.0,0.0,0.0,200.0
1356,0.0,0.0,0.0,200.0
1357,0.0,0.0,0.0,200.0
1358,0.0,0.0,0.0,200.0
1359,0.0,0.0,0.0,200.0
1360,0.0,0.0,0.0,200.0
1361,0.0,0.0,0.0,200.0
1362,0.0,0.0,0.0,200.0
1363,0.0,0.0,0.0,200.0
1364,0.0,0.0,0.0,200.0
1365,0.0,0.0,0.0,200.0
1366,0.0,0.0,0.0,200.0
1367,0.0,0.0,0.0,200.0
1368,0.0,0.0,0.0,200.0
1369,0.0,0.0,0.0,200.0
1370,0.0,0.0,0.0,200.0
1371,0.0,0.0,0.0,200.0
1372,0.0,0.0,0.0,200.0
1373,0.0,0.0,0.0,200.0
1374,0.0,0.0,0.0,200.0
1375,0.0,0.0,0.0,200.0
1376,0.0,0.0,0.0,200.0
1377,0.0,0.0,0.0,200.0
1378,0.0,0.0,0.0,200.0
1379,0.0,0.0,0.0,200.0
1380,0.0,0.0,0.0,200.0
1381,0.0,0.0,0.0,200.0
1382,0.0,0.0,0.0,200.0
1383,0.0,0.0,0.0,200.0
1384,0.0,0.0,0.0,200.0
1385,0.0,0.0,0.0,200.0
1386,0.0,0.0,0.0,200.0
1387,0.0,0.0,0.0,200.0
1388,0.0,0.0,0.0,200.0
1389,0.0,0.0,0.0,200.0
1390,0.0,0.0,0.0,200.0
1391,0.0,0.0,0.0,200.0
1392,0.0,0.0,0.0,200.0
1393,0.0,0.0,0.0,200.0
1394,0.0,0.0,0.0,200.0
1395,0.0,0.0,0.0,200.0
1396,0.0,0.0,0.0,200.0
1397,0.0,0.0,0.0,200.0
1398,0.0,0.0,0.0,200.0
1399,0.0,0.0,0.0,200.0
1400,0.0,0.0,0.0,200.0
1401,0.0,0.0,0.0,200.0
1402,0.0,0.0,0.0,200.0
1403,0.0,0.0,0.0,200.0
1404,0.0,0.0,0.0,200.0
1405,0.0,0.0,0.0,200.0
1406,0.0,0.0,0.0,200.0
1407,0.0,0.0,0.0,200.0
1408,0.0,0.0,0.0,200.0
1409,0.0,0.0,0.0,200.0
1410,0.0,0.0,0.0,200.0
1411,0.0,0.0,0.0,200.0
1412,0.0,0.0,0.0,200.0
1413,0.0,0.0,0.0,200.0
1414,0.0,0.0,0.0,200.0
1415,0.0,0.0,0.0,200.0
1416,0.0,0.0,0.0,200.0
1417,0.0,0.0,0.0,200.0
1418,0.0,0.0,0.0,200.0
1419,0.0,0.0,0.0,200.0
1420,0.0,0.0,0.0,200.0
1421,0.0,0.0,0.0,200.0
1422,0.0,0.0,0.0,200.0
1423,0.0,0.0,0.0,200.0
1424,0.0,0.0,0.0,200.0
1425,0.0,0.0,0.0,200.0
1426,0.0,0.0,0.0,200.0
1427,0.0,0.0,0.0,200.0
1428,0.0,0.0,0.0,200.0
1429,0.0,0.0,0.0,200.0
1430,0.0,0.0,0.0,200.0
1431,0.0,0.0,0.0,200.0
1432,0.0,0.0,0.0,200.0
1433,0.0,0.0,0.0,200.0
1434,0.0,0.0,0.0,200.0
1435,0.0,0.0,0.0,200.0
1436,0.0,0.0,0.0,200.0
1437,0.0,0.0,0.0,200.0
1438,0.0,0.0,0.0,200.0
1439,0.0,0.0,0.0,200.0
1440,0.0,0.0,0.0,200.0
1441,0.0,0.0,0.0,200.0
1442,0.0,0.0,0.0,200.0
1443,0.0,0.0,0.0,200.0
1444,0.0,0.0,0.0,200.0
1445,0.0,0.0,0.0,200.0
1446,0.0,0.0,0.0,200.0
1447,0.0,0.0,0.0,200.0
1448,0.0,0.0,0.0,200.0
1449,0.0,0.0,0.0,200.0
1450,0.0,0.0,0.0,200.0
1451,0.0,0.0,0.0,200.0
1452,0.0,0.0,0.0,200.0
1453,0.0,0.0,0.0,200.0
1454,0.0,0.0,0.0,200.0
1455,0.0,0.0,0.0,200.0
1456,0.0,0.0,0.0,200.0
1457,0.0,0.0,0.0,200.0
1458,0.0,0.0,0.0,200.0
1459,0.0,0.0,0.0,200.0
1460,0.0,0.0,0.0,200.0
1461,0.0,0.0,0.0,200.0
1462,0.0,0.0,0.0,200.0
1463,0.0,0.0,0.0,200.0
1464,0.0,0.0,0.0,200.0
1465,0.0,0.0,0.0,200.0
1466,0.0,0.0,0.0,200.0
1467,0.0,0.0,0.0,200.0
1468,0.0,0.0,0.0,200.0
1469,0.0,0.0,0.0,200.0
1470,0.0,0.0,0.0,200.0
1471,0.0,0.0,0.0,200.0
1472,0.0,0.0,0.0,200.0
1473,0.0,0.0,0.0,200.0
1474,0.0,0.0,0.0,200.0
1475,0.0,0.0,0.0,200.0
1476,0.0,0.0,0.0,200.0
1477,0.0,0.0,0.0,200.0
1478,0.0,0.0,0.0,200.0
1479,0.0,0.0,0.0,200.0
1480,0.0,0.0,0.0,200.0
1481,0.0,0.0,0.0,200.0
1482,0.0,0.0,0.0,200.0
1483,0.0,0.0,0.0,200.0
1484,0.0,0.0,0.0,200.0
1485,0.0,0.0,0.0,200.0
1486,0.0,0.0,0.0,200.0
1487,0.0,0.0,0.0,200.0
1488,0.0,0.0,0.0,200.0
1489,0.0,0.0,0.0,200.0
1490,0.0,0.0,0.0,200.0
1491,0.0,0.0,0.0,200.0
1492,0.0,0.0,0.0,200.0
1493,0.0,0.0,0.0,200.0
1494,0.0,0.0,0.0,200.0
1495,0.0,0.0,0.0,200.0
1496,0.0,0.0,0.0,200.0
1497,0.0,0.0,0.0,200.0
1498,0.0,0.0,0.0,200.0
1499,0.0,0.0,0.0,200.0
