,Ch1,Ch2,Ch3,Ch4
0,0.0,0.0,0.0,200.0
1,0.0,0.0,0.0,200.0
2,0.0,0.0,0.0,200.0
3,0.0,0.0,0.0,200.0
4,0.0,0.0,0.0,200.0
5,0.0,0.0,0.0,200.0
6,0.0,0.0,0.0,200.0
7,0.0,0.0,0.0,200.0
8,0.0,0.0,0.0,200.0
9,0.0,0.0,0.0,200.0
10,0.0,0.0,0.0,200.0
11,0.0,0.0,0.0,200.0
12,0.0,0.0,0.0,200.0
13,0.0,0.0,0.0,200.0
14,0.0,0.0,0.0,200.0
15,0.0,0.0,0.0,200.0
16,0.0,0.0,0.0,200.0
17,0.0,0.0,0.0,200.0
18,0.0,0.0,0.0,200.0
19,0.0,0.0,0.0,200.0
20,0.0,0.0,0.0,200.0
21,0.0,0.0,0.0,200.0
22,0.0,0.0,0.0,200.0
23,0.0,0.0,0.0,200.0
24,0.0,0.0,0.0,200.0
25,0.0,0.0,0.0,200.0
26,0.0,0.0,0.0,200.0
27,0.0,0.0,0.0,200.0
28,0.0,0.0,0.0,200.0
29,0.0,0.0,0.0,200.0
30,0.0,0.0,0.0,200.0
31,0.0,0.0,0.0,200.0
32,0.0,0.0,0.0,200.0
33,0.0,0.0,0.0,200.0
34,0.0,0.0,0.0,200.0
35,0.0,0.0,0.0,200.0
36,0.0,0.0,0.0,200.0
37,0.0,0.0,0.0,200.0
38,0.0,0.0,0.0,200.0
39,0.0,0.0,0.0,200.0
40,0.0,0.0,0.0,200.0
41,0.0,0.0,0.0,200.0
42,0.0,0.0,0.0,200.0
43,0.0,0.0,0.0,200.0
44,0.0,0.0,0.0,200.0
45,0.0,0.0,0.0,200.0
46,0.0,0.0,0.0,200.0
47,0.0,0.0,0.0,200.0
48,0.0,0.0,0.0,200.0
49,0.0,0.0,0.0,200.0
50,0.0,0.0,0.0,200.0
51,0.0,0.0,0.0,200.0
52,0.0,0.0,0.0,200.0
53,0.0,0.0,0.0,200.0
54,0.0,0.0,0.0,200.0
55,0.0,0.0,0.0,200.0
56,0.0,0.0,0.0,200.0
57,0.0,0.0,0.0,200.0
58,0.0,0.0,0.0,200.0
59,0.0,0.0,0.0,200.0
60,0.0,0.0,0.0,200.0
61,0.0,0.0,0.0,200.0
62,0.0,0.0,0.0,200.0
63,0.0,0.0,0.0,200.0
64,0.0,0.0,0.0,200.0
65,0.0,0.0,0.0,200.0
66,0.0,0.0,0.0,200.0
67,0.0,0.0,0.0,200.0
68,0.0,0.0,0.0,200.0
69,0.0,0.0,0.0,200.0
70,0.0,0.0,0.0,200.0
71,0.0,0.0,0.0,200.0
72,0.0,0.0,0.0,200.0
73,0.0,0.0,0.0,200.0
74,0.0,0.0,0.0,200.0
75,0.0,0.0,0.0,200.0
76,0.0,0.0,0.0,200.0
77,0.0,0.0,0.0,200.0
78,0.0,0.0,0.0,200.0
79,0.0,0.0,0.0,200.0
80,0.0,0.0,0.0,200.0
81,0.0,0.0,0.0,200.0
82,0.0,0.0,0.0,200.0
83,0.0,0.0,0.0,200.0
84,0.0,0.0,0.0,200.0
85,0.0,0.0,0.0,200.0
86,0.0,0.0,0.0,200.0
87,0.0,0.0,0.0,200.0
88,0.0,0.0,0.0,200.0
89,0.0,0.0,0.0,200.0
90,0.0,0.0,0.0,200.0
91,0.0,0.0,0.0,200.0
92,0.0,0.0,0.0,200.0
93,0.0,0.0,0.0,200.0
94,0.0,0.0,0.0,200.0
95,0.0,0.0,0.0,200.0
96,0.0,0.0,0.0,200.0
97,0.0,0.0,0.0,200.0
98,0.0,0.0,0.0,200.0
99,0.0,0.0,0.0,200.0
100,0.0,0.0,0.0,200.0
101,0.0,0.0,0.0,200.0
102,0.0,0.0,0.0,200.0
103,0.0,0.0,0.0,200.0
104,0.0,0.0,0.0,200.0
105,0.0,0.0,0.0,200.0
106,0.0,0.0,0.0,200.0
107,0.0,0.0,0.0,200.0
108,0.0,0.0,0.0,200.0
109,0.0,0.0,0.0,200.0
110,0.0,0.0,0.0,200.0
111,0.0,0.0,0.0,200.0
112,0.0,0.0,0.0,200.0
113,0.0,0.0,0.0,200.0
114,0.0,0.0,0.0,200.0
115,0.0,0.0,0.0,200.0
116,0.0,0.0,0.0,200.0
117,0.0,0.0,0.0,200.0
118,0.0,0.0,0.0,200.0
119,0.0,0.0,0.0,200.0
120,0.0,0.0,0.0,200.0
121,0.0,0.0,0.0,200.0
122,0.0,0.0,0.0,200.0
123,0.0,0.0,0.0,200.0
124,0.0,0.0,0.0,200.0
125,0.0,0.0,0.0,200.0
126,0.0,0.0,0.0,200.0
127,0.0,0.0,0.0,200.0
128,0.0,0.0,0.0,200.0
129,0.0,0.0,0.0,200.0
130,0.0,0.0,0.0,200.0
131,0.0,0.0,0.0,200.0
132,0.0,0.0,0.0,200.0
133,0.0,0.0,0.0,200.0
134,0.0,0.0,0.0,200.0
135,0.0,0.0,0.0,200.0
136,0.0,0.0,0.0,200.0
137,0.0,0.0,0.0,200.0
138,0.0,0.0,0.0,200.0
139,0.0,0.0,0.0,200.0
140,0.0,0.0,0.0,200.0
141,0.0,0.0,0.0,200.0
142,0.0,0.0,0.0,200.0
143,0.0,0.0,0.0,200.0
144,0.0,0.0,0.0,200.0
145,0.0,0.0,0.0,200.0
146,0.0,0.0,0.0,200.0
147,0.0,0.0,0.0,200.0
148,0.0,0.0,0.0,200.0
149,0.0,0.0,0.0,200.0
150,0.0,0.0,0.0,200.0
151,0.0,0.0,0.0,200.0
152,0.0,0.0,0.0,200.0
153,0.0,0.0,0.0,200.0
154,0.0,0.0,0.0,200.0
155,0.0,0.0,0.0,200.0
156,0.0,0.0,0.0,200.0
157,0.0,0.0,0.0,200.0
158,0.0,0.0,0.0,200.0
159,0.0,0.0,0.0,200.0
160,0.0,0.0,0.0,200.0
161,0.0,0.0,0.0,200.0
162,0.0,0.0,0.0,200.0
163,0.0,0.0,0.0,200.0
164,0.0,0.0,0.0,200.0
165,0.0,0.0,0.0,200.0
166,0.0,0.0,0.0,200.0
167,0.0,0.0,0.0,200.0
168,0.0,0.0,0.0,200.0
169,0.0,0.0,0.0,200.0
170,0.0,0.0,0.0,200.0
171,0.0,0.0,0.0,200.0
172,0.0,0.0,0.0,200.0
173,0.0,0.0,0.0,200.0
174,0.0,0.0,0.0,200.0
175,0.0,0.0,0.0,200.0
176,0.0,0.0,0.0,200.0
177,0.0,0.0,0.0,200.0
178,0.0,0.0,0.0,200.0
179,0.0,0.0,0.0,200.0
180,0.0,0.0,0.0,200.0
181,0.0,0.0,0.0,200.0
182,0.0,0.0,0.0,200.0
183,0.0,0.0,0.0,200.0
184,0.0,0.0,0.0,200.0
185,0.0,0.0,0.0,200.0
186,0.0,0.0,0.0,200.0
187,0.0,0.0,0.0,200.0
188,0.0,0.0,0.0,200.0
189,0.0,0.0,0.0,200.0
190,0.0,0.0,0.0,200.0
191,0.0,0.0,0.0,200.0
192,0.0,0.0,0.0,200.0
193,0.0,0.0,0.0,200.0
194,0.0,0.0,0.0,200.0
195,0.0,0.0,0.0,200.0
196,0.0,0.0,0.0,200.0
197,0.0,0.0,0.0,200.0
198,0.0,0.0,0.0,200.0
199,0.0,0.0,0.0,200.0
200,0.0,0.0,0.0,200.0
201,0.0,0.0,0.0,200.0
202,0.0,0.0,0.0,200.0
203,0.0,0.0,0.0,200.0
204,0.0,0.0,0.0,200.0
205,0.0,0.0,0.0,200.0
206,0.0,0.0,0.0,200.0
207,0.0,0.0,0.0,200.0
208,0.0,0.0,0.0,200.0
209,0.0,0.0,0.0,200.0
210,0.0,0.0,0.0,200.0
211,0.0,0.0,0.0,200.0
212,0.0,0.0,0.0,200.0
213,0.0,0.0,0.0,200.0
214,0.0,0.0,0.0,200.0
215,0.0,0.0,0.0,200.0
216,0.0,0.0,0.0,200.0
217,0.0,0.0,0.0,200.0
218,0.0,0.0,0.0,200.0
219,0.0,0.0,0.0,200.0
220,0.0,0.0,0.0,200.0
221,0.0,0.0,0.0,200.0
222,0.0,0.0,0.0,200.0
223,0.0,0.0,0.0,200.0
224,0.0,0.0,0.0,200.0
225,0.0,0.0,0.0,200.0
226,0.0,0.0,0.0,200.0
227,0.0,0.0,0.0,200.0
228,0.0,0.0,0.0,200.0
229,0.0,0.0,0.0,200.0
230,0.0,0.0,0.0,200.0
231,0.0,0.0,0.0,200.0
232,0.0,0.0,0.0,200.0
233,0.0,0.0,0.0,200.0
234,0.0,0.0,0.0,200.0
235,0.0,0.0,0.0,200.0
236,0.0,0.0,0.0,200.0
237,0.0,0.0,0.0,200.0
238,0.0,0.0,0.0,200.0
239,0.0,0.0,0.0,200.0
240,0.0,0.0,0.0,200.0
241,0.0,0.0,0.0,200.0
242,0.0,0.0,0.0,200.0
243,0.0,0.0,0.0,200.0
244,0.0,0.0,0.0,200.0
245,0.0,0.0,0.0,200.0
246,0.0,0.0,0.0,200.0
247,0.0,0.0,0.0,200.0
248,0.0,0.0,0.0,200.0
249,0.0,0.0,0.0,200.0
250,25.0,0.0,0.0,175.0
251,25.0,0.0,0.0,175.0
252,25.0,0.0,0.0,175.0
253,25.0,0.0,0.0,175.0
254,25.0,0.0,0.0,175.0
255,25.0,0.0,0.0,175.0
256,25.0,0.0,0.0,175.0
257,25.0,0.0,0.0,175.0
258,25.0,0.0,0.0,175.0
259,25.0,0.0,0.0,175.0
260,25.0,0.0,0.0,175.0
261,25.0,0.0,0.0,175.0
262,25.0,0.0,0.0,175.0
263,25.0,0.0,0.0,175.0
264,25.0,0.0,0.0,175.0
265,25.0,0.0,0.0,175.0
266,25.0,0.0,0.0,175.0
267,25.0,0.0,0.0,175.0
268,25.0,0.0,0.0,175.0
269,25.0,0.0,0.0,175.0
270,25.0,0.0,0.0,175.0
271,25.0,0.0,0.0,175.0
272,25.0,0.0,0.0,175.0
273,25.0,0.0,0.0,175.0
274,25.0,0.0,0.0,175.0
275,25.0,0.0,0.0,175.0
276,25.0,0.0,0.0,175.0
277,25.0,0.0,0.0,175.0
278,25.0,0.0,0.0,175.0
279,25.0,0.0,0.0,175.0
280,25.0,0.0,0.0,175.0
281,25.0,0.0,0.0,175.0
282,25.0,0.0,0.0,175.0
283,25.0,0.0,0.0,175.0
284,25.0,0.0,0.0,175.0
285,25.0,0.0,0.0,175.0
286,25.0,0.0,0.0,175.0
287,25.0,0.0,0.0,175.0
288,25.0,0.0,0.0,175.0
289,25.0,0.0,0.0,175.0
290,25.0,0.0,0.0,175.0
291,25.0,0.0,0.0,175.0
292,25.0,0.0,0.0,175.0
293,25.0,0.0,0.0,175.0
294,25.0,0.0,0.0,175.0
295,25.0,0.0,0.0,175.0
296,25.0,0.0,0.0,175.0
297,25.0,0.0,0.0,175.0
298,25.0,0.0,0.0,175.0
299,25.0,0.0,0.0,175.0
300,25.0,0.0,0.0,175.0
301,25.0,0.0,0.0,175.0
302,25.0,0.0,0.0,175.0
303,25.0,0.0,0.0,175.0
304,25.0,0.0,0.0,175.0
305,25.0,0.0,0.0,175.0
306,25.0,0.0,0.0,175.0
307,25.0,0.0,0.0,175.0
308,25.0,0.0,0.0,175.0
309,25.0,0.0,0.0,175.0
310,25.0,0.0,0.0,175.0
311,25.0,0.0,0.0,175.0
312,25.0,0.0,0.0,175.0
313,25.0,0.0,0.0,175.0
314,25.0,0.0,0.0,175.0
315,25.0,0.0,0.0,175.0
316,25.0,0.0,0.0,175.0
317,25.0,0.0,0.0,175.0
318,25.0,0.0,0.0,175.0
319,25.0,0.0,0.0,175.0
320,25.0,0.0,0.0,175.0
321,25.0,0.0,0.0,175.0
322,25.0,0.0,0.0,175.0
323,25.0,0.0,0.0,175.0
324,25.0,0.0,0.0,175.0
325,25.0,0.0,0.0,175.0
326,25.0,0.0,0.0,175.0
327,25.0,0.0,0.0,175.0
328,25.0,0.0,0.0,175.0
329,25.0,0.0,0.0,175.0
330,25.0,0.0,0.0,175.0
331,25.0,0.0,0.0,175.0
332,25.0,0.0,0.0,175.0
333,25.0,0.0,0.0,175.0
334,25.0,0.0,0.0,175.0
335,25.0,0.0,0.0,175.0
336,25.0,0.0,0.0,175.0
337,25.0,0.0,0.0,175.0
338,25.0,0.0,0.0,175.0
339,25.0,0.0,0.0,175.0
340,25.0,0.0,0.0,175.0
341,25.0,0.0,0.0,175.0
342,25.0,0.0,0.0,175.0
343,25.0,0.0,0.0,175.0
344,25.0,0.0,0.0,175.0
345,25.0,0.0,0.0,175.0
346,25.0,0.0,0.0,175.0
347,25.0,0.0,0.0,175.0
348,25.0,0.0,0.0,175.0
349,25.0,0.0,0.0,175.0
350,25.0,0.0,0.0,175.0
351,25.0,0.0,0.0,175.0
352,25.0,0.0,0.0,175.0
353,25.0,0.0,0.0,175.0
354,25.0,0.0,0.0,175.0
355,25.0,0.0,0.0,175.0
356,25.0,0.0,0.0,175.0
357,25.0,0.0,0.0,175.0
358,25.0,0.0,0.0,175.0
359,25.0,0.0,0.0,175.0
360,25.0,0.0,0.0,175.0
361,25.0,0.0,0.0,175.0
362,25.0,0.0,0.0,175.0
363,25.0,0.0,0.0,175.0
364,25.0,0.0,0.0,175.0
365,25.0,0.0,0.0,175.0
366,25.0,0.0,0.0,175.0
367,25.0,0.0,0.0,175.0
368,25.0,0.0,0.0,175.0
369,25.0,0.0,0.0,175.0
370,25.0,0.0,0.0,175.0
371,25.0,0.0,0.0,175.0
372,25.0,0.0,0.0,175.0
373,25.0,0.0,0.0,175.0
374,25.0,0.0,0.0,175.0
375,25.0,0.0,0.0,175.0
376,25.0,0.0,0.0,175.0
377,25.0,0.0,0.0,175.0
378,25.0,0.0,0.0,175.0
379,25.0,0.0,0.0,175.0
380,25.0,0.0,0.0,175.0
381,25.0,0.0,0.0,175.0
382,25.0,0.0,0.0,175.0
383,25.0,0.0,0.0,175.0
384,25.0,0.0,0.0,175.0
385,25.0,0.0,0.0,175.0
386,25.0,0.0,0.0,175.0
387,25.0,0.0,0.0,175.0
388,25.0,0.0,0.0,175.0
389,25.0,0.0,0.0,175.0
390,25.0,0.0,0.0,175.0
391,25.0,0.0,0.0,175.0
392,25.0,0.0,0.0,175.0
393,25.0,0.0,0.0,175.0
394,25.0,0.0,0.0,175.0
395,25.0,0.0,0.0,175.0
396,25.0,0.0,0.0,175.0
397,25.0,0.0,0.0,175.0
398,25.0,0.0,0.0,175.0
399,25.0,0.0,0.0,175.0
400,25.0,0.0,0.0,175.0
401,25.0,0.0,0.0,175.0
402,25.0,0.0,0.0,175.0
403,25.0,0.0,0.0,175.0
404,25.0,0.0,0.0,175.0
405,25.0,0.0,0.0,175.0
406,25.0,0.0,0.0,175.0
407,25.0,0.0,0.0,175.0
408,25.0,0.0,0.0,175.0
409,25.0,0.0,0.0,175.0
410,25.0,0.0,0.0,175.0
411,25.0,0.0,0.0,175.0
412,25.0,0.0,0.0,175.0
413,25.0,0.0,0.0,175.0
414,25.0,0.0,0.0,175.0
415,25.0,0.0,0.0,175.0
416,25.0,0.0,0.0,175.0
417,25.0,0.0,0.0,175.0
418,25.0,0.0,0.0,175.0
419,25.0,0.0,0.0,175.0
420,25.0,0.0,0.0,175.0
421,25.0,0.0,0.0,175.0
422,25.0,0.0,0.0,175.0
423,25.0,0.0,0.0,175.0
424,25.0,0.0,0.0,175.0
425,25.0,0.0,0.0,175.0
426,25.0,0.0,0.0,175.0
427,25.0,0.0,0.0,175.0
428,25.0,0.0,0.0,175.0
429,25.0,0.0,0.0,175.0
430,25.0,0.0,0.0,175.0
431,25.0,0.0,0.0,175.0
432,25.0,0.0,0.0,175.0
433,25.0,0.0,0.0,175.0
434,25.0,0.0,0.0,175.0
435,25.0,0.0,0.0,175.0
436,25.0,0.0,0.0,175.0
437,25.0,0.0,0.0,175.0
438,25.0,0.0,0.0,175.0
439,25.0,0.0,0.0,175.0
440,25.0,0.0,0.0,175.0
441,25.0,0.0,0.0,175.0
442,25.0,0.0,0.0,175.0
443,25.0,0.0,0.0,175.0
444,25.0,0.0,0.0,175.0
445,25.0,0.0,0.0,175.0
446,25.0,0.0,0.0,175.0
447,25.0,0.0,0.0,175.0
448,25.0,0.0,0.0,175.0
449,25.0,0.0,0.0,175.0
450,25.0,0.0,0.0,175.0
451,25.0,0.0,0.0,175.0
452,25.0,0.0,0.0,175.0
453,25.0,0.0,0.0,175.0
454,25.0,0.0,0.0,175.0
455,25.0,0.0,0.0,175.0
456,25.0,0.0,0.0,175.0
457,25.0,0.0,0.0,175.0
458,25.0,0.0,0.0,175.0
459,25.0,0.0,0.0,175.0
460,25.0,0.0,0.0,175.0
461,25.0,0.0,0.0,175.0
462,25.0,0.0,0.0,175.0
463,25.0,0.0,0.0,175.0
464,25.0,0.0,0.0,175.0
465,25.0,0.0,0.0,175.0
466,25.0,0.0,0.0,175.0
467,25.0,0.0,0.0,175.0
468,25.0,0.0,0.0,175.0
469,25.0,0.0,0.0,175.0
470,25.0,0.0,0.0,175.0
471,25.0,0.0,0.0,175.0
472,25.0,0.0,0.0,175.0
473,25.0,0.0,0.0,175.0
474,25.0,0.0,0.0,175.0
475,25.0,0.0,0.0,175.0
476,25.0,0.0,0.0,175.0
477,25.0,0.0,0.0,175.0
478,25.0,0.0,0.0,175.0
479,25.0,0.0,0.0,175.0
480,25.0,0.0,0.0,175.0
481,25.0,0.0,0.0,175.0
482,25.0,0.0,0.0,175.0
483,25.0,0.0,0.0,175.0
484,25.0,0.0,0.0,175.0
485,25.0,0.0,0.0,175.0
486,25.0,0.0,0.0,175.0
487,25.0,0.0,0.0,175.0
488,25.0,0.0,0.0,175.0
489,25.0,0.0,0.0,175.0
490,25.0,0.0,0.0,175.0
491,25.0,0.0,0.0,175.0
492,25.0,0.0,0.0,175.0
493,25.0,0.0,0.0,175.0
494,25.0,0.0,0.0,175.0
495,25.0,0.0,0.0,175.0
496,25.0,0.0,0.0,175.0
497,25.0,0.0,0.0,175.0
498,25.0,0.0,0.0,175.0
499,25.0,0.0,0.0,175.0
500,25.0,0.0,0.0,175.0
501,25.0,0.0,0.0,175.0
502,25.0,0.0,0.0,175.0
503,25.0,0.0,0.0,175.0
504,25.0,0.0,0.0,175.0
505,25.0,0.0,0.0,175.0
506,25.0,0.0,0.0,175.0
507,25.0,0.0,0.0,175.0
508,25.0,0.0,0.0,175.0
509,25.0,0.0,0.0,175.0
510,25.0,0.0,0.0,175.0
511,25.0,0.0,0.0,175.0
512,25.0,0.0,0.0,175.0
513,25.0,0.0,0.0,175.0
514,25.0,0.0,0.0,175.0
515,25.0,0.0,0.0,175.0
516,25.0,0.0,0.0,175.0
517,25.0,0.0,0.0,175.0
518,25.0,0.0,0.0,175.0
519,25.0,0.0,0.0,175.0
520,25.0,0.0,0.0,175.0
521,25.0,0.0,0.0,175.0
522,25.0,0.0,0.0,175.0
523,25.0,0.0,0.0,175.0
524,25.0,0.0,0.0,175.0
525,25.0,0.0,0.0,175.0
526,25.0,0.0,0.0,175.0
527,25.0,0.0,0.0,175.0
528,25.0,0.0,0.0,175.0
529,25.0,0.0,0.0,175.0
530,25.0,0.0,0.0,175.0
531,25.0,0.0,0.0,175.0
532,25.0,0.0,0.0,175.0
533,25.0,0.0,0.0,175.0
534,25.0,0.0,0.0,175.0
535,25.0,0.0,0.0,175.0
536,25.0,0.0,0.0,175.0
537,25.0,0.0,0.0,175.0
538,25.0,0.0,0.0,175.0
539,25.0,0.0,0.0,175.0
540,25.0,0.0,0.0,175.0
541,25.0,0.0,0.0,175.0
542,25.0,0.0,0.0,175.0
543,25.0,0.0,0.0,175.0
544,25.0,0.0,0.0,175.0
545,25.0,0.0,0.0,175.0
546,25.0,0.0,0.0,175.0
547,25.0,0.0,0.0,175.0
548,25.0,0.0,0.0,175.0
549,25.0,0.0,0.0,175.0
550,25.0,0.0,0.0,175.0
551,25.0,0.0,0.0,175.0
552,25.0,0.0,0.0,175.0
553,25.0,0.0,0.0,175.0
554,25.0,0.0,0.0,175.0
555,25.0,0.0,0.0,175.0
556,25.0,0.0,0.0,175.0
557,25.0,0.0,0.0,175.0
558,25.0,0.0,0.0,175.0
559,25.0,0.0,0.0,175.0
560,25.0,0.0,0.0,175.0
561,25.0,0.0,0.0,175.0
562,25.0,0.0,0.0,175.0
563,25.0,0.0,0.0,175.0
564,25.0,0.0,0.0,175.0
565,25.0,0.0,0.0,175.0
566,25.0,0.0,0.0,175.0
567,25.0,0.0,0.0,175.0
568,25.0,0.0,0.0,175.0
569,25.0,0.0,0.0,175.0
570,25.0,0.0,0.0,175.0
571,25.0,0.0,0.0,175.0
572,25.0,0.0,0.0,175.0
573,25.0,0.0,0.0,175.0
574,25.0,0.0,0.0,175.0
575,25.0,0.0,0.0,175.0
576,25.0,0.0,0.0,175.0
577,25.0,0.0,0.0,175.0
578,25.0,0.0,0.0,175.0
579,25.0,0.0,0.0,175.0
580,25.0,0.0,0.0,175.0
581,25.0,0.0,0.0,175.0
582,25.0,0.0,0.0,175.0
583,25.0,0.0,0.0,175.0
584,25.0,0.0,0.0,175.0
585,25.0,0.0,0.0,175.0
586,25.0,0.0,0.0,175.0
587,25.0,0.0,0.0,175.0
588,25.0,0.0,0.0,175.0
589,25.0,0.0,0.0,175.0
590,25.0,0.0,0.0,175.0
591,25.0,0.0,0.0,175.0
592,25.0,0.0,0.0,175.0
593,25.0,0.0,0.0,175.0
594,25.0,0.0,0.0,175.0
595,25.0,0.0,0.0,175.0
596,25.0,0.0,0.0,175.0
597,25.0,0.0,0.0,175.0
598,25.0,0.0,0.0,175.0
599,25.0,0.0,0.0,175.0
600,25.0,0.0,0.0,175.0
601,25.0,0.0,0.0,175.0
602,25.0,0.0,0.0,175.0
603,25.0,0.0,0.0,175.0
604,25.0,0.0,0.0,175.0
605,25.0,0.0,0.0,175.0
606,25.0,0.0,0.0,175.0
607,25.0,0.0,0.0,175.0
608,25.0,0.0,0.0,175.0
609,25.0,0.0,0.0,175.0
610,25.0,0.0,0.0,175.0
611,25.0,0.0,0.0,175.0
612,25.0,0.0,0.0,175.0
613,25.0,0.0,0.0,175.0
614,25.0,0.0,0.0,175.0
615,25.0,0.0,0.0,175.0
616,25.0,0.0,0.0,175.0
617,25.0,0.0,0.0,175.0
618,25.0,0.0,0.0,175.0
619,25.0,0.0,0.0,175.0
620,25.0,0.0,0.0,175.0
621,25.0,0.0,0.0,175.0
622,25.0,0.0,0.0,175.0
623,25.0,0.0,0.0,175.0
624,25.0,0.0,0.0,175.0
625,25.0,0.0,0.0,175.0
626,25.0,0.0,0.0,175.0
627,25.0,0.0,0.0,175.0
628,25.0,0.0,0.0,175.0
629,25.0,0.0,0.0,175.0
630,25.0,0.0,0.0,175.0
631,25.0,0.0,0.0,175.0
632,25.0,0.0,0.0,175.0
633,25.0,0.0,0.0,175.0
634,25.0,0.0,0.0,175.0
635,25.0,0.0,0.0,175.0
636,25.0,0.0,0.0,175.0
637,25.0,0.0,0.0,175.0
638,25.0,0.0,0.0,175.0
639,25.0,0.0,0.0,175.0
640,25.0,0.0,0.0,175.0
641,25.0,0.0,0.0,175.0
642,25.0,0.0,0.0,175.0
643,25.0,0.0,0.0,175.0
644,25.0,0.0,0.0,175.0
645,25.0,0.0,0.0,175.0
646,25.0,0.0,0.0,175.0
647,25.0,0.0,0.0,175.0
648,25.0,0.0,0.0,175.0
649,25.0,0.0,0.0,175.0
650,25.0,0.0,0.0,175.0
651,25.0,0.0,0.0,175.0
652,25.0,0.0,0.0,175.0
653,25.0,0.0,0.0,175.0
654,25.0,0.0,0.0,175.0
655,25.0,0.0,0.0,175.0
656,25.0,0.0,0.0,175.0
657,25.0,0.0,0.0,175.0
658,25.0,0.0,0.0,175.0
659,25.0,0.0,0.0,175.0
660,25.0,0.0,0.0,175.0
661,25.0,0.0,0.0,175.0
662,25.0,0.0,0.0,175.0
663,25.0,0.0,0.0,175.0
664,25.0,0.0,0.0,175.0
665,25.0,0.0,0.0,175.0
666,25.0,0.0,0.0,175.0
667,25.0,0.0,0.0,175.0
668,25.0,0.0,0.0,175.0
669,25.0,0.0,0.0,175.0
670,25.0,0.0,0.0,175.0
671,25.0,0.0,0.0,175.0
672,25.0,0.0,0.0,175.0
673,25.0,0.0,0.0,175.0
674,25.0,0.0,0.0,175.0
675,25.0,0.0,0.0,175.0
676,25.0,0.0,0.0,175.0
677,25.0,0.0,0.0,175.0
678,25.0,0.0,0.0,175.0
679,25.0,0.0,0.0,175.0
680,25.0,0.0,0.0,175.0
681,25.0,0.0,0.0,175.0
682,25.0,0.0,0.0,175.0
683,25.0,0.0,0.0,175.0
684,25.0,0.0,0.0,175.0
685,25.0,0.0,0.0,175.0
686,25.0,0.0,0.0,175.0
687,25.0,0.0,0.0,175.0
688,25.0,0.0,0.0,175.0
689,25.0,0.0,0.0,175.0
690,25.0,0.0,0.0,175.0
691,25.0,0.0,0.0,175.0
692,25.0,0.0,0.0,175.0
693,25.0,0.0,0.0,175.0
694,25.0,0.0,0.0,175.0
695,25.0,0.0,0.0,175.0
696,25.0,0.0,0.0,175.0
697,25.0,0.0,0.0,175.0
698,25.0,0.0,0.0,175.0
699,25.0,0.0,0.0,175.0
700,25.0,0.0,0.0,175.0
701,25.0,0.0,0.0,175.0
702,25.0,0.0,0.0,175.0
703,25.0,0.0,0.0,175.0
704,25.0,0.0,0.0,175.0
705,25.0,0.0,0.0,175.0
706,25.0,0.0,0.0,175.0
707,25.0,0.0,0.0,175.0
708,25.0,0.0,0.0,175.0
709,25.0,0.0,0.0,175.0
710,25.0,0.0,0.0,175.0
711,25.0,0.0,0.0,175.0
712,25.0,0.0,0.0,175.0
713,25.0,0.0,0.0,175.0
714,25.0,0.0,0.0,175.0
715,25.0,0.0,0.0,175.0
716,25.0,0.0,0.0,175.0
717,25.0,0.0,0.0,175.0
718,25.0,0.0,0.0,175.0
719,25.0,0.0,0.0,175.0
720,25.0,0.0,0.0,175.0
721,25.0,0.0,0.0,175.0
722,25.0,0.0,0.0,175.0
723,25.0,0.0,0.0,175.0
724,25.0,0.0,0.0,175.0
725,25.0,0.0,0.0,175.0
726,25.0,0.0,0.0,175.0
727,25.0,0.0,0.0,175.0
728,25.0,0.0,0.0,175.0
729,25.0,0.0,0.0,175.0
730,25.0,0.0,0.0,175.0
731,25.0,0.0,0.0,175.0
732,25.0,0.0,0.0,175.0
733,25.0,0.0,0.0,175.0
734,25.0,0.0,0.0,175.0
735,25.0,0.0,0.0,175.0
736,25.0,0.0,0.0,175.0
737,25.0,0.0,0.0,175.0
738,25.0,0.0,0.0,175.0
739,25.0,0.0,0.0,175.0
740,25.0,0.0,0.0,175.0
741,25.0,0.0,0.0,175.0
742,25.0,0.0,0.0,175.0
743,25.0,0.0,0.0,175.0
744,25.0,0.0,0.0,175.0
745,25.0,0.0,0.0,175.0
746,25.0,0.0,0.0,175.0
747,25.0,0.0,0.0,175.0
748,25.0,0.0,0.0,175.0
749,25.0,0.0,0.0,175.0
750,25.0,0.0,0.0,175.0
751,25.0,0.0,0.0,175.0
752,25.0,0.0,0.0,175.0
753,25.0,0.0,0.0,175.0
754,25.0,0.0,0.0,175.0
755,25.0,0.0,0.0,175.0
756,25.0,0.0,0.0,175.0
757,25.0,0.0,0.0,175.0
758,25.0,0.0,0.0,175.0
759,25.0,0.0,0.0,175.0
760,25.0,0.0,0.0,175.0
761,25.0,0.0,0.0,175.0
762,25.0,0.0,0.0,175.0
763,25.0,0.0,0.0,175.0
764,25.0,0.0,0.0,175.0
765,25.0,0.0,0.0,175.0
766,25.0,0.0,0.0,175.0
767,25.0,0.0,0.0,175.0
768,25.0,0.0,0.0,175.0
769,25.0,0.0,0.0,175.0
770,25.0,0.0,0.0,175.0
771,25.0,0.0,0.0,175.0
772,25.0,0.0,0.0,175.0
773,25.0,0.0,0.0,175.0
774,25.0,0.0,0.0,175.0
775,25.0,0.0,0.0,175.0
776,25.0,0.0,0.0,175.0
777,25.0,0.0,0.0,175.0
778,25.0,0.0,0.0,175.0
779,25.0,0.0,0.0,175.0
780,25.0,0.0,0.0,175.0
781,25.0,0.0,0.0,175.0
782,25.0,0.0,0.0,175.0
783,25.0,0.0,0.0,175.0
784,25.0,0.0,0.0,175.0
785,25.0,0.0,0.0,175.0
786,25.0,0.0,0.0,175.0
787,25.0,0.0,0.0,175.0
788,25.0,0.0,0.0,175.0
789,25.0,0.0,0.0,175.0
790,25.0,0.0,0.0,175.0
791,25.0,0.0,0.0,175.0
792,25.0,0.0,0.0,175.0
793,25.0,0.0,0.0,175.0
794,25.0,0.0,0.0,175.0
795,25.0,0.0,0.0,175.0
796,25.0,0.0,0.0,175.0
797,25.0,0.0,0.0,175.0
798,25.0,0.0,0.0,175.0
799,25.0,0.0,0.0,175.0
800,25.0,0.0,0.0,175.0
801,25.0,0.0,0.0,175.0
802,25.0,0.0,0.0,175.0
803,25.0,0.0,0.0,175.0
804,25.0,0.0,0.0,175.0
805,25.0,0.0,0.0,175.0
806,25.0,0.0,0.0,175.0
807,25.0,0.0,0.0,175.0
808,25.0,0.0,0.0,175.0
809,25.0,0.0,0.0,175.0
810,25.0,0.0,0.0,175.0
811,25.0,0.0,0.0,175.0
812,25.0,0.0,0.0,175.0
813,25.0,0.0,0.0,175.0
814,25.0,0.0,0.0,175.0
815,25.0,0.0,0.0,175.0
816,25.0,0.0,0.0,175.0
817,25.0,0.0,0.0,175.0
818,25.0,0.0,0.0,175.0
819,25.0,0.0,0.0,175.0
820,25.0,0.0,0.0,175.0
821,25.0,0.0,0.0,175.0
822,25.0,0.0,0.0,175.0
823,25.0,0.0,0.0,175.0
824,25.0,0.0,0.0,175.0
825,25.0,0.0,0.0,175.0
826,25.0,0.0,0.0,175.0
827,25.0,0.0,0.0,175.0
828,25.0,0.0,0.0,175.0
829,25.0,0.0,0.0,175.0
830,25.0,0.0,0.0,175.0
831,25.0,0.0,0.0,175.0
832,25.0,0.0,0.0,175.0
833,25.0,0.0,0.0,175.0
834,25.0,0.0,0.0,175.0
835,25.0,0.0,0.0,175.0
836,25.0,0.0,0.0,175.0
837,25.0,0.0,0.0,175.0
838,25.0,0.0,0.0,175.0
839,25.0,0.0,0.0,175.0
840,25.0,0.0,0.0,175.0
841,25.0,0.0,0.0,175.0
842,25.0,0.0,0.0,175.0
843,25.0,0.0,0.0,175.0
844,25.0,0.0,0.0,175.0
845,25.0,0.0,0.0,175.0
846,25.0,0.0,0.0,175.0
847,25.0,0.0,0.0,175.0
848,25.0,0.0,0.0,175.0
849,25.0,0.0,0.0,175.0
850,25.0,0.0,0.0,175.0
851,25.0,0.0,0.0,175.0
852,25.0,0.0,0.0,175.0
853,25.0,0.0,0.0,175.0
854,25.0,0.0,0.0,175.0
855,25.0,0.0,0.0,175.0
856,25.0,0.0,0.0,175.0
857,25.0,0.0,0.0,175.0
858,25.0,0.0,0.0,175.0
859,25.0,0.0,0.0,175.0
860,25.0,0.0,0.0,175.0
861,25.0,0.0,0.0,175.0
862,25.0,0.0,0.0,175.0
863,25.0,0.0,0.0,175.0
864,25.0,0.0,0.0,175.0
865,25.0,0.0,0.0,175.0
866,25.0,0.0,0.0,175.0
867,25.0,0.0,0.0,175.0
868,25.0,0.0,0.0,175.0
869,25.0,0.0,0.0,175.0
870,25.0,0.0,0.0,175.0
871,25.0,0.0,0.0,175.0
872,25.0,0.0,0.0,175.0
873,25.0,0.0,0.0,175.0
874,25.0,0.0,0.0,175.0
875,25.0,0.0,0.0,175.0
876,25.0,0.0,0.0,175.0
877,25.0,0.0,0.0,175.0
878,25.0,0.0,0.0,175.0
879,25.0,0.0,0.0,175.0
880,25.0,0.0,0.0,175.0
881,25.0,0.0,0.0,175.0
882,25.0,0.0,0.0,175.0
883,25.0,0.0,0.0,175.0
884,25.0,0.0,0.0,175.0
885,25.0,0.0,0.0,175.0
886,25.0,0.0,0.0,175.0
887,25.0,0.0,0.0,175.0
888,25.0,0.0,0.0,175.0
889,25.0,0.0,0.0,175.0
890,25.0,0.0,0.0,175.0
891,25.0,0.0,0.0,175.0
892,25.0,0.0,0.0,175.0
893,25.0,0.0,0.0,175.0
894,25.0,0.0,0.0,175.0
895,25.0,0.0,0.0,175.0
896,25.0,0.0,0.0,175.0
897,25.0,0.0,0.0,175.0
898,25.0,0.0,0.0,175.0
899,25.0,0.0,0.0,175.0
900,25.0,0.0,0.0,175.0
901,25.0,0.0,0.0,175.0
902,25.0,0.0,0.0,175.0
903,25.0,0.0,0.0,175.0
904,25.0,0.0,0.0,175.0
905,25.0,0.0,0.0,175.0
906,25.0,0.0,0.0,175.0
907,25.0,0.0,0.0,175.0
908,25.0,0.0,0.0,175.0
909,25.0,0.0,0.0,175.0
910,25.0,0.0,0.0,175.0
911,25.0,0.0,0.0,175.0
912,25.0,0.0,0.0,175.0
913,25.0,0.0,0.0,175.0
914,25.0,0.0,0.0,175.0
915,25.0,0.0,0.0,175.0
916,25.0,0.0,0.0,175.0
917,25.0,0.0,0.0,175.0
918,25.0,0.0,0.0,175.0
919,25.0,0.0,0.0,175.0
920,25.0,0.0,0.0,175.0
921,25.0,0.0,0.0,175.0
922,25.0,0.0,0.0,175.0
923,25.0,0.0,0.0,175.0
924,25.0,0.0,0.0,175.0
925,25.0,0.0,0.0,175.0
926,25.0,0.0,0.0,175.0
927,25.0,0.0,0.0,175.0
928,25.0,0.0,0.0,175.0
929,25.0,0.0,0.0,175.0
930,25.0,0.0,0.0,175.0
931,25.0,0.0,0.0,175.0
932,25.0,0.0,0.0,175.0
933,25.0,0.0,0.0,175.0
934,25.0,0.0,0.0,175.0
935,25.0,0.0,0.0,175.0
936,25.0,0.0,0.0,175.0
937,25.0,0.0,0.0,175.0
938,25.0,0.0,0.0,175.0
939,25.0,0.0,0.0,175.0
940,25.0,0.0,0.0,175.0
941,25.0,0.0,0.0,175.0
942,25.0,0.0,0.0,175.0
943,25.0,0.0,0.0,175.0
944,25.0,0.0,0.0,175.0
945,25.0,0.0,0.0,175.0
946,25.0,0.0,0.0,175.0
947,25.0,0.0,0.0,175.0
948,25.0,0.0,0.0,175.0
949,25.0,0.0,0.0,175.0
950,25.0,0.0,0.0,175.0
951,25.0,0.0,0.0,175.0
952,25.0,0.0,0.0,175.0
953,25.0,0.0,0.0,175.0
954,25.0,0.0,0.0,175.0
955,25.0,0.0,0.0,175.0
956,25.0,0.0,0.0,175.0
957,25.0,0.0,0.0,175.0
958,25.0,0.0,0.0,175.0
959,25.0,0.0,0.0,175.0
960,25.0,0.0,0.0,175.0
961,25.0,0.0,0.0,175.0
962,25.0,0.0,0.0,175.0
963,25.0,0.0,0.0,175.0
964,25.0,0.0,0.0,175.0
965,25.0,0.0,0.0,175.0
966,25.0,0.0,0.0,175.0
967,25.0,0.0,0.0,175.0
968,25.0,0.0,0.0,175.0
969,25.0,0.0,0.0,175.0
970,25.0,0.0,0.0,175.0
971,25.0,0.0,0.0,175.0
972,25.0,0.0,0.0,175.0
973,25.0,0.0,0.0,175.0
974,25.0,0.0,0.0,175.0
975,25.0,0.0,0.0,175.0
976,25.0,0.0,0.0,175.0
977,25.0,0.0,0.0,175.0
978,25.0,0.0,0.0,175.0
979,25.0,0.0,0.0,175.0
980,25.0,0.0,0.0,175.0
981,25.0,0.0,0.0,175.0
982,25.0,0.0,0.0,175.0
983,25.0,0.0,0.0,175.0
984,25.0,0.0,0.0,175.0
985,25.0,0.0,0.0,175.0
986,25.0,0.0,0.0,175.0
987,25.0,0.0,0.0,175.0
988,25.0,0.0,0.0,175.0
989,25.0,0.0,0.0,175.0
990,25.0,0.0,0.0,175.0
991,25.0,0.0,0.0,175.0
992,25.0,0.0,0.0,175.0
993,25.0,0.0,0.0,175.0
994,25.0,0.0,0.0,175.0
995,25.0,0.0,0.0,175.0
996,25.0,0.0,0.0,175.0
997,25.0,0.0,0.0,175.0
998,25.0,0.0,0.0,175.0
999,25.0,0.0,0.0,175.0
1000,25.0,0.0,0.0,175.0
1001,25.0,0.0,0.0,175.0
1002,25.0,0.0,0.0,175.0
1003,25.0,0.0,0.0,175.0
1004,25.0,0.0,0.0,175.0
1005,25.0,0.0,0.0,175.0
1006,25.0,0.0,0.0,175.0
1007,25.0,0.0,0.0,175.0
1008,25.0,0.0,0.0,175.0
1009,25.0,0.0,0.0,175.0
1010,25.0,0.0,0.0,175.0
1011,25.0,0.0,0.0,175.0
1012,25.0,0.0,0.0,175.0
1013,25.0,0.0,0.0,175.0
1014,25.0,0.0,0.0,175.0
1015,25.0,0.0,0.0,175.0
1016,25.0,0.0,0.0,175.0
1017,25.0,0.0,0.0,175.0
1018,25.0,0.0,0.0,175.0
1019,25.0,0.0,0.0,175.0
1020,25.0,0.0,0.0,175.0
1021,25.0,0.0,0.0,175.0
1022,25.0,0.0,0.0,175.0
1023,25.0,0.0,0.0,175.0
1024,25.0,0.0,0.0,175.0
1025,25.0,0.0,0.0,175.0
1026,25.0,0.0,0.0,175.0
1027,25.0,0.0,0.0,175.0
1028,25.0,0.0,0.0,175.0
1029,25.0,0.0,0.0,175.0
1030,25.0,0.0,0.0,175.0
1031,25.0,0.0,0.0,175.0
1032,25.0,0.0,0.0,175.0
1033,25.0,0.0,0.0,175.0
1034,25.0,0.0,0.0,175.0
1035,25.0,0.0,0.0,175.0
1036,25.0,0.0,0.0,175.0
1037,25.0,0.0,0.0,175.0
1038,25.0,0.0,0.0,175.0
1039,25.0,0.0,0.0,175.0
1040,25.0,0.0,0.0,175.0
1041,25.0,0.0,0.0,175.0
1042,25.0,0.0,0.0,175.0
1043,25.0,0.0,0.0,175.0
1044,25.0,0.0,0.0,175.0
1045,25.0,0.0,0.0,175.0
1046,25.0,0.0,0.0,175.0
1047,25.0,0.0,0.0,175.0
1048,25.0,0.0,0.0,175.0
1049,25.0,0.0,0.0,175.0
1050,25.0,0.0,0.0,175.0
1051,25.0,0.0,0.0,175.0
1052,25.0,0.0,0.0,175.0
1053,25.0,0.0,0.0,175.0
1054,25.0,0.0,0.0,175.0
1055,25.0,0.0,0.0,175.0
1056,25.0,0.0,0.0,175.0
1057,25.0,0.0,0.0,175.0
1058,25.0,0.0,0.0,175.0
1059,25.0,0.0,0.0,175.0
1060,25.0,0.0,0.0,175.0
1061,25.0,0.0,0.0,175.0
1062,25.0,0.0,0.0,175.0
1063,25.0,0.0,0.0,175.0
1064,25.0,0.0,0.0,175.0
1065,25.0,0.0,0.0,175.0
1066,25.0,0.0,0.0,175.0
1067,25.0,0.0,0.0,175.0
1068,25.0,0.0,0.0,175.0
1069,25.0,0.0,0.0,175.0
1070,25.0,0.0,0.0,175.0
1071,25.0,0.0,0.0,175.0
1072,25.0,0.0,0.0,175.0
1073,25.0,0.0,0.0,175.0
1074,25.0,0.0,0.0,175.0
1075,25.0,0.0,0.0,175.0
1076,25.0,0.0,0.0,175.0
1077,25.0,0.0,0.0,175.0
1078,25.0,0.0,0.0,175.0
1079,25.0,0.0,0.0,175.0
1080,25.0,0.0,0.0,175.0
1081,25.0,0.0,0.0,175.0
1082,25.0,0.0,0.0,175.0
1083,25.0,0.0,0.0,175.0
1084,25.0,0.0,0.0,175.0
1085,25.0,0.0,0.0,175.0
1086,25.0,0.0,0.0,175.0
1087,25.0,0.0,0.0,175.0
1088,25.0,0.0,0.0,175.0
1089,25.0,0.0,0.0,175.0
1090,25.0,0.0,0.0,175.0
1091,25.0,0.0,0.0,175.0
1092,25.0,0.0,0.0,175.0
1093,25.0,0.0,0.0,175.0
1094,25.0,0.0,0.0,175.0
1095,25.0,0.0,0.0,175.0
1096,25.0,0.0,0.0,175.0
1097,25.0,0.0,0.0,175.0
1098,25.0,0.0,0.0,175.0
1099,25.0,0.0,0.0,175.0
1100,25.0,0.0,0.0,175.0
1101,25.0,0.0,0.0,175.0
1102,25.0,0.0,0.0,175.0
1103,25.0,0.0,0.0,175.0
1104,25.0,0.0,0.0,175.0
1105,25.0,0.0,0.0,175.0
1106,25.0,0.0,0.0,175.0
1107,25.0,0.0,0.0,175.0
1108,25.0,0.0,0.0,175.0
1109,25.0,0.0,0.0,175.0
1110,25.0,0.0,0.0,175.0
1111,25.0,0.0,0.0,175.0
1112,25.0,0.0,0.0,175.0
1113,25.0,0.0,0.0,175.0
1114,25.0,0.0,0.0,175.0
1115,25.0,0.0,0.0,175.0
1116,25.0,0.0,0.0,175.0
1117,25.0,0.0,0.0,175.0
1118,25.0,0.0,0.0,175.0
1119,25.0,0.0,0.0,175.0
1120,25.0,0.0,0.0,175.0
1121,25.0,0.0,0.0,175.0
1122,25.0,0.0,0.0,175.0
1123,25.0,0.0,0.0,175.0
1124,25.0,0.0,0.0,175.0
1125,25.0,0.0,0.0,175.0
1126,25.0,0.0,0.0,175.0
1127,25.0,0.0,0.0,175.0
1128,25.0,0.0,0.0,175.0
1129,25.0,0.0,0.0,175.0
1130,25.0,0.0,0.0,175.0
1131,25.0,0.0,0.0,175.0
1132,25.0,0.0,0.0,175.0
1133,25.0,0.0,0.0,175.0
1134,25.0,0.0,0.0,175.0
1135,25.0,0.0,0.0,175.0
1136,25.0,0.0,0.0,175.0
1137,25.0,0.0,0.0,175.0
1138,25.0,0.0,0.0,175.0
1139,25.0,0.0,0.0,175.0
1140,25.0,0.0,0.0,175.0
1141,25.0,0.0,0.0,175.0
1142,25.0,0.0,0.0,175.0
1143,25.0,0.0,0.0,175.0
1144,25.0,0.0,0.0,175.0
1145,25.0,0.0,0.0,175.0
1146,25.0,0.0,0.0,175.0
1147,25.0,0.0,0.0,175.0
1148,25.0,0.0,0.0,175.0
1149,25.0,0.0,0.0,175.0
1150,25.0,0.0,0.0,175.0
1151,25.0,0.0,0.0,175.0
1152,25.0,0.0,0.0,175.0
1153,25.0,0.0,0.0,175.0
1154,25.0,0.0,0.0,175.0
1155,25.0,0.0,0.0,175.0
1156,25.0,0.0,0.0,175.0
1157,25.0,0.0,0.0,175.0
1158,25.0,0.0,0.0,175.0
1159,25.0,0.0,0.0,175.0
1160,25.0,0.0,0.0,175.0
1161,25.0,0.0,0.0,175.0
1162,25.0,0.0,0.0,175.0
1163,25.0,0.0,0.0,175.0
1164,25.0,0.0,0.0,175.0
1165,25.0,0.0,0.0,175.0
1166,25.0,0.0,0.0,175.0
1167,25.0,0.0,0.0,175.0
1168,25.0,0.0,0.0,175.0
1169,25.0,0.0,0.0,175.0
1170,25.0,0.0,0.0,175.0
1171,25.0,0.0,0.0,175.0
1172,25.0,0.0,0.0,175.0
1173,25.0,0.0,0.0,175.0
1174,25.0,0.0,0.0,175.0
1175,25.0,0.0,0.0,175.0
1176,25.0,0.0,0.0,175.0
1177,25.0,0.0,0.0,175.0
1178,25.0,0.0,0.0,175.0
1179,25.0,0.0,0.0,175.0
1180,25.0,0.0,0.0,175.0
1181,25.0,0.0,0.0,175.0
1182,25.0,0.0,0.0,175.0
1183,25.0,0.0,0.0,175.0
1184,25.0,0.0,0.0,175.0
1185,25.0,0.0,0.0,175.0
1186,25.0,0.0,0.0,175.0
1187,25.0,0.0,0.0,175.0
1188,25.0,0.0,0.0,175.0
1189,25.0,0.0,0.0,175.0
1190,25.0,0.0,0.0,175.0
1191,25.0,0.0,0.0,175.0
1192,25.0,0.0,0.0,175.0
1193,25.0,0.0,0.0,175.0
1194,25.0,0.0,0.0,175.0
1195,25.0,0.0,0.0,175.0
1196,25.0,0.0,0.0,175.0
1197,25.0,0.0,0.0,175.0
1198,25.0,0.0,0.0,175.0
1199,25.0,0.0,0.0,175.0
1200,25.0,0.0,0.0,175.0
1201,25.0,0.0,0.0,175.0
1202,25.0,0.0,0.0,175.0
1203,25.0,0.0,0.0,175.0
1204,25.0,0.0,0.0,175.0
1205,25.0,0.0,0.0,175.0
1206,25.0,0.0,0.0,175.0
1207,25.0,0.0,0.0,175.0
1208,25.0,0.0,0.0,175.0
1209,25.0,0.0,0.0,175.0
1210,25.0,0.0,0.0,175.0
1211,25.0,0.0,0.0,175.0
1212,25.0,0.0,0.0,175.0
1213,25.0,0.0,0.0,175.0
1214,25.0,0.0,0.0,175.0
1215,25.0,0.0,0.0,175.0
1216,25.0,0.0,0.0,175.0
1217,25.0,0.0,0.0,175.0
1218,25.0,0.0,0.0,175.0
1219,25.0,0.0,0.0,175.0
1220,25.0,0.0,0.0,175.0
1221,25.0,0.0,0.0,175.0
1222,25.0,0.0,0.0,175.0
1223,25.0,0.0,0.0,175.0
1224,25.0,0.0,0.0,175.0
1225,25.0,0.0,0.0,175.0
1226,25.0,0.0,0.0,175.0
1227,25.0,0.0,0.0,175.0
1228,25.0,0.0,0.0,175.0
1229,25.0,0.0,0.0,175.0
1230,25.0,0.0,0.0,175.0
1231,25.0,0.0,0.0,175.0
1232,25.0,0.0,0.0,175.0
1233,25.0,0.0,0.0,175.0
1234,25.0,0.0,0.0,175.0
1235,25.0,0.0,0.0,175.0
1236,25.0,0.0,0.0,175.0
1237,25.0,0.0,0.0,175.0
1238,25.0,0.0,0.0,175.0
1239,25.0,0.0,0.0,175.0
1240,25.0,0.0,0.0,175.0
1241,25.0,0.0,0.0,175.0
1242,25.0,0.0,0.0,175.0
1243,25.0,0.0,0.0,175.0
1244,25.0,0.0,0.0,175.0
1245,25.0,0.0,0.0,175.0
1246,25.0,0.0,0.0,175.0
1247,25.0,0.0,0.0,175.0
1248,25.0,0.0,0.0,175.0
1249,25.0,0.0,0.0,175.0
1250,0.0,0.0,0.0,200.0
1251,0.0,0.0,0.0,200.0
1252,0.0,0.0,0.0,200.0
1253,0.0,0.0,0.0,200.0
1254,0.0,0.0,0.0,200.0
1255,0.0,0.0,0.0,200.0
1256,0.0,0.0,0.0,200.0
1257,0.0,0.0,0.0,200.0
1258,0.0,0.0,0.0,200.0
1259,0.0,0.0,0.0,200.0
1260,0.0,0.0,0.0,200.0
1261,0.0,0.0,0.0,200.0
1262,0.0,0.0,0.0,200.0
1263,0.0,0.0,0.0,200.0
1264,0.0,0.0,0.0,200.0
1265,0.0,0.0,0.0,200.0
1266,0.0,0.0,0.0,200.0
1267,0.0,0.0,0.0,200.0
1268,0.0,0.0,0.0,200.0
1269,0.0,0.0,0.0,200.0
1270,0.0,0.0,0.0,200.0
1271,0.0,0.0,0.0,200.0
1272,0.0,0.0,0.0,200.0
1273,0.0,0.0,0.0,200.0
1274,0.0,0.0,0.0,200.0
1275,0.0,0.0,0.0,200.0
1276,0.0,0.0,0.0,200.0
1277,0.0,0.0,0.0,200.0
1278,0.0,0.0,0.0,200.0
1279,0.0,0.0,0.0,200.0
1280,0.0,0.0,0.0,200.0
1281,0.0,0.0,0.0,200.0
1282,0.0,0.0,0.0,200.0
1283,0.0,0.0,0.0,200.0
1284,0.0,0.0,0.0,200.0
1285,0.0,0.0,0.0,200.0
1286,0.0,0.0,0.0,200.0
1287,0.0,0.0,0.0,200.0
1288,0.0,0.0,0.0,200.0
1289,0.0,0.0,0.0,200.0
1290,0.0,0.0,0.0,200.0
1291,0.0,0.0,0.0,200.0
1292,0.0,0.0,0.0,200.0
1293,0.0,0.0,0.0,200.0
1294,0.0,0.0,0.0,200.0
1295,0.0,0.0,0.0,200.0
1296,0.0,0.0,0.0,200.0
1297,0.0,0.0,0.0,200.0
1298,0.0,0.0,0.0,200.0
1299,0.0,0.0,0.0,200.0
1300,0.0,0.0,0.0,200.0
1301,0.0,0.0,0.0,200.0
1302,0.0,0.0,0.0,200.0
1303,0.0,0.0,0.0,200.0
1304,0.0,0.0,0.0,200.0
1305,0.0,0.0,0.0,200.0
1306,0.0,0.0,0.0,200.0
1307,0.0,0.0,0.0,200.0
1308,0.0,0.0,0.0,200.0
1309,0.0,0.0,0.0,200.0
1310,0.0,0.0,0.0,200.0
1311,0.0,0.0,0.0,200.0
1312,0.0,0.0,0.0,200.0
1313,0.0,0.0,0.0,200.0
1314,0.0,0.0,0.0,200.0
1315,0.0,0.0,0.0,200.0
1316,0.0,0.0,0.0,200.0
1317,0.0,0.0,0.0,200.0
1318,0.0,0.0,0.0,200.0
1319,0.0,0.0,0.0,200.0
1320,0.0,0.0,0.0,200.0
1321,0.0,0.0,0.0,200.0
1322,0.0,0.0,0.0,200.0
1323,0.0,0.0,0.0,200.0
1324,0.0,0.0,0.0,200.0
1325,0.0,0.0,0.0,200.0
1326,0.0,0.0,0.0,200.0
1327,0.0,0.0,0.0,200.0
1328,0.0,0.0,0.0,200.0
1329,0.0,0.0,0.0,200.0
1330,0.0,0.0,0.0,200.0
1331,0.0,0.0,0.0,200.0
1332,0.0,0.0,0.0,200.0
1333,0.0,0.0,0.0,200.0
1334,0.0,0.0,0.0,200.0
1335,0.0,0.0,0.0,200.0
1336,0.0,0.0,0.0,200.0
1337,0.0,0.0,0.0,200.0
1338,0.0,0.0,0.0,200.0
1339,0.0,0.0,0.0,200.0
1340,0.0,0.0,0.0,200.0
1341,0.0,0.0,0.0,200.0
1342,0.0,0.0,0.0,200.0
1343,0.0,0.0,0.0,200.0
1344,0.0,0.0,0.0,200.0
1345,0.0,0.0,0.0,200.0
1346,0.0,0.0,0.0,200.0
1347,0.0,0.0,0.0,200.0
1348,0.0,0.0,0.0,200.0
1349,0.0,0.0,0.0,200.0
1350,0.0,0.0,0.0,200.0
1351,0.0,0.0,0.0,200.0
1352,0.0,0.0,0.0,200.0
1353,0.0,0.0,0.0,200.0
1354,0.0,0.0,0.0,200.0
1355,0.0,0.0,0.0,200.0
1356,0.0,0.0,0.0,200.0
1357,0.0,0.0,0.0,200.0
1358,0.0,0.0,0.0,200.0
1359,0.0,0.0,0.0,200.0
1360,0.0,0.0,0.0,200.0
1361,0.0,0.0,0.0,200.0
1362,0.0,0.0,0.0,200.0
1363,0.0,0.0,0.0,200.0
1364,0.0,0.0,0.0,200.0
1365,0.0,0.0,0.0,200.0
1366,0.0,0.0,0.0,200.0
1367,0.0,0.0,0.0,200.0
1368,0.0,0.0,0.0,200.0
1369,0.0,0.0,0.0,200.0
1370,0.0,0.0,0.0,200.0
1371,0.0,0.0,0.0,200.0
1372,0.0,0.0,0.0,200.0
1373,0.0,0.0,0.0,200.0
1374,0.0,0.0,0.0,200.0
1375,0.0,0.0,0.0,200.0
1376,0.0,0.0,0.0,200.0
1377,0.0,0.0,0.0,200.0
1378,0.0,0.0,0.0,200.0
1379,0.0,0.0,0.0,200.0
1380,0.0,0.0,0.0,200.0
1381,0.0,0.0,0.0,200.0
1382,0.0,0.0,0.0,200.0
1383,0.0,0.0,0.0,200.0
1384,0.0,0.0,0.0,200.0
1385,0.0,0.0,0.0,200.0
1386,0.0,0.0,0.0,200.0
1387,0.0,0.0,0.0,200.0
1388,0.0,0.0,0.0,200.0
1389,0.0,0.0,0.0,200.0
1390,0.0,0.0,0.0,200.0
1391,0.0,0.0,0.0,200.0
1392,0.0,0.0,0.0,200.0
1393,0.0,0.0,0.0,200.0
1394,0.0,0.0,0.0,200.0
1395,0.0,0.0,0.0,200.0
1396,0.0,0.0,0.0,200.0
1397,0.0,0.0,0.0,200.0
1398,0.0,0.0,0.0,200.0
1399,0.0,0.0,0.0,200.0
1400,0.0,0.0,0.0,200.0
1401,0.0,0.0,0.0,200.0
1402,0.0,0.0,0.0,200.0
1403,0.0,0.0,0.0,200.0
1404,0.0,0.0,0.0,200.0
1405,0.0,0.0,0.0,200.0
1406,0.0,0.0,0.0,200.0
1407,0.0,0.0,0.0,200.0
1408,0.0,0.0,0.0,200.0
1409,0.0,0.0,0.0,200.0
1410,0.0,0.0,0.0,200.0
1411,0.0,0.0,0.0,200.0
1412,0.0,0.0,0.0,200.0
1413,0.0,0.0,0.0,200.0
1414,0.0,0.0,0.0,200.0
1415,0.0,0.0,0.0,200.0
1416,0.0,0.0,0.0,200.0
1417,0.0,0.0,0.0,200.0
1418,0.0,0.0,0.0,200.0
1419,0.0,0.0,0.0,200.0
1420,0.0,0.0,0.0,200.0
1421,0.0,0.0,0.0,200.0
1422,0.0,0.0,0.0,200.0
1423,0.0,0.0,0.0,200.0
1424,0.0,0.0,0.0,200.0
1425,0.0,0.0,0.0,200.0
1426,0.0,0.0,0.0,200.0
1427,0.0,0.0,0.0,200.0
1428,0.0,0.0,0.0,200.0
1429,0.0,0.0,0.0,200.0
1430,0.0,0.0,0.0,200.0
1431,0.0,0.0,0.0,200.0
1432,0.0,0.0,0.0,200.0
1433,0.0,0.0,0.0,200.0
1434,0.0,0.0,0.0,200.0
1435,0.0,0.0,0.0,200.0
1436,0.0,0.0,0.0,200.0
1437,0.0,0.0,0.0,200.0
1438,0.0,0.0,0.0,200.0
1439,0.0,0.0,0.0,200.0
1440,0.0,0.0,0.0,200.0
1441,0.0,0.0,0.0,200.0
1442,0.0,0.0,0.0,200.0
1443,0.0,0.0,0.0,200.0
1444,0.0,0.0,0.0,200.0
1445,0.0,0.0,0.0,200.0
1446,0.0,0.0,0.0,200.0
1447,0.0,0.0,0.0,200.0
1448,0.0,0.0,0.0,200.0
1449,0.0,0.0,0.0,200.0
1450,0.0,0.0,0.0,200.0
1451,0.0,0.0,0.0,200.0
1452,0.0,0.0,0.0,200.0
1453,0.0,0.0,0.0,200.0
1454,0.0,0.0,0.0,200.0
1455,0.0,0.0,0.0,200.0
1456,0.0,0.0,0.0,200.0
1457,0.0,0.0,0.0,200.0
1458,0.0,0.0,0.0,200.0
1459,0.0,0.0,0.0,200.0
1460,0.0,0.0,0.0,200.0
1461,0.0,0.0,0.0,200.0
1462,0.0,0.0,0.0,200.0
1463,0.0,0.0,0.0,200.0
1464,0.0,0.0,0.0,200.0
1465,0.0,0.0,0.0,200.0
1466,0.0,0.0,0.0,200.0
1467,0.0,0.0,0.0,200.0
1468,0.0,0.0,0.0,200.0
1469,0.0,0.0,0.0,200.0
1470,0.0,0.0,0.0,200.0
1471,0.0,0.0,0.0,200.0
1472,0.0,0.0,0.0,200.0
1473,0.0,0.0,0.0,200.0
1474,0.0,0.0,0.0,200.0
1475,0.0,0.0,0.0,200.0
1476,0.0,0.0,0.0,200.0
1477,0.0,0.0,0.0,200.0
1478,0.0,0.0,0.0,200.0
1479,0.0,0.0,0.0,200.0
1480,0.0,0.0,0.0,200.0
1481,0.0,0.0,0.0,200.0
1482,0.0,0.0,0.0,200.0
1483,0.0,0.0,0.0,200.0
1484,0.0,0.0,0.0,200.0
1485,0.0,0.0,0.0,200.0
1486,0.0,0.0,0.0,200.0
1487,0.0,0.0,0.0,200.0
1488,0.0,0.0,0.0,200.0
1489,0.0,0.0,0.0,200.0
1490,0.0,0.0,0.0,200.0
1491,0.0,0.0,0.0,200.0
1492,0.0,0.0,0.0,200.0
1493,0.0,0.0,0.0,200.0
1494,0.0,0.0,0.0,200.0
1495,0.0,0.0,0.0,200.0
1496,0.0,0.0,0.0,200.0
1497,0.0,0.0,0.0,200.0
1498,0.0,0.0,0.0,200.0
1499,0.0,0.0,0.0,200.0
